266329183179915264
266329183251210240
266329184014589952
266329184308178944
266329184442400769
266329184702435328
266329187059650561
266329187265175552
266329187357450242
266329187906904064
266329187994959872
266329188418600960
266329188544430080
266329188720599040
266329188749950978
266329188817047553
266329189077110784
266329189152600065
266329189433610241
266329190146662400
266329191417536513
266329193351094273
266329193636298752
266329193728589825
266329194936549376
266329196605870081
266329197587341313
266329197771898880
266329197872549888
266329197910298624
266329198413611008
266329199269265408
266329199499952128
266329200556916736
266329200905056256
266329201207046146
266329201412538369
266329201861341185
266329202637279232
266329203228680193
266329203287416833
266329203564236801
266329203887190016
266329204033978368
266329204096917504
266329204457623552
266329204805754880
266329204918996992
266329205703323648
266329205829169152
266329206005321729
266329206189871104
266329206705766400
266329207108403200
266329209453043712
266329209461436416
266329209587253249
266329211600510976
266329212275814400
266329213643157504
266329213936758785
266329214083534848
266329214251319297
266329214351986688
266329214356160513
266329214700109825
266329215769649153
266329217988444160
266329218772766720
266329218806321152
266329219183812609
266329219330617345
266329219762647040
266329220244971520
266329220257558529
266329221108994048
266329221650071552
266329221763317760
266329223613018112
266329223617196033
266329223743025152
266329223856263168
266329224246353920
266329224489627648
266329225764667394
266329226112823296
266329226167324672
266329226305748992
266329226477699072
266329226536423425
266329228339978241
266329228990107648
266329229023666178
266329229799600128
266329229950611457
266329229954777088
266329230072217600
266329230558756865
266329230692982785
266329230906904576
266329232093884416
266329232928559104
266329233113092096
266329233268285440
266329233998106625
266329234081988608
266329234195230721
266329234451070976
266329234493038593
266329234916659200
266329235436744704
266329235931668480
266329236841828353
266329236900556800
266329236963479552
266329239534587906
266329239874318336
266329239874326528
266329239995949056
266329240293736448
266329240553787392
266329241765937152
266329242877435905
266329243896672257
266329244248973312
266329244580319232
266329244592926720
266329245238841344
266329246098665472
266329246463557632
266329246962683904
266329247537315840
266329247650574336
266329247780585473
266329247889625088
266329248069980160
266329248103538688
266329248908845056
266329249709961217
266329250276208640
266329251278647297
266329251874234368
266329251953930240
266329252952174592
266329252977311744
266329253057024000
266329253367406592
266329253442891776
266329253480652800
266329254160109571
266329254638276609
266329254755725312
266329255414202368
266329256123039744
266329256198537216
266329256638951424
266329256676691968
266329256949325826
266329257813360640
266329258002096128
266329258450882560
266329258488631297
266329259109396481
266329260745166850
266329260879384577
266329261495971841
266329262863298561
266329263412760576
266329263530205185
266329264629088256
266329266155835392
266329266256502784
266329266516533250
266329266860478464
266329267770638337
266329268483678208
266329270694064128
266329270715031552
266329271063175169
266329273386819584
266329274183720960
266329274234052611
266329275098071040
266329275580432384
266329276553523200
266329277623062529
266329277933420544
266329278524833792
266329279216893952
266329279787302913
266329280076709888
266329280261263360
266329280848465922
266329281062387713
266329281091751936
266329282043863041
266329282387800064
266329283348295680
266329283662852096
266329284971470849
266329285067948033
266329287248990208
266329287362224128
266329288385630208
266329288414998529
266329288448565250
266329289186758658
266329289711026176
266329289857851392
266329289878798336
266329289962688512
266329290059165696
266329290306621440
266329290478604290
266329291795607552
266329292747702272
266329292990971904
266329293116821504
266329294538670080
266329295004250112
266329295067172864
266329295230754817
266329295402696705
266329296753291265
266329296996560896
266329297466302464
266329297973809152
266329298447765504
266329299034976256
266329299890622464
266329300171636739
266329300192608256
266329300331012096
266329300935008256
266329301224394752
266329301358608385
266329301639634944
266329302113599489
266329302197489666
266329302533013505
266329302663065600
266329303107637248
266329303116038144
266329303132827648
266329303141199872
266329304487559168
266329307373256704
266329307473911809
266329307536830464
266329308337954816
266329309843693568
266329311034884097
266329311051673602
266329311915671552
266329312016351232
266329313392095232
266329313618567168
266329313715048448
266329313840885763
266329314042212352
266329314113499138
266329314465820673
266329315015278593
266329316185473026
266329316990803970
266329319238930433
266329319419305984
266329319754833921
266329320119758850
266329321130573825
266329321810042882
266329322405625856
266329322959294464
266329323143843841
266329323408068608
266329323705868288
266329324494405633
266329325974978561
266329326369271808
266329326880948224
266329327413641216
266329327879213056
266329328084713472
266329328286064640
266329328348966912
266329328797757441
266329329078771712
266329330148319234
266329331553415169
266329331570184192
266329331993804800
266329332262264833
266329332400668675
266329332945915905
266329332962697220
266329333533138945
266329333780594688
266329334346825728
266329334640418817
266329335651246081
266329336498515969
266329337693863936
266329337802940418
266329338264289280
266329338515976193
266329339300282368
266329340546007040
266329340881563648
266329340910899201
266329341506502657
266329342689304576
266329342769000448
266329342869659648
266329343062601728
266329343507169280
266329343645597696
266329344052445185
266329344060846081
266329344488656897
266329344517996545
266329344547356674
266329345285570560
266329345965056001
266329346904555521
266329347470807041
266329348112523265
266329348787818496
266329348829761537
266329348972355584
266329349307912192
266329350859796480
266329353917456384
266329354211033089
266329354672414721
266329354827620353
266329354974420992
266329355972648960
266329356295622656
266329356694069248
266329358241763328
266329359151927296
266329360729010176
266329360997416960
266329361421053952
266329361534291968
266329362591264768
266329362893242369
266329362989715457
266329363094577152
266329363228786689
266329363245580290
266329363572731906
266329364432551936
266329365258833921
266329365418225664
266329367469248512
266329367733473281
266329367930626049
266329368161292288
266329368761102336
266329368983384065
266329369167933441
266329369797074944
266329370568847360
266329370644332544
266329370656923648
266329370933731330
266329371046977537
266329371122491392
266329371671920641
266329372665978885
266329374255616000
266329374754738177
266329375144812545
266329375409065984
266329375790727168
266329376029810689
266329376063373312
266329376679948288
266329377174867969
266329377824989185
266329378307313664
266329378848387072
266329379406245888
266329379867598848
266329380115054593
266329380710670336
266329381335613440
266329381356572672
266329381545340929
266329382010880001
266329382283538432
266329382296100865
266329382585520128
266329382853951488
266329383265005568
266329383495684096
266329383600529408
266329383835410432
266329384170971137
266329384439402496
266329384640720896
266329385232105472
266329386859515904
266329387052437504
266329387794829313
266329388465926144
266329388923101184
266329389229297664
266329389514514432
266329390139465730
266329390152044544
266329390311432192
266329390768599040
266329391242567680
266329391452270592
266329392035270658
266329392425357312
266329392702177281
266329393129996288
266329393150963712
266329393268400129
266329393314557952
266329393729781760
266329394388299776
266329394543484928
266329394983882752
266329395973738496
266329396162465793
266329396464459777
266329396539949056
266329396594487297
266329396720312320
266329396787417089
266329396816793600
266329396862914560
266329397559185409
266329399501152257
266329399639543808
266329399719243776
266329399740211200
266329401032056834
266329401459871744
266329401820581889
266329401984155648
266329402185494529
266329404475588608
266329404739825664
266329405289287681
266329406472089601
266329407365451776
266329407680045056
266329408120438785
266329408657313793
266329408858632192
266329409005441025
266329409307426817
266329409580052481
266329410603462656
266329411769475072
266329412256014336
266329412318920704
266329412360867840
266329412365078528
266329412717400065
266329412826443776
266329413124243456
266329413392678912
266329413828878336
266329414026002432
266329415410147329
266329415473041408
266329415611453440
266329416144125952
266329416777465856
266329418086096897
266329418597810176
266329418685902849
266329418719457282
266329418807513088
266329418899812352
266329419071754241
266329420111941632
266329421437337602
266329421445754880
266329421621891072
266329421709996032
266329421814845442
266329422162956288
266329423580626944
266329424453058561
266329425094787074
266329426906714113
266329427116437504
266329427233865728
266329428353744896
266329429171638272
266329429519777793
266329429595267072
266329430178267137
266329430903898114
266329433483382784
266329435773485057
266329436083875840
266329436243238913
266329436301971457
266329436461334528
266329436742365184
266329437891620864
266329438449463296
266329438826921986
266329438923415553
266329439477059584
266329439481241600
266329439481257984
266329439716122625
266329440064245760
266329440127172608
266329440194277377
266329440232026112
266329440534024192
266329440638881793
266329441205092352
266329441725198337
266329442341773312
266329442765373440
266329443163844608
266329443616841728
266329444032073728
266329444489232384
266329444493443072
266329444514402304
266329446309568512
266329446598991874
266329446624153600
266329447341367296
266329448050225153
266329448394149888
266329449379794944
266329451468582912
266329451644743680
266329451925749760
266329452756213762
266329452882038784
266329453049806848
266329453293080576
266329454857560064
266329455386062849
266329455553806337
266329456103288832
266329456484945920
266329457361575937
266329457537720322
266329457705512960
266329457911033857
266329457978134528
266329458233982979
266329458267549697
266329458582093824
266329459458732032
266329460045926402
266329460096262144
266329460238864385
266329460356304896
266329460440182784
266329460696027137
266329461308416000
266329462063390720
266329462201782272
266329462428286976
266329462524764160
266329462566711296
266329463405543427
266329463497842688
266329464043085826
266329464072454144
266329464860987392
266329465301393408
266329465586585600
266329465804701696
266329465901170690
266329466173808641
266329466668732416
266329467897647104
266329468036055040
266329468954628096
266329469856395265
266329470418440193
266329470443597824
266329470863036416
266329471437664257
266329471546716160
266329471945162752
266329472859504641
266329473803227136
266329474172329984
266329474323320832
266329474814062593
266329475359322112
266329475594194944
266329476416274433
266329476504354817
266329477259350016
266329477871722496
266329477896867840
266329478400204801
266329479356510209
266329479725592577
266329479922733056
266329480484749312
266329481466232833
266329481495584770
266329482703544320
266329483332694016
266329483794071553
266329484263825408
266329485010411520
266329485345959936
266329485719261184
266329485832507392
266329486176419843
266329487694782464
266329488512659457
266329490362347520
266329490668535809
266329491914244096
266329491951992834
266329492488867842
266329492841181184
266329492912488448
266329493000577025
266329493705224193
266329494036561921
266329494154010624
266329494330163200
266329495668154368
266329496276328448
266329496381165568
266329496423104512
266329496574128128
266329496624443392
266329496821563392
266329496913862656
266329496943226880
266329497727537152
266329498901958657
266329499438821377
266329500072173569
266329500260909057
266329501682761728
266329501875703808
266329502207074304
266329502240608256
266329502475509760
266329502567768065
266329502966247424
266329503729586176
266329504383901696
266329504572657665
266329504895619072
266329507097608192
266329507189891072
266329507424792577
266329507781283842
266329507991019520
266329508003606528
266329508158783488
266329508867624961
266329509035401217
266329509215739904
266329509798760449
266329510826360832
266329511354826753
266329511942057984
266329512332124160
266329514282450945
266329514576080896
266329515393966081
266329515448496128
266329515565912064
266329516148916224
266329516266360834
266329517314949120
266329517482717184
266329517566599168
266329517835030529
266329518120255488
266329518757777408
266329519785385984
266329520804597760
266329520880099329
266329520951402497
266329521681203200
266329521744130048
266329523035979776
266329523052744704
266329523291824128
266329523421859840
266329523442823169
266329524050997248
266329524122288129
266329525552549889
266329525749690369
266329526076850176
266329527330938881
266329527838445568
266329528434036736
266329528463413248
266329528706662400
266329529147076608
266329529268703233
266329529340018688
266329530816405504
266329531130990592
266329531231633408
266329531630100480
266329532674498560
266329533043580929
266329533400109057
266329535753097216
266329535946055680
266329536101232641
266329536403218433
266329536587771905
266329537187553282
266329537913171968
266329537938337793
266329538638782464
266329538852683776
266329539557343234
266329541268606977
266329541365100544
266329541507694592
266329541872607232
266329542455595008
266329542682112000
266329542879232000
266329543479029760
266329543483224065
266329544313696256
266329544837976064
266329545299341312
266329546524086273
266329546855424003
266329547023187968
266329547149033472
266329547908198402
266329547941769216
266329548038230016
266329548176650241
266329549032280064
266329549665611777
266329549808218112
266329550017949697
266329550999400449
266329551796310017
266329553511784448
266329554325499904
266329554866556928
266329555814449152
266329556116439041
266329556938543104
266329557135654912
266329557144043520
266329557173424128
266329557450240000
266329557634793474
266329559824211968
266329560973471744
266329561531305984
266329563699748864
266329563963994112
266329564312137728
266329564450533377
266329565478141953
266329567164260353
266329568569352192
266329568946814976
266329569324306434
266329569643085824
266329569672433665
266329570041556993
266329571387916289
266329571421470720
266329571593424897
266329571656335360
266329571790565377
266329571887030273
266329573044678658
266329573615095808
266329574101618689
266329574189699072
266329574407798786
266329574424596481
266329575171170304
266329575280222208
266329575510929408
266329576093925376
266329576886632448
266329577251549186
266329578358849536
266329579138973696
266329579436777472
266329580187557888
266329581672349696
266329582024679426
266329582221815811
266329582318268418
266329582372802563
266329583723356160
266329583849201665
266329584113426432
266329584448970752
266329584918753282
266329586558697472
266329586634199041
266329586634207232
266329588160946176
266329588802654208
266329589087866881
266329590794964992
266329591180820482
266329592619495424
266329593668055041
266329594452402176
266329595102523392
266329595484196864
266329595526123521
266329596335628288
266329598336327681
266329598642487297
266329598885765120
266329599103885312
266329600592842752
266329601901481985
266329602199273472
266329603583381504
266329604023803904
266329605521174529
266329606343258114
266329607131783171
266329607710576640
266329609015013376
266329610520780800
266329610524979200
266329611095388162
266329611103764480
266329611196051456
266329611279953920
266329611560964096
266329612097835008
266329612705992705
266329612827627520
266329612924116993
266329613121245185
266329613687480320
266329613712621568
266329613922340866
266329614014627840
266329614383738880
266329615394562048
266329615675555840
266329615688163328
266329615990145024
266329616019488768
266329616568954880
266329618863239169
266329619928608769
266329620645814272
266329620696158208
266329622264836097
266329622923317249
266329622990422016
266329623254671360
266329623598608384
266329624827531264
266329624894636032
266329625620254720
266329626694017024
266329626991808512
266329627113431041
266329627377668096
266329627717410818
266329628216549376
266329629386739712
266329630426939393
266329630796029954
266329631215480832
266329631664271360
266329631769116672
266329632180146176
266329632905781248
266329633417486336
266329633434267652
266329634759659520
266329634977746944
266329636009566208
266329636118605825
266329636810657792
266329636965859328
266329636970053632
266329637053923328
266329637343354880
266329637951533056
266329637976686592
266329638421270528
266329638752620544
266329638823936000
266329638849101825
266329639302098944
266329639310475265
266329639314669571
266329639339827200
266329640585531392
266329641046908928
266329641772535809
266329642313588736
266329642946924545
266329643869696000
266329643999719424
266329644054228994
266329644305883137
266329645559980032
266329645757124609
266329645765513218
266329645937463298
266329646033948672
266329646210117632
266329646222684161
266329646545637376
266329647376117760
266329647682318336
266329651088076801
266329651293589504
266329652543488001
266329652807753728
266329653323628545
266329653436899328
266329654049255424
266329654422564864
266329654510616576
266329655559217152
266329655869575168
266329657085939713
266329657908031488
266329658277105664
266329658457481217
266329658549735424
266329659245993984
266329659652849665
266329659673825280
266329659837399042
266329659845787648
266329660445560832
266329660634324994
266329661095682048
266329661817106432
266329661934563328
266329663020871681
266329663159279616
266329663574528000
266329663603875841
266329663826186241
266329664040075264
266329665071878145
266329665399046144
266329667382951937
266329667844317184
266329667844317185
266329668905488385
266329669152940033
266329669245222913
266329669329121280
266329669798883328
266329670411235328
266329670520287232
266329670713225216
266329670977482752
266329671493361664
266329671707291650
266329672051200000
266329672349016064
266329672634224641
266329673267556352
266329673364025344
266329673498243072
266329673498259456
266329673783447552
266329673821200384
266329674240626689
266329674639093760
266329674953682944
266329674983038976
266329675477954560
266329675675090946
266329675964489728
266329676195188738
266329676576854017
266329677403140096
266329678367830017
266329679034732545
266329681001840640
266329681421287424
266329681635192832
266329683304534019
266329683455537153
266329683757506562
266329683870765056
266329683992379392
266329684474748928
266329684738973696
266329684764147715
266329685644939264
266329685997273088
266329688073445376
266329688903909376
266329688924889088
266329690237710336
266329690418077696
266329690711654400
266329690837495808
266329691013648385
266329691126919168
266329692213239808
266329692305510400
266329692959813632
266329694025166850
266329694285201408
266329694482358275
266329694801121280
266329695430258688
266329696009072641
266329696415920130
266329697116381184
266329697548390401
266329697590337536
266329698538233856
266329698756337665
266329699091902464
266329699750391809
266329699783954432
266329699960094720
266329700480200704
266329700757028866
266329701629435905
266329702896132097
266329703235862528
266329704104091648
266329704569655296
266329705312055297
266329708315176961
266329708541665280
266329708659109889
266329708780728321
266329711439917056
266329712085835776
266329713130233858
266329713566445568
266329714635984896
266329715042816000
266329715692949504
266329715927838720
266329715965566976
266329716154310656
266329716686979073
266329716846366720
266329717727166465
266329718561857536
266329718679298049
266329719056769025
266329719379734528
266329719648174084
266329720113733633
266329720302473216
266329720440885249
266329720642207744
266329720893890560
266329721539801089
266329725394354176
266329725901881344
266329726128377856
266329726250020865
266329726736556032
266329727214694401
266329728389095425
266329729081163776
266329729378967554
266329729710317570
266329730301693952
266329731446747137
266329732122034176
266329732784738305
266329733879435264
266329733959135232
266329734844129280
266329735611703297
266329735775285249
266329736018550784
266329736500895744
266329736786087937
266329737146802176
266329737197142016
266329740103786496
266329740250599424
266329740602916864
266329740946849793
266329741768929280
266329742762971137
266329743127887872
266329743853506560
266329744155504640
266329744361005056
266329744704954368
266329744738512896
266329745493458944
266329745896128512
266329746458157057
266329747729039360
266329749402570754
266329749511630848
266329750321115136
266329750493069314
266329750505656321
266329750941876224
266329751298400256
266329751361306625
266329752040771585
266329752380518400
266329752590229505
266329752598609920
266329753416503296
266329753554939905
266329754016305153
266329754167291905
266329754578333696
266329754976780288
266329755010351104
266329755173941248
266329755924713472
266329756549660672
266329756847452160
266329757791162368
266329758269317121
266329758399348738
266329758919450624
266329758994927616
266329759011721216
266329760894947328
266329761989672962
266329762119692292
266329762467815424
266329763273117696
266329763432517632
266329764061650944
266329764413980674
266329764581740545
266329764967616512
266329765072486400
266329766183976961
266329768138530816
266329770344714240
266329770755764224
266329771137433600
266329771863068673
266329772517384192
266329773071032320
266329773087784961
266329773930844160
266329774190903296
266329774828441600
266329776271261698
266329776384524288
266329777164673024
266329778137751552
266329778238402560
266329778259374080
266329779089846272
266329779559608322
266329780192964608
266329780276834304
266329780603994112
266329780935348224
266329780952121344
266329781019213824
266329781744852992
266329782189441024
266329783229612032
266329783753904129
266329783758118913
266329783837798400
266329783967825921
266329785502928896
266329785679106048
266329785830105088
266329786341810178
266329787184840704
266329788296347648
266329788476698624
266329789638516736
266329789734989825
266329789927927809
266329790011822080
266329790129266691
266329790343159809
266329790414475264
266329790427062272
266329790963916801
266329791026847744
266329791072960512
266329792159289344
266329793157537793
266329793375645698
266329793715388416
266329793782497280
266329793790885888
266329794248065024
266329794457772032
266329794533265409
266329795573460992
266329795904811008
266329796357791745
266329796496199680
266329797041471488
266329797465096192
266329797884510208
266329798199099394
266329798245228545
266329798475935745
266329798853419009
266329800417898496
266329802334683136
266329803202904064
266329803307753473
266329803404226561
266329803546824704
266329805648191488
266329806063403009
266329806600286209
266329807749521408
266329808189923329
266329808500322304
266329810551320576
266329810572308481
266329810802995200
266329811146924032
266329811696369664
266329811964801024
266329812279373824
266329812644294656
266329813025964033
266329813487341569
266329813571219457
266329813697064960
266329815127310337
266329815668379648
266329816637272064
266329817727762432
266329818017181697
266329818050748416
266329818226888704
266329818767974400
266329819329986561
266329820747665410
266329820890271744
266329821200646144
266329821573955584
266329821636857856
266329822077267968
266329822496702465
266329822576381952
266329822639292416
266329822849032192
266329823046144001
266329823461388288
266329824111521792
266329824132489216
266329824237350912
266329824325419009
266329824543526912
266329825281712129
266329825281732608
266329825420124160
266329825655025664
266329827752161280
266329827987054594
266329828532314112
266329829077569536
266329829098532865
266329829543120896
266329830008696832
266329830478450689
266329832294596608
266329832508518401
266329832529489920
266329832659492864
266329833376739328
266329833410265088
266329835159302144
266329835272556544
266329836035919872
266329836287557632
266329836497301504
266329837533274114
266329838024003584
266329838711869440
266329838741245953
266329838988705792
266329839085174784
266329839211003904
266329839391354881
266329839739494401
266329839781437440
266329840486076416
266329841274613760
266329842419658754
266329843040391168
266329843514355713
266329844042842112
266329844042846209
266329844843966465
266329845120770048
266329845196259328
266329845678608384
266329845720551424
266329846047719425
266329846530068482
266329846743982080
266329847960313856
266329848878862336
266329848899858432
266329850552393729
266329850585960448
266329851164753920
266329852838289408
266329853035433984
266329854184652800
266329854998360065
266329855010942977
266329855367467009
266329856428609537
266329856835461120
266329857007419393
266329857372340224
266329857401704449
266329858081169408
266329858232160256
266329858634833920
266329858668371968
266329858714525696
266329859012304897
266329859188486145
266329859641442305
266329860312555520
266329860446760962
266329860702621696
266329860715184128
266329860891348992
266329861306605568
266329861545680897
266329863483441152
266329864099987457
266329865811292160
266329866830487553
266329867073761280
266329867245744128
266329867690319872
266329868399149056
266329868961210369
266329869783289856
266329873486868480
266329873499435010
266329873864343552
266329874355073024
266329875198144513
266329875453997056
266329875500122112
266329875835678720
266329876225724417
266329876225728514
266329876620005376
266329877052010496
266329877626646528
266329877723090944
266329878096392192
266329878322876416
266329878427729920
266329878641668097
266329879837016065
266329880000602112
266329882668187648
266329882835959808
266329884958273536
266329885176393728
266329887156076545
266329887772667906
266329888003330049
266329888141766656
266329888221458432
266329888854794241
266329890574434306
266329891056795649
266329891673350144
266329893019725824
266329893627904004
266329893766299649
266329895108485121
266329895259488256
266329897901891585
266329897989984256
266329898619133953
266329899093090304
266329899558641664
266329900145848322
266329900229742593
266329900573679617
266329901118939136
266329901718700032
266329902326874113
266329902851174401
266329903400624128
266329903530668032
266329903929126913
266329903975243776
266329903975264256
266329904558247937
266329904977702912
266329906332434433
266329907204874241
266329907402002432
266329907888521216
266329908224073729
266329908379254784
266329908723212288
266329910128279553
266329911726338049
266329912154140672
266329912376438784
266329913504702466
266329913764749312
266329914431655936
266329914448433152
266329915006283776
266329915614445568
266329916960800768
266329917342498816
266329918055518208
266329918584008704
266329918676291584
266329919334776833
266329919536132096
266329920299495424
266329920408530944
266329920924430336
266329921201246209
266329922711195650
266329923147415552
266329923457794048
266329923516518400
266329925370408960
266329925936611328
266329926221836288
266329927027146752
266329927433986048
266329927987630080
266329928151203840
266329928323190784
266329928784564224
266329929208172545
266329929635991553
266329931095633920
266329931854778369
266329932353916928
266329932911755264
266329933440221185
266329933813534721
266329934153273344
266329936078442496
266329936510451715
266329937882017794
266329938154647552
266329938767011842
266329939974963200
266329942105661442
266329942839656450
266329943078739968
266329943078739969
266329943493976064
266329943540121600
266329944727113728
266329944790032384
266329945805037569
266329946916532224
266329947998650368
266329948107706370
266329948254531584
266329948430667776
266329949055635456
266329949110165504
266329949126946816
266329949554757632
266329950741737472
266329950766915584
266329951454765056
266329951723204609
266329951744192512
266329951748386817
266329952520110080
266329953719697409
266329955116400642
266329956592803841
266329956626350080
266329956869619712
266329957431640065
266329957452623872
266329957775581184
266329958157275136
266329958354391040
266329958379565056
266329959092588544
266329959172284416
266329959449128960
266329959788851201
266329960933908480
266329961810518018
266329963458883584
266329963500818432
266329963693764608
266329964532604928
266329965845413888
266329966059347968
266329966227111936
266329966298415104
266329966701076481
266329966826905600
266329967548309504
266329968009703424
266329970194931712
266329970475950080
266329970534645760
266329970828247040
266329971251900417
266329971314790400
266329972216590336
266329972799574016
266329972820566017
266329973466488834
266329973969784832
266329974200471552
266329974523428866
266329975752384512
266329976389898241
266329976452825089
266329976511557632
266329976889036800
266329977081954305
266329977136484352
266329977404919808
266329977631436801
266329978134749184
266329978365431808
266329979917303811
266329980009607168
266329980345126912
266329981108506624
266329981590859776
266329981922189314
266329982299684864
266329983209861120
266329983528620032
266329983595708416
266329983692201984
266329984157765632
266329984904331264
266329985856462849
266329986405912576
266329986527531008
266329986905038848
266329986951151618
266329987139923968
266329987152486400
266329987236384768
266329987928436736
266329987970396160
266329988138168320
266329989501296641
266329989572616192
266329989731975169
266329990868652032
266329991342612481
266329991728463874
266329991879462914
266329992533770242
266329992877731841
266329993699815424
266329993724973056
266329994748391425
266329995255885824
266329995297841152
266329995796946944
266329996275118080
266329997017493506
266329997113954306
266329997512437760
266329997873147904
266329999311773697
266329999664103424
266330000339382272
266330000679112704
266330001081769984
266330001614450688
266330002377814016
266330002629459968
266330003317342208
266330005053767681
266330005196386304
266330005326413825
266330005439651840
266330007285137409
266330007687790592
266330007746510849
266330008094646273
266330008455360514
266330008614756353
266330008908341248
266330009965318144
266330010032427009
266330010204393472
266330010376364032
266330010430865409
266330010871283713
266330012297351168
266330012632891392
266330012691623936
266330012809035776
266330012901310464
266330013001998336
266330013043916800
266330013060698112
266330013073297408
266330013236854786
266330013979262976
266330014251905026
266330014490972160
266330015644397570
266330017775116288
266330017879973888
266330019217948674
266330019364753408
266330020232962048
266330020472045568
266330021667422209
266330021898096640
266330022082641920
266330022158159872
266330022665674753
266330023336747011
266330023449989120
266330023454191617
266330023500316672
266330023550648320
266330024024612864
266330024578256896
266330024821547008
266330025253560320
266330025295478784
266330025731710977
266330026084020224
266330026339864576
266330026675421185
266330026826412033
266330027342319616
266330028109869056
266330028286029825
266330028495736832
266330028852264960
266330029506572289
266330030861332480
266330031087820800
266330031750520833
266330031888945152
266330032287391745
266330034288091136
266330034678140928
266330035013689345
266330036125188098
266330037073096704
266330038901829632
266330039023435776
266330039396757504
266330040055242752
266330041477120000
266330041909141504
266330043192582144
266330045080039424
266330045201661952
266330045201661954
266330045721763841
266330046296383489
266330046929719297
266330047076519938
266330047093280768
266330047659515904
266330048263491584
266330049005883393
266330049140113409
266330050750730240
266330050876547072
266330051887378433
266330052180979712
266330052260659202
266330052503945216
266330052969512961
266330054001299456
266330054005489665
266330054303293441
266330054668197888
266330054957600769
266330055561592832
266330056295591936
266330056580796416
266330056664678400
266330057407090689
266330057415467008
266330057486761984
266330060104011776
266330060565401600
266330060770906113
266330060905119744
266330061026754560
266330061232275456
266330062217940992
266330063715315712
266330063740493825
266330063996334081
266330064029876224
266330064180895745
266330064453529602
266330064705175552
266330066022174720
266330067330818048
266330067473424384
266330068538773504
266330068614270976
266330069847400448
266330071911002112
266330071944544256
266330072217182208
266330072938606592
266330073047654400
266330073123135489
266330073358036995
266330073660002304
266330074050093056
266330074263994369
266330076411473922
266330076721864704
266330077745254402
266330077803970560
266330078466682880
266330078470881280
266330078630248448
266330079976632320
266330080194744320
266330080324747265
266330080953905154
266330081956347904
266330081985720320
266330083407581184
266330083931873280
266330084649091073
266330085144006656
266330086486204417
266330086523940864
266330087115345920
266330087266349058
266330087270526977
266330088235212801
266330088335884288
266330088495255552
266330088503640064
266330088541388801
266330088709173249
266330089275412480
266330089359290368
266330090189758465
266330090554662912
266330090605015040
266330091691327490
266330091963957251
266330092068810753
266330092748288000
266330093419376640
266330094547652608
266330095088701440
266330095227109376
266330095243907072
266330095319412736
266330095654957057
266330095726243841
266330096095350784
266330096942600193
266330097097777152
266330097991172096
266330098058272768
266330099186552832
266330100058959872
266330100067348480
266330100956557313
266330101619249152
266330102487453697
266330102755901441
266330103208898560
266330103670259712
266330103825448961
266330104936947712
266330104966311936
266330105964531712
266330106367197184
266330106803412992
266330109240307712
266330109265469440
266330109286445057
266330109399662594
266330110523752448
266330110972538880
266330111224213504
266330111412928512
266330112285368322
266330113149394945
266330113765941248
266330114378301440
266330115372376064
266330116857163777
266330117058465792
266330118060912640
266330118182539264
266330118497120256
266330118593576960
266330119105302528
266330119298240512
266330119348572160
266330120275509248
266330122972450816
266330123626758144
266330123685482496
266330124553699328
266330124805345281
266330125145096194
266330126243995649
266330127103827969
266330127326142464
266330128269852672
266330128903204864
266330129167421440
266330130085969920
266330130572525569
266330130811584513
266330131541422082
266330132057300993
266330132099239936
266330132258627586
266330132850024450
266330132870991873
266330133093306368
266330133282033665
266330133512724481
266330134221565953
266330134561308672
266330134804578305
266330135215603712
266330135517593600
266330135882518529
266330138378113024
266330139695132672
266330141335121921
266330141502877696
266330141645471744
266330142421442560
266330142715035648
266330142744379392
266330143302250496
266330143826534400
266330144996737026
266330146133405696
266330146666065922
266330147307798530
266330148406706176
266330148637405184
266330150151528449
266330150180892672
266330150403186688
266330150935875585
266330152051568640
266330152156397569
266330152437415937
266330155650277378
266330155985797120
266330156229074944
266330156761763840
266330156778549248
266330157063737344
266330157218926593
266330157302824960
266330157332189185
266330157365735424
266330157449637888
266330161002209280
266330161320964097
266330161467756546
266330162533113857
266330162835103744
266330163510390785
266330164034678785
266330166425427968
266330166798716928
266330167817932800
266330167822123009
266330167935385600
266330168602292225
266330169072037888
266330169776685056
266330170447765505
266330173484453889
266330174356869120
266330175120216066
266330175501893632
266330176072323072
266330176110071808
266330176730849284
266330176764387328
266330177754255362
266330177871704064
266330178337263617
266330180069519361
266330180241457152
266330180585402368
266330181327810560
266330181436850176
266330181478776832
266330181713657856
266330182321836035
266330182779023360
266330182959394816
266330183118774272
266330183781466112
266330184045690881
266330186327396352
266330186365149185
266330186792976388
266330186969124864
266330187099168768
266330187912863744
266330188705570818
266330188810448896
266330189359894528
266330191662551040
266330191738056705
266330191842930690
266330192136515586
266330192681783297
266330192950222848
266330193591930880
266330193663234048
266330193931665409
266330194011357184
266330196116901888
266330196926406659
266330197144518657
266330197169684480
266330197693980672
266330197886902273
266330198088220672
266330198113415168
266330199359119360
266330200239923200
266330200499974144
266330201099739137
266330201800187906
266330202404171776
266330202483879936
266330203423379457
266330203595366401
266330203893161986
266330204190937088
266330204371308546
266330204702662657
266330205596045313
266330207617687554
266330208645292032
266330208720785408
266330209215709185
266330209740025856
266330209979076608
266330211468058624
266330211476467712
266330213430992896
266330213540044801
266330213951082496
266330215926603777
266330216027258880
266330216937431040
266330217956651009
266330218002800640
266330218107654145
266330221622472704
266330221794439170
266330222863994880
266330223405043712
266330223484743680
266330223535083520
266330225300889601
266330226387197952
266330226907308032
266330227431575552
266330227830034432
266330228903780352
266330229511970817
266330229633605632
266330230086590464
266330230543757312
266330231135162368
266330231202271232
266330231915307008
266330232087265281
266330232187932672
266330232418615297
266330232452165633
266330232821276672
266330233630781440
266330233806913536
266330234935185408
266330235337850881
266330235803414530
266330235878916096
266330235992170496
266330236076048385
266330236378038272
266330237242064896
266330237900558336
266330238450020352
266330239670579200
266330239762837504
266330240832393216
266330241142771712
266330241683828736
266330242497527808
266330242505928704
266330242652700672
266330243034402816
266330243353169920
266330243789357057
266330244477231105
266330244552724480
266330244632416256
266330245416771584
266330245790040064
266330246066880512
266330246561812480
266330247228698624
266330247522287616
266330247769755648
266330247945912320
266330248096919553
266330248185004032
266330248386330624
266330248751230976
266330248977719296
266330249841758208
266330249854328832
266330250852564994
266330251079073792
266330251385257984
266330251410423808
266330251850817536
266330252060524544
266330252308008960
266330252668710913
266330253520154625
266330253901852672
266330254346424320
266330254556160000
266330255629893632
266330256162566144
266330256347131904
266330257261461506
266330257345359872
266330258419089408
266330259085996032
266330259530592257
266330260126187520
266330260306550785
266330261350928384
266330262152024064
266330262516948992
266330262596644864
266330262621802496
266330262630199297
266330262781186048
266330262869262336
266330263133499392
266330264534384640
266330264542777344
266330265280970752
266330266266660867
266330266988056577
266330267046797312
266330267554291713
266330268967776257
266330269278158849
266330269311705088
266330269668212736
266330270146383873
266330270553219072
266330271253680128
266330271698255872
266330272193191936
266330272587460608
266330273308872704
266330273317273601
266330274051260416
266330274290352128
266330275498319874
266330275544440832
266330275900948481
266330275900952576
266330275947089920
266330276337180672
266330277742264320
266330278568546304
266330278845362176
266330279143170048
266330279973621760
266330280128835585
266330280493711360
266330280552456192
266330280669900800
266330281026387968
266330282616045569
266330282725089280
266330283236798464
266330283362615296
266330283668799489
266330284146974722
266330284927119361
266330285191360512
266330285371715584
266330285992464384
266330286030213120
266330286722252800
266330287477227520
266330287800213505
266330288316108800
266330288798433280
266330289356275714
266330289909932032
266330289909936129
266330290086096896
266330290186752002
266330290333560832
266330290409074688
266330292275535872
266330293051486208
266330293286359040
266330293554782208
266330294141988865
266330294406242305
266330294741766144
266330295207358464
266330295735836672
266330295861653505
266330296272683009
266330296805388289
266330298764103680
266330299259035648
266330299317772288
266330299804311552
266330299871412225
266330300085313536
266330300446031874
266330301293285376
266330302367006722
266330303382028288
266330304334159872
266330304619376640
266330304820690944
266330304824897536
266330304841670657
266330306066391040
266330306787803137
266330308071276544
266330308083843073
266330308700426241
266330309124038656
266330309233106944
266330309782560768
266330310105501696
266330310210359296
266330310818533378
266330312420761600
266330312475308032
266330312559165441
266330313720999936
266330313947500546
266330314102697984
266330314387902464
266330314404687872
266330314773782528
266330316225007616
266330316459896835
266330316770258944
266330317042876418
266330317529419776
266330317621719040
266330317936287745
266330318942900224
266330318997426178
266330319089704962
266330319165222912
266330319353942016
266330320419303426
266330321157505025
266330321233010688
266330321279152128
266330321857949697
266330322201899008
266330323388874752
266330323690856450
266330324076752896
266330324160626688
266330325012078592
266330325209202690
266330325255327744
266330325267927041
266330325435695105
266330325658005504
266330325804806144
266330327067283456
266330327360884736
266330327931297792
266330328472363010
266330328573042689
266330330376581120
266330330456281088
266330331194474496
266330331806842884
266330331949445120
266330332284997632
266330332628926464
266330332649881600
266330333794951168
266330334512152576
266330335678177280
266330338786172929
266330339197206528
266330340379987968
266330341650870272
266330343496368130
266330343722848256
266330344049999873
266330346092646400
266330346176516096
266330346520457217
266330346906337280
266330347061538816
266330347443220480
266330347820703744
266330347963297792
266330348860870656
266330349313871872
266330349322268672
266330349779423232
266330350010105857
266330350257582080
266330350890930177
266330350907715584
266330351289380864
266330351293566977
266330351796895744
266330352065331200
266330352283426816
266330352400871424
266330352799338496
266330353738850305
266330354112135169
266330354355417089
266330355391414272
266330356494508032
266330356909752320
266330357106896897
266330357723447297
266330357975105536
266330360978235392
266330360994992128
266330361120829441
266330361917734913
266330362437844992
266330363083767809
266330363452858368
266330364908281856
266330365839425536
266330366019764224
266330366091087872
266330366112063488
266330366267244545
266330367420686336
266330367613599744
266330367978524673
266330368318255104
266330368771235840
266330368930615299
266330369324888066
266330370268602368
266330370801299456
266330370956484609
266330371099090945
266330371694682112
266330372386742272
266330372604825600
266330373816979457
266330374534213632
266330374781669376
266330374983004160
266330375326932992
266330375486320643
266330375578595330
266330375863812097
266330376102895616
266330376211947521
266330376904011776
266330377675735041
266330377809956864
266330377927393280
266330378153897984
266330378506207232
266330379399602176
266330379953266689
266330381375127553
266330382327230464
266330382780227585
266330383434530816
266330383476486144
266330383530991616
266330384701198340
266330384835436544
266330385116459008
266330385183563776
266330385716224000
266330386911596544
266330387129720832
266330388002127872
266330388870356993
266330388971016193
266330390392881152
266330390954905600
266330391210770432
266330391634399234
266330391940587520
266330392334852096
266330392540368896
266330392620064768
266330393639260161
266330393790255105
266330395539275776
266330395593814018
266330395690295296
266330395841290240
266330395925155840
266330396038422528
266330396164227072
266330396344594433
266330396415893505
266330396478824448
266330397393186817
266330397774860288
266330399951687680
266330399951712257
266330400329187328
266330400442429441
266330401042206720
266330401054806018
266330401126100992
266330401843343360
266330402124345344
266330402577342464
266330403571396608
266330404716433408
266330405332992000
266330406498996225
266330407321088001
266330408772329474
266330409393070082
266330409527308288
266330410139676672
266330410420690944
266330410676527105
266330411381178368
266330411431493632
266330411804803072
266330411821572097
266330412098412544
266330412312326144
266330413524467712
266330413629317121
266330414648545281
266330414820511744
266330415265091584
266330415785197568
266330416879894530
266330418121408512
266330418456977409
266330418876387328
266330418926723074
266330418956099584
266330420210171905
266330420315037696
266330420692545536
266330421464272896
266330421657223168
266330422089232384
266330422907129857
266330422982635520
266330424018608128
266330424198975488
266330424211550208
266330424257699840
266330424400285698
266330425604063233
266330425616654337
266330425855709185
266330426904289280
266330427562786817
266330429831913472
266330430070980608
266330430997938176
266330431052472320
266330431140540416
266330431371218944
266330431740321792
266330431811624960
266330431840989184
266330431891320832
266330432025538560
266330432071667712
266330435049644033
266330436735729664
266330438157619200
266330438866464768
266330439524966401
266330439575289857
266330440904871936
266330441550815232
266330442444189696
266330443174014977
266330443190771712
266330444897849344
266330446638481408
266330446852419585
266330447217311744
266330447305379841
266330447376687104
266330447800307712
266330448500760576
266330449238966272
266330449272512512
266330450732134400
266330450941865984
266330450983800832
266330451340308481
266330451952680962
266330452011393025
266330452166598657
266330453894631425
266330453974331392
266330455043883008
266330455396212736
266330455744339968
266330456591585280
266330456822259712
266330456864206850
266330458403524609
266330459565330432
266330459842158592
266330461167554561
266330461238857728
266330461243068416
266330461436002304
266330461645721600
266330462501359616
266330462820122624
266330463893848064
266330464040660992
266330464346832896
266330465844203520
266330466100064258
266330466171359234
266330466196537344
266330466506911744
266330466976661504
266330467354169344
266330467895230464
266330467928768512
266330468092370945
266330468364984320
266330469371617281
266330470411812864
266330470525046784
266330470734782464
266330471204532224
266330471451992064
266330471477149696
266330471896596480
266330471904968705
266330472328597504
266330472932581376
266330473016471552
266330473201008640
266330473431719936
266330473842745344
266330473876303872
266330474731929601
266330474912292864
266330474924892160
266330474929061888
266330475293966336
266330476036366338
266330476157992960
266330476191555585
266330476367716352
266330476631969795
266330477768617984
266330478171275264
266330479110782976
266330479823835136
266330480058707968
266330480234876928
266330480713027584
266330481333792768
266330481887420416
266330482323623936
266330482420117505
266330482545946624
266330482935996416
266330483112177664
266330483271540737
266330485788123136
266330488313085953
266330488359235585
266330488862539776
266330488879321089
266330488900313088
266330489034530816
266330489164529666
266330489302953984
266330489537822720
266330489625931776
266330489642684416
266330489684652032
266330489709813761
266330490041167873
266330490250858496
266330490439622656
266330490796142593
266330490917769216
266330490972299265
266330491651780608
266330492301873152
266330492356411392
266330492419334145
266330493413388288
266330494189309952
266330495397269504
266330495774781441
266330496064163840
266330496454238209
266330497347637249
266330497645420544
266330497955790850
266330498169712641
266330498580746242
266330498706579456
266330498920501248
266330499411218435
266330500141051904
266330500417871872
266330500430458880
266330500505952256
266330500870844416
266330501411901440
266330501445480449
266330502674411521
266330502712147968
266330503009947648
266330503437746182
266330503672635392
266330505518141440
266330505727840256
266330505790754816
266330505845293056
266330506394742786
266330506440884224
266330506965180418
266330507074211840
266330507099385856
266330507778863104
266330507988570112
266330508005363714
266330508378648578
266330509519515648
266330510836527104
266330510958153728
266330510983315456
266330511700545536
266330511977353217
266330512652640256
266330512656850946
266330513692823552
266330513906737153
266330514280046592
266330514972086273
266330515555094529
266330516612079616
266330517509664770
266330519178981376
266330519711657986
266330521456488448
266330521481670656
266330522169516032
266330524530905089
266330524769984512
266330524941967360
266330524967116800
266330524983902208
266330525608857600
266330526837776384
266330527362084864
266330528335159298
266330528549064705
266330528947523584
266330529148837889
266330529496965120
266330529585065986
266330530470055939
266330530591686656
266330531011117056
266330531459891201
266330531644461056
266330532697223168
266330533334753282
266330535138299904
266330536652455936
266330536656637955
266330537369673728
266330538443427840
266330538640564224
266330538745413633
266330539353591808
266330539538128896
266330539630407680
266330539785588736
266330541480112128
266330541924687874
266330542004375552
266330542868422656
266330543048757248
266330545355620352
266330545397579776
266330547045953536
266330548086132736
266330548883050497
266330551261229058
266330552066531328
266330552917958656
266330552976695296
266330553232551938
266330553874255872
266330553920417793
266330554042040321
266330554843156480
266330555287760899
266330555321303040
266330555531022336
266330556277600256
266330556378255360
266330556453761024
266330557200359424
266330557405868032
266330557565243393
266330558429270016
266330559125528576
266330559565946880
266330560245399553
266330560698396672
266330561059119104
266330561868607488
266330562631987200
266330562954948608
266330563240157184
266330563626029056
266330563672145920
266330563705704448
266330563797999617
266330564611690498
266330564947222529
266330565265985537
266330566130016256
266330567971315712
266330568378179584
266330568575315970
266330568625639424
266330568701128704
266330569284141058
266330570550816768
266330570735378433
266330571918147585
266330573327462400
266330574581547008
266330574673829890
266330575823044608
266330576141840385
266330576481570817
266330576640958464
266330576682901506
266330576762572801
266330576775180288
266330576900988928
266330577114902529
266330577500766208
266330577916022784
266330578293510144
266330579333693441
266330580164153344
266330580189319169
266330580537446400
266330581980286976
266330582118711296
266330583335059456
266330584555614208
266330585641914368
266330586409467905
266330587986538496
266330589471309824
266330590553452545
266330590951919616
266330591241306112
266330593216847872
266330593363632128
266330593397190656
266330594273787906
266330594416422913
266330595397869568
266330596467408896
266330596786184193
266330596819738626
266330597008486400
266330597050421248
266330597113339904
266330597671178240
266330597893472257
266330598400991233
266330599944515584
266330600565243904
266330600603004928
266330601399910400
266330601634799616
266330602511417344
266330603882967040
266330604558221312
266330605837492224
266330606332436480
266330606676348929
266330609444589568
266330609553657857
266330610019205120
266330610136666112
266330610358968321
266330610770014209
266330610870673408
266330610879037441
266330611235561472
266330611814375425
266330612145745920
266330614238703618
266330614419046400
266330615161450497
266330615836733441
266330616293883904
266330617250209792
266330617610924032
266330617954852864
266330619880022020
266330620177813504
266330620379140096
266330620492398592
266330620555309056
266330620928602112
266330621482246144
266330622543413248
266330622623117312
266330623583584261
266330626569928704
266330626934849537
266330627341705216
266330627341705217
266330627400400897
266330627853402114
266330629262692352
266330629380128769
266330629493370880
266330629602439168
266330629715664896
266330629732433920
266330633155006464
266330634056777728
266330634081951744
266330634266488832
266330635629641728
266330636170698752
266330636195872768
266330636585938944
266330637848440833
266330638272040960
266330640591507456
266330642399244288
266330642436988928
266330642453782528
266330643179372544
266330644823556096
266330645582737408
266330646010544128
266330646304141312
266330647746985984
266330647889584128
266330648942354433
266330649177239555
266330650032865280
266330650162900992
266330650313912321
266330650322272256
266330651270189056
266330653111508993
266330653493174272
266330653715484672
266330654059413505
266330654118117378
266330654323646464
266330654512410624
266330654713729024
266330655405780992
266330655581958144
266330656584396800
266330656634703872
266330656685056000
266330657289011200
266330659088371713
266330659797229568
266330660065656832
266330660216643584
266330660568981504
266330661051330561
266330661114236928
266330661328125952
266330661395243009
266330661802082304
266330661919543296
266330662343159808
266330662758400000
266330663265918977
266330663303667712
266330663337218049
266330663471427584
266330664461279232
266330664721338368
266330665203671041
266330665295945729
266330666235478016
266330666617171972
266330666881384448
266330667414089729
266330669188259840
266330669226020865
266330670618517504
266330670849200128
266330671063117824
266330671511924736
266330671897776128
266330671931351041
266330672229130240
266330672497586176
266330672573083648
266330672589840386
266330672656957440
266330672761823232
266330673604882432
266330674020114432
266330674796048385
266330675257438208
266330676847075328
266330677165842432
266330677920800768
266330678323458048
266330678617075713
266330678931648512
266330679619489792
266330679921483776
266330679921500160
266330680034725888
266330680416411648
266330680479318018
266330680965881857
266330681049747456
266330681901215745
266330682907824128
266330682991714304
266330683830566912
266330684216467456
266330685017567232
266330685185347584
266330687278284800
266330687659982848
266330688322695170
266330690184949760
266330690256257024
266330690856054784
266330691560697857
266330692865118208
266330694370881536
266330694450561026
266330695016796160
266330695092301827
266330696027611136
266330696048582656
266330696845504512
266330697323659265
266330697499824128
266330699521466368
266330699588579329
266330699827654657
266330700750401537
266330701606051841
266330702386196481
266330702767861760
266330702847569920
266330702893686784
266330703040495616
266330703048871938
266330704940519424
266330706433675265
266330706551140352
266330706567917569
266330706584678400
266330706773434368
266330707272536064
266330707612278785
266330707717152768
266330708019142656
266330709159997443
266330709755564035
266330710682501120
266330710833500161
266330711542353921
266330711718514688
266330711940812800
266330712024690690
266330712041476096
266330712918073344
266330713987633153
266330714365100033
266330714709032963
266330715594039296
266330715740844033
266330716336431106
266330716504203265
266330716684578816
266330716869128193
266330717213032448
266330718588780545
266330718907535360
266330719515721728
266330719553458178
266330719998078976
266330720438472704
266330720568487936
266330720857882626
266330721071796224
266330721734492160
266330722841808896
266330723047321602
266330723282219008
266330723470954496
266330724196548610
266330724200755201
266330725140267008
266330726012706816
266330726104981504
266330726822207488
266330727149355008
266330727224844288
266330727661047808
266330728290189312
266330728441204737
266330729057751040
266330729116491776
266330730794196995
266330730844549121
266330731121352705
266330731159121921
266330731771461633
266330732153143296
266330732295778305
266330732304138240
266330732308344832
266330733361102848
266330733373714432
266330733449203712
266330734787190786
266330735345020928
266330735542161408
266330735655411715
266330735705743361
266330735806410753
266330736519421955
266330737232470016
266330737727389696
266330738536894465
266330739287683072
266330739639975936
266330741305139200
266330745163882496
266330745239388160
266330745340043264
266330745952419840
266330746157936640
266330747189731328
266330748062142464
266330748406079489
266330749177847808
266330749303652352
266330749463044096
266330750155108352
266330750197067776
266330752273244160
266330752290013184
266330752352940032
266330752717819905
266330753128882176
266330753183408129
266330753388908545
266330754122928128
266330754898862080
266330756111015936
266330756618522626
266330757373509633
266330758061375488
266330758807961600
266330759504211969
266330759676190720
266330759688769536
266330762293415937
266330762754797568
266330763962761217
266330764818391040
266330765569187840
266330765590134784
266330766202527746
266330766248665088
266330767146237953
266330767217541120
266330767662133248
266330768068972544
266330768429678592
266330768882692097
266330769193066497
266330771080503296
266330771663499264
266330772162625537
266330772363956224
266330772405886976
266330772556890112
266330772737253377
266330772984721409
266330774238789633
266330774301732868
266330774360432640
266330775207686144
266330775463530496
266330775652282368
266330775669071872
266330776424042496
266330777501986816
266330777803964416
266330778961575936
266330779087409153
266330779813048320
266330781197148160
266330781624987648
266330782140882945
266330782245724160
266330782275092480
266330782300241920
266330783944437760
266330784279953408
266330785383079938
266330785727012865
266330786037395456
266330787908034560
266330788423929858
266330788855959552
266330789082460161
266330789875163136
266330789946458112
266330790026162177
266330790076481536
266330791083143170
266330792374964225
266330792555331586
266330794023325696
266330795038371841
266330795042537473
266330797424930818
266330797684977664
266330797773037569
266330798767087616
266330798788059136
266330799148789761
266330799341703168
266330800088313856
266330800193146880
266330800746790912
266330802269331456
266330802730725377
266330803225628672
266330803460521984
266330803548585985
266330804022550528
266330804139995139
266330804773347329
266330804857237504
266330806467833857
266330807226998784
266330807453499392
266330809303195650
266330809647128576
266330809953312768
266330810385313793
266330810544693249
266330810578255872
266330810930565120
266330811794608128
266330812276944896
266330812381806592
266330814051139584
266330814856458241
266330815435243520
266330815976312833
266330816332832768
266330817062633473
266330818828464130
266330818845212673
266330819356938240
266330820900429824
266330821143695360
266330821793808384
266330821856735233
266330822234226688
266330822288764930
266330823043719170
266330823605772288
266330824515936256
266330824843075585
266330824897601536
266330825111502848
266330825400913920
266330825782599681
266330826663419904
266330826801836032
266330827963658241
266330828794126336
266330829221924864
266330829691699201
266330830731890688
266330830773837824
266330830908055554
266330831193255936
266330831277133824
266330832938086400
266330834385137664
266330834422857728
266330834422865921
266330834599034881
266330834892644352
266330835899273217
266330835970584576
266330836259966976
266330837069471744
266330840009699328
266330840605278208
266330841578344449
266330841616097280
266330841616105472
266330842756939777
266330843159592960
266330844849905664
266330845437128704
266330847555252224
266330848100507648
266330848498946048
266330848943554560
266330849186828288
266330850273140737
266330850541596672
266330851179118594
266330851216859138
266330851242020864
266330851388829696
266330851711778817
266330851804061696
266330852206731264
266330852651307009
266330852684886016
266330852705841153
266330852852658176
266330853112705024
266330853783781376
266330854031253506
266330854840729600
266330855130165248
266330855226609664
266330855318908929
266330855897706496
266330856371654656
266330856535232512
266330856732377088
266330856975630336
266330857046962176
266330858460426241
266330858657570818
266330859160862720
266330859341217793
266330859647414273
266330860029091842
266330860444332032
266330860754714625
266330861341908992
266330861975240704
266330863543910400
266330864865132545
266330865603317761
266330865959858176
266330866106650624
266330866270212096
266330866698043392
266330866731597824
266330866966462464
266330867096510465
266330867142623232
266330867574661120
266330868681957376
266330869051052032
266330869382402048
266330869789253632
266330870418382848
266330871315968000
266330872070934530
266330872100298752
266330872490360833
266330872859480065
266330873106952192
266330874201665537
266330874222612480
266330874444914689
266330874973417472
266330875506069507
266330875623518209
266330875787087873
266330876919570432
266330877238341632
266330877334806529
266330878794399744
266330878928642049
266330879444529152
266330879578763264
266330879599730688
266330879784280064
266330880144965632
266330880631521280
266330881285836800
266330881856262144
266330882040803328
266330882577666048
266330882921611264
266330883215212544
266330883303284736
266330883596902400
266330884167319552
266330884330885120
266330884616110080
266330884632895488
266330884779671552
266330884985196545
266330886012796928
266330886117658626
266330887048806401
266330887208198144
266330888361615360
266330888424525825
266330890207117313
266330890563633154
266330890811109376
266330890928549889
266330891352158208
266330891587035136
266330893579345920
266330893730316288
266330895223496704
266330895370317825
266330896154624000
266330896473411584
266330897433915394
266330898453102593
266330899120017408
266330899589763073
266330899753336833
266330899975663617
266330900692889600
266330902404136960
266330903595319297
266330904237068288
266330905474375681
266330905591836672
266330907345055745
266330907802230784
266330907898675200
266330908204859393
266330908980822016
266330909907763200
266330910729834496
266330911157649409
266330911199617024
266330911598071809
266330911816183808
266330912839585792
266330913762316288
266330913808470016
266330914919964672
266330915284865025
266330915331010563
266330915570061312
266330915700084736
266330916379557889
266330917075820544
266330917759488000
266330917981790208
266330918082457601
266330918120202240
266330918875172865
266330919084892161
266330919504338944
266330919621775360
266330919835676672
266330920112500736
266330920410304512
266330921463074816
266330921509195776
266330922490675200
266330923866406912
266330924793331712
266330924873048064
266330925544140801
266330926127140864
266330926412333057
266330926626267136
266330927708401665
266330929046355968
266330929746833408
266330930862505988
266330931344855040
266330931789447168
266330933152600064
266330933198737408
266330933404241920
266330933672697856
266330933752377344
266330933756567553
266330934440247296
266330936294133761
266330936696782849
266330937216872448
266330938122846208
266330940048044032
266330940161261568
266330942728192001
266330942744969216
266330943080505344
266330943156011008
266330943676104705
266330944015847424
266330944296857600
266330944414314497
266330944795975681
266330944951185409
266330946104594432
266330946280775680
266330946654056448
266330947245445121
266330947291598849
266330947430010880
266330947434213376
266330947568410624
266330947685859329
266330948457611264
266330948528910338
266330948596031489
266330949921415168
266330950110162944
266330950651236352
266330951372644353
266330952446390272
266330952903585793
266330954216374272
266330954417704960
266330955084607489
266330956770721793
266330957211115520
266330958456827905
266330958511366144
266330958914011136
266330959295696896
266330959786430467
266330959949996033
266330960461709313
266330960491069441
266330960495247360
266330960574959616
266330961996824576
266330962282049536
266330962357547008
266330962479161344
266330962688884736
266330962739216385
266330963108306944
266330963133464576
266330963225751552
266330963502571520
266330963934580737
266330964014268416
266330964584693760
266330964941217793
266330965461323776
266330965591326720
266330965595521024
266330966010777600
266330966719598593
266330966866407426
266330967411671041
266330967474569216
266330967550078976
266330968040800256
266330968216981504
266330968665780224
266330969148096513
266330970125377536
266330971161387008
266330971262054401
266330971639525376
266330971710828545
266330972222545920
266330972356751361
266330973040414720
266330973321457664
266330974290333696
266330974630055936
266330974739111936
266330975963840512
266330976525889536
266330976563650560
266330977897443328
266330977998106625
266330978249744386
266330978451079168
266330978677583872
266330978690142208
266330980896362496
266330981131239425
266330982016241664
266330982335008768
266330983383580675
266330983425531904
266330984201474048
266330984373432322
266330984490876928
266330985426210816
266330986135056384
266330986915188736
266330986994864128
266330987116503040
266330987288477697
266330987665952768
266330987850518528
266330988257357826
266330988932644864
266330989637275648
266330989696000000
266330989993799681
266330990094475264
266330990975279104
266330993269555200
266330993567354880
266330993663807488
266330994020335617
266330994620125184
266330994649485313
266330995136020480
266330995232477184
266330995756773377
266330997057003520
266330997908459521
266330998055264256
266330999091249152
266330999711989760
266331000164990977
266331000378912769
266331000886398978
266331001188413441
266331001234538497
266331001595260928
266331001872056320
266331002232770561
266331004023750657
266331007127523329
266331007156903936
266331007874121728
266331007920242690
266331008209653760
266331008566190080
266331008582963200
266331008926896128
266331009820266496
266331010621390848
266331010948554752
266331011070193664
266331011384750080
266331012223627264
266331012294901760
266331012424945664
266331013020528641
266331013989429249
266331014002003970
266331014182354944
266331014228488192
266331014475968513
266331014576623617
266331016061415424
266331016090759168
266331016879276033
266331017009328130
266331017147731968
266331017525211136
266331017588121600
266331018275979264
266331018280181760
266331018389237760
266331018443767809
266331018854813697
266331019257470976
266331020553490434
266331020771602432
266331021186846720
266331022164099073
266331022680018944
266331023434977280
266331024831692801
266331025855086592
266331026069016576
266331026102575104
266331027193094147
266331027708973056
266331028174548992
266331028409421825
266331029894230016
266331030187814913
266331030695342080
266331030758244353
266331031139917824
266331031341264896
266331031412551682
266331031748108289
266331032263999488
266331032389820416
266331032494698497
266331032670830592
266331032968646657
266331033857835008
266331034029785088
266331034323410945
266331035426488320
266331036793847808
266331038605778945
266331039021035520
266331039469817857
266331040379981824
266331041302712320
266331041696993280
266331042279981056
266331042670071808
266331043487965185
266331043685072896
266331043894812672
266331044523958272
266331044553314307
266331044721082370
266331046843387904
266331047321546752
266331047594192896
266331047619338240
266331048315588608
266331049146073088
266331049192202241
266331049225764865
266331053050953728
266331053164204032
266331053210341377
266331053457809409
266331054057590785
266331054284087296
266331054850334722
266331055215235072
266331057752780800
266331057996066817
266331058604236800
266331058948165633
266331059199807489
266331059522777089
266331060164509696
266331060474888193
266331061888368640
266331062874013697
266331063297650688
266331063360552960
266331063448641538
266331063800971265
266331065713569793
266331065755521024
266331066078461952
266331066107822080
266331066892169216
266331067336753152
266331067840094208
266331068024647680
266331068171436032
266331069073219584
266331069396160514
266331069429710848
266331069916266496
266331070247616512
266331070373445633
266331070960648192
266331071577206785
266331071644332034
266331071744983040
266331071908544513
266331072109887488
266331072881651713
266331073519181824
266331073556918272
266331073695342592
266331073884090368
266331074534207490
266331074727120897
266331075209469952
266331076732018688
266331076740411392
266331079366037504
266331080041308160
266331080863387648
266331081136033792
266331081299619840
266331081488347136
266331081605787649
266331082096533504
266331082272690176
266331084424355840
266331084860559360
266331085296791552
266331086282428416
266331086789955584
266331087100325890
266331087523958784
266331087670763520
266331087838523393
266331088115347456
266331089021313024
266331089138769921
266331090426396672
266331091672133633
266331091990888448
266331092972343296
266331093517627395
266331093697978368
266331094121598976
266331094335492096
266331094457139201
266331096361353216
266331097409912835
266331097418305536
266331097686753280
266331097707712513
266331099104432129
266331099431583744
266331099695820800
266331099939082240
266331101176414208
266331101591642112
266331102174670848
266331102501810176
266331102820569088
266331103793647616
266331104007569408
266331104049520642
266331104099827713
266331104334733313
266331105404280832
266331105425240064
266331108956860416
266331109153980416
266331109279809537
266331109963489280
266331110177398784
266331111624413184
266331111645396992
266331112014495745
266331112173862912
266331112807231488
266331113063071744
266331113448960000
266331113604145152
266331114120019969
266331115059564544
266331115613200384
266331115638362113
266331115831312387
266331115940347904
266331117169299457
266331117211238400
266331117865541633
266331117915873280
266331118956056577
266331120403116032
266331120457625600
266331121397153792
266331121711726594
266331122022088704
266331122391216128
266331123053895680
266331123532046336
266331126384193537
266331126535180288
266331126778429441
266331126962999296
266331127659253761
266331127759904768
266331128812691456
266331129013993472
266331129060139008
266331130075164674
266331133090861056
266331133782929411
266331134533701632
266331134554673153
266331135972347905
266331136316301313
266331137775902721
266331138908372993
266331139139067904
266331140812599296
266331141664022528
266331142033125376
266331142217678848
266331142570012675
266331143215927296
266331145581514752
266331145740890112
266331146974027776
266331147166945281
266331148291022850
266331149041795072
266331149096349696
266331149259907072
266331149368950784
266331149494779905
266331149608030209
266331149649977344
266331152103657472
266331152330145793
266331153831690240
266331154427297792
266331154779611136
266331154918035457
266331155962413056
266331156063068160
266331156474118144
266331156788682752
266331158529335296
266331161691824128
266331161943502849
266331162044149760
266331162304192513
266331162773946369
266331162874609666
266331163390513152
266331163617013760
266331163772203008
266331164262932480
266331164770439168
266331164883689472
266331164887904256
266331165126979585
266331165743521793
266331166888587264
266331167211548673
266331168423702528
266331168683728897
266331169979777024
266331170499854339
266331170940272640
266331171544244224
266331172089503744
266331174249566208
266331174631256064
266331175423975424
266331176065712128
266331177051369473
266331177625985024
266331178322243584
266331178456477696
266331178490003457
266331178901057536
266331179022704640
266331180004155394
266331180176138240
266331181526704128
266331181652508674
266331181690281985
266331181753180161
266331182361362432
266331182386528256
266331182617227264
266331183342837761
266331183607054336
266331183758077953
266331184403980288
266331184466890752
266331184764686337
266331184819216384
266331186224304129
266331186312392705
266331186723446784
266331187109318657
266331187184803840
266331187226767361
266331187780403200
266331188837359616
266331188988350464
266331189898518528
266331190720602112
266331190762536960
266331192670949376
266331193971187712
266331194126376961
266331194591936512
266331194902315010
266331195858636801
266331195938320384
266331196101894146
266331196823326721
266331199146971136
266331199176335360
266331199360864256
266331199608340480
266331199637688321
266331199885148160
266331200556236800
266331201361551360
266331201730654209
266331201839706113
266331204926730240
266331206373740545
266331206637993984
266331206692532224
266331207426514944
266331209234255874
266331209305571329
266331209402048512
266331211000066048
266331211062980609
266331211910230016
266331211981524993
266331213055275009
266331214267437057
266331214342922240
266331216402333697
266331218411405313
266331218449149953
266331220600844289
266331220714070016
266331221183852545
266331221653585922
266331222970597377
266331223465549824
266331225847918593
266331225856294914
266331225868869632
266331226086981632
266331226166681600
266331226539958273
266331227651465216
266331227810824192
266331228595179521
266331228880384002
266331228922331136
266331229211729920
266331229274660866
266331230457442304
266331230503591936
266331230881058816
266331230906245122
266331230981738496
266331231149502464
266331231224991744
266331231271129088
266331231652810752
266331232000942080
266331232206462976
266331232617525249
266331232990801921
266331234261692417
266331234672705537
266331235322847232
266331236593696769
266331236845367296
266331236975398912
266331237289955328
266331237520650241
266331237889761280
266331238497914880
266331238502105088
266331238544056320
266331239911411712
266331241035489280
266331241148731393
266331242625126400
266331243132616704
266331243354923008
266331243543666688
266331244256702466
266331244760010752
266331245938610177
266331245976354818
266331247184343040
266331248174170113
266331248807534592
266331249185009664
266331249604448256
266331249889652736
266331250170675200
266331250279735297
266331251760324609
266331252330741760
266331252355919872
266331252653703168
266331253358354433
266331254918627328
266331255187054592
266331256134967296
266331256214654977
266331256621510656
266331257032564737
266331257087078401
266331257837867008
266331258710286336
266331258911592448
266331259666583552
266331259893080064
266331260102799360
266331260631269377
266331260698378241
266331261411422208
266331261642088448
266331262342533120
266331263072354305
266331263344979968
266331264225800195
266331264397746176
266331264557133824
266331264590704640
266331264741670912
266331264842350593
266331265706364929
266331265714761729
266331266599763968
266331268747243520
266331269435097088
266331270336872449
266331270710173696
266331270840188929
266331272018800640
266331272404692992
266331272480182272
266331272681504769
266331272924766208
266331273172250624
266331273407131649
266331274220814336
266331274615074816
266331274644451328
266331274698964992
266331274841571328
266331275164540928
266331275760111616
266331275957260289
266331277010018304
266331278104735744
266331278108946432
266331278146678784
266331278880673792
266331279597903872
266331280088657921
266331280797495297
266331280818442240
266331281539887105
266331281565032448
266331282299027456
266331282756227072
266331283418914816
266331283708317696
266331283741884416
266331283817377793
266331284438122496
266331285159571457
266331285247651841
266331285381840896
266331286426251264
266331287768412160
266331288640835584
266331289005727744
266331289060253696
266331289249017858
266331289467105280
266331290024964096
266331290444365826
266331291782365185
266331292155650049
266331292549926912
266331293602689024
266331293602705408
266331294055682048
266331294642864128
266331294886154243
266331295523672064
266331296563871744
266331296576458754
266331296912011264
266331296928780290
266331298514231296
266331299948679168
266331301622185984
266331302209392640
266331303337664513
266331303518040064
266331304096854016
266331304545615872
266331305615171584
266331306462412801
266331306739249152
266331307028660224
266331307544543232
266331307771060226
266331308265963520
266331308492455938
266331309889175552
266331309922721792
266331310124068867
266331310413455360
266331310803546112
266331311059369984
266331311323615233
266331312254775297
266331312971984897
266331313034891265
266331313500463104
266331315161407488
266331315169792000
266331316134486017
266331316302270465
266331317195649024
266331317371805696
266331317866725376
266331318147751936
266331318265192448
266331318676226050
266331318974046208
266331319129223168
266331320702095360
266331320790183936
266331321775833088
266331322514030592
266331322639847425
266331323197702145
266331323310940160
266331323847827458
266331323956862976
266331325173211136
266331325357768704
266331326532157440
266331326838370305
266331327131951105
266331327782072321
266331328797085697
266331328822267904
266331329841471490
266331330286075904
266331330755829760
266331330881667072
266331331141722113
266331331951198208
266331332408389633
266331332592926721
266331332983009280
266331333477949441
266331334987878401
266331336019689474
266331336367820800
266331337068265472
266331337085054977
266331337483509760
266331338347520000
266331338850848768
266331341417762816
266331342130794496
266331342743171072
266331342780919808
266331343594590208
266331343598800896
266331344748023808
266331344865464320
266331345305870336
266331346304126976
266331346320912384
266331346341867520
266331346660626433
266331347268808704
266331347528871936
266331347994415104
266331348006998016
266331348170596352
266331349135273986
266331349575684096
266331349995122689
266331350678769668
266331350947217408
266331350976577537
266331351177904128
266331351245008897
266331352687861760
266331355552571392
266331356936679424
266331357100269568
266331357561622528
266331358304038912
266331358882832384
266331359272923137
266331359386169344
266331359537139713
266331360019496960
266331360631869440
266331360866734080
266331361093246976
266331361114193921
266331361290362880
266331361873362945
266331362120847360
266331362338955265
266331365656629249
266331367007219712
266331367602810883
266331367904776192
266331368626196480
266331369175658496
266331369972572160
266331370039676931
266331371000168449
266331371478343680
266331372640169985
266331373650993154
266331373923606528
266331374481448962
266331375450333184
266331375873957890
266331375974612994
266331377690099714
266331377870450690
266331378071777280
266331378415714304
266331378541555712
266331378738679808
266331378830958593
266331379124551681
266331379757903872
266331379757903875
266331381548871680
266331381888602114
266331382333194240
266331383130120194
266331383637618688
266331384048664576
266331384812019712
266331384983977985
266331385906741248
266331386456190977
266331386758197249
266331386791751681
266331387244736512
266331388029059073
266331388880510976
266331388955987968
266331389669036033
266331391434833920
266331392235937792
266331392294649856
266331392353382400
266331392818958337
266331393523585024
266331393951420417
266331394760929280
266331395402657792
266331395570401281
266331396656734209
266331397277503488
266331397554311169
266331399483686913
266331400041529346
266331400939130880
266331402935619584
266331403724144640
266331404130975744
266331404214886400
266331404655276032
266331405255073792
266331406056161282
266331406739853314
266331406936981505
266331407368994816
266331408379822081
266331408384004096
266331409331937280
266331409541648385
266331409759760384
266331409818480640
266331411164823554
266331411882053632
266331412217614336
266331413190676481
266331413635268608
266331415338184705
266331415757586434
266331416260902912
266331417208827904
266331417741496321
266331418349682689
266331419335344128
266331419368902656
266331419381493761
266331419440205824
266331419696054273
266331420815937536
266331421172461568
266331421549920256
266331423139577856
266331423160553473
266331423500296193
266331424116858882
266331424410464256
266331424414658560
266331427199655936
266331427375812608
266331428218867715
266331428256612353
266331428617334784
266331429410050048
266331429468794880
266331429661716480
266331430718668800
266331431289114624
266331432467722240
266331435160453120
266331435491786752
266331436099981312
266331436112572418
266331436905267200
266331436997566464
266331438041927680
266331438381682688
266331438826274817
266331439031799809
266331439296028674
266331439300222976
266331440734695424
266331442185916417
266331443515510785
266331445218398208
266331445923037185
266331445939826690
266331446061432832
266331446065631234
266331446808047616
266331447319740416
266331447755948032
266331449093926912
266331449119080448
266331449483984898
266331450364801024
266331450545172480
266331452231254016
266331452835246080
266331453468577793
266331453703454720
266331454160658432
266331454336819200
266331454437486593
266331455058214912
266331455242772481
266331455737720832
266331455846772736
266331456345886720
266331456786276353
266331457084080128
266331457256058881
266331457335738368
266331457411239936
266331457704845313
266331458724040705
266331458854072321
266331459080552448
266331459290279939
266331459311239168
266331459458043905
266331460141711360
266331460565364737
266331461714595840
266331462964477952
266331462998048768
266331463153233920
266331463400714240
266331463874662401
266331464117932032
266331464994529283
266331465074221057
266331466068279296
266331467989274624
266331468178018304
266331468895252482
266331469335642114
266331469629231107
266331470178684928
266331470287745024
266331470476480512
266331470526816258
266331470921089024
266331470925287425
266331471009153024
266331471147569152
266331471382462464
266331472309395456
266331472380690433
266331473014030336
266331473148272641
266331474486251520
266331474511417345
266331474536570880
266331476088483841
266331476482719744
266331476533055488
266331476658896896
266331476746960897
266331477455802368
266331477745205248
266331478063976448
266331479263543298
266331479888506880
266331480228237312
266331480282767360
266331480874160128
266331481373286400
266331482132475905
266331483801800704
266331483973763072
266331484070236161
266331484732915713
266331485085237248
266331485223673856
266331485706010624
266331486016393218
266331486544875520
266331487018819584
266331488407154688
266331488658792448
266331488918851584
266331489342455808
266331490122608640
266331490210697217
266331490412023810
266331491242475520
266331491607388161
266331492416901121
266331492819546112
266331494144958464
266331494300123138
266331495420022784
266331496804151296
266331497257111554
266331500222504960
266331500310581251
266331501149437953
266331501984096257
266331502093152256
266331502944608256
266331503011692544
266331503452110849
266331503905107970
266331504089657344
266331504492285953
266331504571998208
266331504936898560
266331505113042944
266331506253893632
266331506333585409
266331507411533825
266331508430737408
266331509772910593
266331510368514049
266331510452387841
266331511094120448
266331511148670977
266331511308038144
266331512016883712
266331512549564416
266331512776032256
266331513149337600
266331513417785344
266331513845592066
266331514097250304
266331514327928832
266331514327928833
266331516118904832
266331516550909953
266331516790009856
266331517561761796
266331517742112768
266331518014742528
266331518270570496
266331519386284032
266331519864418304
266331519986049024
266331520627773440
266331520950759427
266331521240141825
266331521533759488
266331522058047490
266331522188066818
266331522330681345
266331523475722240
266331523601539072
266331523626704896
266331523760930818
266331523828035584
266331524356509698
266331524796907520
266331526390759425
266331526822760448
266331527447719936
266331528949297153
266331530023010304
266331530157236225
266331530798972928
266331530832527361
266331531205832704
266331531306467328
266331531994353664
266331533432991746
266331533470752769
266331533609152512
266331534267666434
266331535509176321
266331536658403328
266331537077846016
266331537098821632
266331537233018882
266331537342087168
266331539883847681
266331539992870912
266331541121150976
266331542647889920
266331543113433088
266331544837308417
266331545655197696
266331545835552770
266331546141728770
266331547236450305
266331547295174656
266331547433570306
266331547454558208
266331548163395585
266331548234702848
266331549430083584
266331549505564672
266331550671593472
266331551686598658
266331553267855360
266331553829883905
266331554157047808
266331554274488320
266331555096567809
266331555134316544
266331555776061441
266331556262584321
266331556459716610
266331556522643457
266331556715573248
266331557936111616
266331558397501440
266331558791757825
266331558905012227
266331559970353152
266331560494657536
266331561086029824
266331561929109504
266331562688270338
266331562788925441
266331563195781120
266331563854295040
266331564152082432
266331564194025473
266331564256948224
266331564806389760
266331565133537280
266331566584782850
266331566609924096
266331569512390656
266331570003116032
266331570560978944
266331571294965760
266331573635391489
266331575212462080
266331575887732736
266331576374267904
266331577020211200
266331577204748288
266331577456422912
266331578668552192
266331578823749632
266331579549360129
266331579570323456
266331579759083520
266331580279177216
266331581210304513
266331582317608961
266331583739469824
266331584863563776
266331585035505664
266331585677254657
266331585786298369
266331586478350336
266331588541968384
266331589150134272
266331589292748800
266331589296922624
266331589892521984
266331590022529024
266331590668464129
266331591196942336
266331591217922049
266331591939346432
266331592425893888
266331592740466689
266331592996294656
266331593096982529
266331593990344705
266331594162319361
266331594262994945
266331594434940928
266331594556600320
266331595227668481
266331595357683712
266331595567411202
266331595663884288
266331595756150785
266331596842487809
266331596876034049
266331597421309953
266331597618438144
266331598037860352
266331598536974336
266331602072768512
266331603377192960
266331604002172928
266331604182528001
266331604253831171
266331604266409984
266331604564201472
266331605273038848
266331607126908928
266331607206612994
266331607370199041
266331608360042497
266331608938844160
266331609417019393
266331610297806849
266331611094728704
266331611233136641
266331611770015744
266331613049274368
266331613825224704
266331615737831425
266331615918170112
266331617184845824
266331617730125824
266331618036310016
266331618816430080
266331618854195200
266331620242493440
266331620745814018
266331621605646338
266331622415155200
266331622431924224
266331622557745152
266331622838767616
266331623660875776
266331624902361088
266331626672361472
266331626919837696
266331627309891584
266331628824043520
266331628983443456
266331629482549248
266331630329798657
266331630636003328
266331631776829441
266331632057868288
266331632217247745
266331632292753408
266331632343085057
266331632351453184
266331632569569280
266331632670236672
266331633102233600
266331634851254272
266331635409113088
266331635602051072
266331636377976832
266331636457676800
266331636893876224
266331637422379008
266331637812441089
266331638764548097
266331639280439296
266331639607619584
266331640853311488
266331641125957633
266331641201430528
266331641641844738
266331641717346305
266331641767657472
266331642300362752
266331642308730882
266331642312945664
266331643579609088
266331643999031298
266331644183597056
266331645135683584
266331645521571840
266331645546754048
266331645664194560
266331646339457024
266331646633050112
266331646855356418
266331647656464384
266331647807479808
266331648084303872
266331648679874560
266331649762025472
266331649900437504
266331650185637890
266331650500218880
266331651255189504
266331652802895872
266331652836446208
266331653998247937
266331654136672256
266331654845505538
266331656581955586
266331656967839744
266331657781522432
266331658909777920
266331659568287744
266331660369403904
266331660453289985
266331660528803840
266331660742692864
266331661111795712
266331661896151040
266331662135222272
266331662349131777
266331663095705600
266331663334793216
266331664278487041
266331664379158529
266331665004126209
266331665062842368
266331665419341826
266331665821995008
266331666782486528
266331667382296577
266331667852046336
266331668988706816
266331669093572608
266331669177462784
266331669382967297
266331669764636672
266331670045683712
266331670226010113
266331670360244224
266331671320752129
266331671366873089
266331671459164160
266331672562257920
266331672801312768
266331673740853248
266331674277707776
266331675041071104
266331676525858816
266331676555235328
266331677247287296
266331677343764481
266331677507325955
266331678048391168
266331678971142144
266331681923936256
266331682183979008
266331682188185601
266331682217533440
266331682473390081
266331683131899904
266331684134350848
266331684172095488
266331685279387649
266331685698822145
266331690367066112
266331690920710145
266331691319173120
266331691600203776
266331693403742208
266331693537959936
266331694238416897
266331694292946945
266331694972424192
266331695026954240
266331695731593216
266331696041975808
266331697073770497
266331697291878400
266331698390790144
266331699166707712
