266336732830658562
266336732889366528
266336733883424768
266336734122500096
266336734848102400
266336734877478913
266336735103946752
266336735150104577
266336735787634688
266336736391618560
266336737121427456
266336737888980992
266336738903994369
266336739512172544
266336739998720000
266336740166471681
266336740682383361
266336741298933761
266336741529616384
266336741613506560
266336741647069184
266336741848399873
266336742443995137
266336742536265728
266336742544637952
266336743391887360
266336743920398336
266336744117518337
266336744851529729
266336745417744385
266336746231459841
266336748429266945
266336749205192706
266336750065053699
266336750538981376
266336750971006977
266336751163940864
266336752892002304
266336753248514048
266336754032848896
266336754464874497
266336754477432832
266336754582294529
266336756088061952
266336756146790401
266336756306178050
266336756616552449
266336759049252865
266336759363796992
266336760236232705
266336761268027392
266336761838440448
266336762941546498
266336763189022720
266336763662983168
266336764245995522
266336764870942720
266336765407797248
266336768440274945
266336768465457152
266336768494821377
266336769253978112
266336769392386048
266336770822651904
266336771997057025
266336773486034944
266336773582495744
266336774006132736
266336774412967939
266336775218274304
266336775675445248
266336777084743680
266336777546121216
266336778246578176
266336778674397184
266336779500658689
266336780003991552
266336780666691585
266336780784136192
266336781295824896
266336781325176833
266336782956756992
266336783757869056
266336783841755136
266336784718389248
266336785209118720
266336785297195009
266336785745997826
266336786635177986
266336786710659072
266336787042025473
266336787176239104
266336788602306560
266336789478899713
266336790380675073
266336790829486080
266336791798358016
266336792024866818
266336793031483392
266336793169907712
266336793253781504
266336793362841601
266336793673211904
266336795342540800
266336796680527872
266336797796229120
266336798555381761
266336799381663745
266336800077934592
266336800434434049
266336800530915329
266336800602218496
266336800694497280
266336801172623360
266336801516556289
266336801558511616
266336801944383489
266336802577715201
266336803122995200
266336806004461568
266336806046416896
266336806759452672
266336806847524864
266336807346642944
266336807434719232
266336808697208832
266336809108246528
266336809166979072
266336809305374720
266336809582206978
266336810014216192
266336810471419904
266336810710466561
266336811197022209
266336811234783233
266336811238969344
266336811968778240
266336812157530113
266336812379807744
266336813248036864
266336813369655296
266336813575188480
266336813902340096
266336813948469248
266336814267256833
266336814552461312
266336814871240704
266336815504568320
266336815777193984
266336816980963329
266336817207455744
266336817861779456
266336818495115265
266336819401084928
266336821561159680
266336822429351937
266336823092068353
266336824820125696
266336824941744129
266336824954327040
266336825164062721
266336825239556096
266336825365364736
266336825432498177
266336826086797312
266336826279739392
266336826938232832
266336827047292929
266336827349295104
266336827454148609
266336827747729408
266336828754362368
266336829551304705
266336830004281344
266336830935400448
266336831254179842
266336831912673280
266336833129029632
266336833875628032
266336834286657537
266336835800813571
266336836429959168
266336837486915584
266336839835742208
266336840188059648
266336840326475776
266336840351625216
266336840385187842
266336840653631488
266336840662020096
266336841161138177
266336841232437248
266336841584750592
266336842360713216
266336842436182016
266336842499104768
266336843052748800
266336843333779457
266336843589640192
266336844315234306
266336845464469504
266336845984563201
266336846143971329
266336846236233730
266336848790581248
266336849633607680
266336850417967104
266336852062130177
266336852481548290
266336852754198529
266336854050213888
266336854096355328
266336856097050625
266336857544093696
266336857980297216
266336858202583040
266336858546520064
266336858651373568
266336861767737347
266336862468182018
266336862883430400
266336863382564865
266336863676166144
266336865915912193
266336867094495232
266336868851933187
266336869866950656
266336870206689280
266336870412193792
266336870668050434
266336872245112834
266336872568086529
266336873180438528
266336873918644224
266336874346455040
266336874711355392
266336875202109441
266336875478921216
266336876066131968
266336876808519681
266336877823537152
266336878016479233
266336878129709056
266336878427504641
266336878872125441
266336879845183490
266336879866155009
266336880172335104
266336882336600064
266336882445656066
266336882504368128
266336882663759873
266336883200630784
266336884056268802
266336884098203648
266336884983214080
266336885121626112
266336885960486912
266336886468014080
266336886526709760
266336887512375296
266336888279932928
266336888363814912
266336888527413248
266336888825208832
266336889085259776
266336889957666818
266336890158997505
266336891224330241
266336891849277440
266336892302282752
266336892964982785
266336894563000320
266336896496586752
266336896781803521
266336897448685568
266336898669236224
266336898962837505
266336899214495744
266336899654893568
266336900028170241
266336900846075906
266336900908974080
266336901382946818
266336901865295873
266336902175678464
266336902842564608
266336903161335808
266336903232618498
266336905518538752
266336906885861377
266336906902650881
266336907032662017
266336908580368384
266336908966252545
266336909029171202
266336909247262720
266336910568456193
266336911075966976
266336911742873600
266336912221024257
266336912455909376
266336913647087616
266336914125254659
266336914313994240
266336914653728768
266336914876030977
266336915043807233
266336915333193728
266336915756834816
266336916876693504
266336917119979520
266336917333884928
266336918193725440
266336918319538176
266336918785101826
266336918793498624
266336918852218881
266336919955308544
266336920760619009
266336920966139904
266336921595281408
266336921930833920
266336922052485120
266336922232819714
266336922857766913
266336922991984640
266336923533074433
266336924426457088
266336924506132480
266336924988493824
266336925672169472
266336926662012928
266336927542824961
266336927861596160
266336928083881984
266336928276807680
266336928641712128
266336929316995074
266336929950339073
266336930399129600
266336930684342273
266336931925860352
266336933087686657
266336933737795584
266336934010429440
266336934488600576
266336935159668736
266336935688167424
266336935944015872
266336936086630403
266336937823059968
266336939236532225
266336940616450049
266336941056856066
266336941178507264
266336941233041408
266336941304328192
266336941665046529
266336941753114624
266336942323535872
266336943279861760
266336943325999104
266336943896408065
266336945066627073
266336945360220161
266336945691561985
266336946224250880
266336946966626304
266336947105058816
266336947197341697
266336947654520832
266336947662905344
266336947667087362
266336948166217728
266336949613248513
266336950192050177
266336950573752320
266336950670196736
266336950934466560
266336951580368896
266336951785910272
266336952456982528
266336955447517185
266336956110209024
266336956227665920
266336956538052608
266336956886171648
266336957729226752
266336958823927808
266336958861701120
266336960895926272
266336961139204096
266336961764139009
266336962552676352
266336962632376320
266336963387346944
266336963831947264
266336964591095809
266336965132156928
266336966247845889
266336966486933504
266336966906347521
266336967258669057
266336968022044674
266336969112555520
266336969439735808
266336970622517248
266336971868209153
266336973256548352
266336974229618688
266336974317703168
266336974514831360
266336975286583297
266336975471132672
266336975504678913
266336978004488192
266336979870949376
266336980810485761
266336981536100353
266336981884223489
266336982127480832
266336982723096577
266336983515815936
266336983985553409
266336984425971712
266336984665038848
266336984883138561
266336985302593536
266336986737029120
266336987626233856
266336988112773120
266336989098409984
266336989937291265
266336990373507072
266336990658719744
266336991182987264
266336991875055616
266336992093163521
266336992239972352
266336992541945856
266336992806195200
266336992839745536
266336993343049728
266336996438446080
266336997029838848
266336997541560321
266336997642223617
266336997860315137
266336998829223938
266336999189909504
266336999265415168
266336999500292096
266337000259465216
266337000553058304
266337001962340352
266337002067226624
266337002272743426
266337002742509569
266337002826375168
266337003019309056
266337003396820993
266337003656839168
266337003912720384
266337005372321792
266337005623971840
266337006265708544
266337007293321217
266337007985385473
266337008203489282
266337008715186176
266337009654702080
266337009877004288
266337010166423552
266337011319832576
266337011340816385
266337012506836993
266337012712349700
266337013127589888
266337013517676544
266337013601562624
266337015191191553
266337015551885312
266337016462077954
266337017091219456
266337017137348608
266337017229615105
266337017615491072
266337017900707840
266337019515531264
266337020106907648
266337020647981057
266337021503606785
266337021595897856
266337022212460544
266337022694813696
266337026230607872
266337026293510144
266337026389995522
266337027824427009
266337028000600064
266337028227092482
266337028357124096
266337029116293122
266337029124669440
266337029313400833
266337030773035008
266337032010354689
266337033226711041
266337033792937985
266337035156078593
266337036036882433
266337036200468480
266337036309516288
266337037119016960
266337037387444224
266337040348635136
266337040369602560
266337040512196610
266337040608665600
266337042319949825
266337042798104576
266337044249317376
266337045142712320
266337045629243393
266337045713133569
266337045805404161
266337046061273088
266337046761705472
266337046786891777
266337046824640513
266337047042748416
266337047139201024
266337047202119680
266337048607219712
266337048808542208
266337049324433409
266337049966149632
266337050943430659
266337052960903168
266337053158019073
266337053522935808
266337054441492480
266337054995124224
266337055171305474
266337055334875137
266337055980806144
266337056073080832
266337056781897730
266337057415254017
266337057448812544
266337057666904064
266337058434461696
266337058468016128
266337058870677504
266337060409978880
266337061987037185
266337062184169472
266337062251294721
266337064604274688
266337065027903489
266337065652867072
266337066244247552
266337067670306816
266337068177833984
266337068362379264
266337069020901379
266337069117366273
266337069729722368
266337070136557568
266337070140776450
266337070614720512
266337071361306625
266337071977873408
266337072212750336
266337073336823808
266337073936625665
266337075308163072
266337075702419456
266337076591595520
266337076780363776
266337078734888960
266337078915235841
266337079485681664
266337079598915584
266337081117265920
266337081209540609
266337082560110592
266337082857881606
266337083814211584
266337084112003073
266337084384616448
266337084506259456
266337084900515840
266337085697454080
266337085743562752
266337085844234240
266337086699868162
266337087199014912
266337088016896001
266337088054632448
266337088708964353
266337089342287873
266337089841401856
266337089904320512
266337090122416129
266337090185355264
266337090281803776
266337091552698369
266337093687595008
266337094228664320
266337094950080513
266337095486955520
266337095721820161
266337095730221056
266337096799756290
266337096963330048
266337097227587584
266337097718300673
266337098498469888
266337099274387456
266337099316359168
266337100226519040
266337101073752065
266337102638243840
266337103598735360
266337104378884097
266337104391454721
266337104429199360
266337105221939204
266337106597662720
266337107180658689
266337107742715904
266337107843354625
266337108480884736
266337111446261761
266337111584677888
266337111819567105
266337112276746240
266337112570351616
266337112964595712
266337113052684290
266337113786683392
266337115024011266
266337115430866944
266337115468623872
266337115481198592
266337115758014464
266337115795755008
266337116324253696
266337116353617921
266337116424916992
266337116605263872
266337116898856960
266337117045673985
266337117167304704
266337117205057537
266337117897109504
266337119423836160
266337119516110849
266337119595806720
266337119730012160
266337120065560576
266337120082341888
266337120208162816
266337121705545728
266337121911046144
266337122108194816
266337122485665794
266337123232260096
266337123295195136
266337125874688000
266337126478663680
266337127107813376
266337127590158336
266337127812456448
266337128538058755
266337128743596032
266337129154629632
266337129897009152
266337129997680640
266337131931262976
266337131939627008
266337132099039233
266337132124205056
266337132321320960
266337132409393152
266337132749131776
266337133126635523
266337134120685568
266337134179397633
266337134842101760
266337135056015362
266337135450271744
266337136633065473
266337137350291456
266337137690030080
266337138650513409
266337138889596928
266337139841712128
266337139980124160
266337140428898306
266337141414584320
266337141452316672
266337142328926209
266337143457206272
266337143985672192
266337144212176897
266337145222991872
266337145952796672
266337146401595392
266337146825236480
266337147806703616
266337148234526722
266337148305821696
266337148561682432
266337149148860416
266337150717546496
266337151820656640
266337152202313728
266337152240074752
266337152936337408
266337153137655808
266337153594830848
266337154060386304
266337154840526848
266337155301900288
266337156883152896
266337158573457408
266337158636371968
266337159076777984
266337159315853313
266337159361998848
266337160045658113
266337160066658304
266337160515448835
266337160918073344
266337160993587200
266337161375264768
266337161392033792
266337161467531265
266337162553856000
266337162713251840
266337163170414592
266337163560488960
266337163732455424
266337164600688641
266337165422784512
266337165452132354
266337165842214912
266337167289245697
266337168505569280
266337168778215424
266337168887263232
266337169008902144
266337169319284737
266337169692557312
266337170158129152
266337172154626049
266337172255277056
266337172431462400
266337173870096384
266337174650241026
266337174813814784
266337175635914754
266337175744954371
266337175996612608
266337176915177472
266337177582047233
266337178563526656
266337178731290624
266337178806804482
266337179016495104
266337179297525760
266337179477872640
266337179620483072
266337179620499456
266337180119621633
266337180174131202
266337181147209728
266337181537280000
266337182791389185
266337182984306689
266337183164690432
266337183777034241
266337183848353792
266337184372633601
266337184649469953
266337184737533953
266337186335571969
266337186373324801
266337186423656448
266337186520117249
266337187132502016
266337187304443904
266337187363188738
266337188453691392
266337188906684416
266337189003161600
266337189187682304
266337189292556288
266337189573570561
266337189896531968
266337189934297088
266337190009790464
266337190706028544
266337190987055105
266337191096098816
266337191234510849
266337191360352256
266337192463454209
266337192798994432
266337192874504192
266337193801416705
266337193801445376
266337194581561344
266337194778714114
266337195412041728
266337196016021504
266337196947173377
266337197207195648
266337197949595648
266337198100578305
266337198691975168
266337199400816641
266337199870586881
266337199958671360
266337200722030592
266337201061769217
266337201346990080
266337203972628480
266337204052316161
266337204081664002
266337204115214338
266337204345896960
266337204819857408
266337204819881984
266337206556307456
266337206581473280
266337207361601536
266337208653475841
266337209324548097
266337209337135104
266337209987260417
266337210129870848
266337210574442496
266337211404922880
266337211593674752
266337212017303552
266337212617068544
266337213707587585
266337213833428992
266337213942489089
266337214823292929
266337215070744576
266337215297232897
266337215616012288
266337215645364224
266337215863480320
266337216421306368
266337217046249472
266337217369239552
266337217461497858
266337217855770624
266337217922887680
266337218287779840
266337218573000704
266337219625775104
266337219982274561
266337221248942081
266337221282504705
266337223526477824
266337224352743424
266337224633774081
266337225028018178
266337225061576704
266337225933991936
266337225963352064
266337226714120192
266337227263582208
266337227343282176
266337227464916992
266337227733348352
266337227808845824
266337229469786112
266337229532700672
266337229532712960
266337229696294916
266337229746626560
266337229750804481
266337230077968384
266337230254141441
266337230698713088
266337230866497536
266337231176859649
266337231311081472
266337231524999168
266337232368070656
266337232816861184
266337233294999552
266337235140501504
266337235715100672
266337235966767105
266337236327493633
266337237254426624
266337237334106112
266337238227488768
266337238906986497
266337239104098305
266337239200591872
266337239288672257
266337239796162560
266337240014270464
266337241268355072
266337241486475265
266337243013201920
266337243973685248
266337244032405504
266337244451840000
266337244657360896
266337245626253313
266337246175698944
266337246213443584
266337246272176128
266337247031332864
266337247387873280
266337247958269952
266337248042168320
266337248318992385
266337248335757315
266337248650330112
266337249359171584
266337249447251968
266337249858289664
266337250235793408
266337250579734530
266337250869145601
266337250973999106
266337251028500481
266337252060327936
266337252186132480
266337253763203073
266337255268958208
266337255453491200
266337255453495297
266337256330108931
266337256342695938
266337256577589248
266337257273831424
266337257319985152
266337257567444992
266337258465030144
266337259442294785
266337260008513537
266337262608998400
266337265339465728
266337265456930816
266337266115424256
266337266958471168
266337267033993217
266337267403063298
266337267721850880
266337269835780097
266337270297161731
266337270569775104
266337271190519809
266337272025202688
266337272943742976
266337272985686016
266337273283485696
266337273866502144
266337273975562240
266337275389034496
266337276257263617
266337276634750977
266337278153093120
266337278438277120
266337278459277314
266337278568304640
266337278618656768
266337278920642560
266337279071633408
266337281189740544
266337281550471168
266337281592410112
266337282372538368
266337282859102208
266337283341426688
266337283471441920
266337283911852032
266337284599726081
266337284989796352
266337285367291905
266337285719617536
266337286260678657
266337286860460032
266337287531556864
266337287804166144
266337287909044225
266337291260264450
266337291683897344
266337291939753985
266337293479075840
266337293525213185
266337294766702595
266337294951268353
266337295983054848
266337296461225984
266337296469606400
266337296993898496
266337298541600768
266337298948423680
266337299032338432
266337299044921344
266337300500316161
266337300856844290
266337301053976576
266337301423091712
266337302844932096
266337303000141824
266337303264370688
266337304140976130
266337304497508352
266337305227309056
266337305747398656
266337306212958209
266337306938601473
266337307446083585
266337308255584256
266337308788264960
266337309186719744
266337309622931457
266337310054969344
266337311921434625
266337312999358464
266337313980829696
266337314060529664
266337315121668096
266337315155218432
266337315356540928
266337315432042496
266337315759198208
266337315775979520
266337315914407937
266337316296077312
266337316501610496
266337317147512832
266337317269159936
266337317369831425
266337318334513152
266337319781535744
266337319949332480
266337322151333889
266337322457518082
266337323325722626
266337323623530496
266337323833233408
266337325238337536
266337326152708097
266337327251615745
266337328027537411
266337331827593216
266337332486103040
266337334063144960
266337335069769728
266337335115927552
266337335531163649
266337335556308992
266337336240009216
266337336843964416
266337337766723585
266337338064527360
266337338228084736
266337338689462272
266337340430102528
266337340623028224
266337341403176960
266337341709381632
266337341847764992
266337342032322560
266337342330134529
266337342401425408
266337342887972865
266337343361916929
266337343609384960
266337344033001472
266337344586661888
266337345396158464
266337345865936896
266337345899487232
266337346549587968
266337346566365184
266337347619143680
266337348147625984
266337348323790848
266337348378300417
266337348407676928
266337348449599488
266337349405925378
266337350148292608
266337350337064960
266337351624695808
266337352555827200
266337354934018049
266337355248594944
266337355781246977
266337357450575873
266337358096502784
266337359677763584
266337360415965185
266337360944431104
266337361116409858
266337362559262720
266337362630565888
266337363347767297
266337364593491968
266337365667237888
266337366195699712
266337366434783232
266337366816477185
266337367072325633
266337368020242432
266337368859090944
266337369165271040
266337370452930560
266337370708779009
266337372160000000
266337372189360128
266337372273254400
266337372310999041
266337373934198784
266337374945034240
266337375683215360
266337375741952001
266337376287195136
266337376618573824
266337376962486273
266337377054773249
266337377432244224
266337377746812929
266337378430513153
266337379315499008
266337380221464578
266337380435390464
266337380745764864
266337380934492162
266337381626552320
266337382222135297
266337382234742785
266337382633189379
266337382859673600
266337385300762624
266337387360169984
266337387456655360
266337387649585152
266337388412956673
266337389461528576
266337389801259008
266337390233280513
266337390573006850
266337390749171712
266337391105695744
266337391286030336
266337391852285953
266337392355594241
266337393790038016
266337394922487808
266337396134653952
266337396172410881
266337396570849280
266337396793151488
266337397673971714
266337398558953472
266337399175536640
266337399695634433
266337400681291776
266337402698739712
266337403021705216
266337403625697280
266337404997234689
266337406146461696
266337406263910400
266337407320870912
266337407673176064
266337408763695105
266337408864382976
266337409233469440
266337409329930241
266337409552228354
266337409719996416
266337409975844864
266337410881830913
266337411213193216
266337412089774080
266337412513402880
266337412869935105
266337412882505729
266337413280976897
266337413553606657
266337413771694080
266337414174363648
266337414312783872
266337414761570304
266337414858014720
266337415147433984
266337415424266240
266337415784976384
266337416296677377
266337416305070080
266337416820973568
266337417668206592
266337417768865792
266337418079260674
266337418553200640
266337418821640192
266337419136204800
266337419819896832
266337420067368960
266337420197392385
266337421652811777
266337422302932992
266337422344859648
266337424546856960
266337425545117696
266337425620619264
266337426325254144
266337426446876672
266337427646451714
266337428485316608
266337428770537473
266337429223530496
266337429357723649
266337430481805313
266337431341637632
266337431568138240
266337431668789249
266337431962394625
266337432012718080
266337434067927041
266337435431092224
266337435909246976
266337436420931585
266337438220308480
266337438241267713
266337438455189504
266337438966902784
266337439419867136
266337440330031104
266337441844178944
266337442209095681
266337443979075584
266337444306251777
266337444461420544
266337445791023104
266337447883980800
266337448299229184
266337449662365697
266337450329251840
266337450811592706
266337451310710784
266337451512066049
266337451684016129
266337452183126016
266337452548030465
266337452560613377
266337452820676608
266337453026201601
266337453189779456
266337455605698560
266337456079642624
266337457094664193
266337457132429313
266337457962885120
266337458352947201
266337458768203777
266337459510591488
266337459653197824
266337460802445312
266337461309952001
266337461473533955
266337464816386048
266337464887689216
266337465885925376
266337466573799424
266337466968064000
266337467114852352
266337467299401728
266337467521695744
266337467928555521
266337468834521089
266337469874700288
266337470294142977
266337470692605952
266337471548235776
266337472064147456
266337472361951232
266337472848461825
266337474266157057
266337474572345344
266337474823995392
266337475000147968
266337475188899840
266337476027768832
266337476744994816
266337476895985667
266337476912771072
266337477063745536
266337477076324352
266337478263336960
266337478481412096
266337479966220288
266337480435961857
266337481329369089
266337481572634624
266337482294063105
266337483510382592
266337485125189632
266337485381046272
266337486110863360
266337487960555521
266337488283508736
266337488463867904
266337488921042944
266337490221285377
266337490514870272
266337490535866369
266337490569424896
266337491873828864
266337492360372224
266337492402307072
266337493425717248
266337494629498881
266337495078281216
266337496399503360
266337496571453441
266337497028632576
266337497116733442
266337497771024384
266337497787813888
266337497846513665
266337498312081408
266337499704606721
266337500006584320
266337500056915970
266337500098854912
266337500149194753
266337500556062721
266337501185196032
266337504217677824
266337504372858881
266337505392082944
266337506105102336
266337506172235776
266337507396972545
266337508198076416
266337508281970688
266337509766750208
266337509791895552
266337510249086976
266337510785970178
266337511192817667
266337512098770945
266337512652423168
266337512996343808
266337513122185217
266337513478692865
266337513721982977
266337514736984064
266337515668115456
266337515722645505
266337516272099328
266337517391978497
266337517584908289
266337518859980801
266337518977421314
266337519279431680
266337520848101376
266337521452077056
266337521988947970
266337524442619907
266337524610379777
266337524635545600
266337524954300416
266337525155631104
266337525323415552
266337525671555072
266337525675720705
266337525919010817
266337526367793152
266337526497820672
266337526967578624
266337527215050753
266337527634489344
266337527949058049
266337528095842304
266337529274441730
266337529308012544
266337529903603713
266337534919974913
266337535217762305
266337535268114432
266337536958410754
266337537059061760
266337537403019264
266337537419771905
266337538841665536
266337539022024704
266337539789557761
266337539944771585
266337540204814336
266337540464848896
266337541354053632
266337541697982464
266337542213865474
266337542637486081
266337542994022400
266337543002398720
266337544487198720
266337545196040192
266337545409933313
266337545640628225
266337547842633728
266337548266266624
266337548664717312
266337550711521280
266337553232318464
266337554381541377
266337554498998272
266337554717093889
266337555006492672
266337555300114432
266337555325280257
266337555480453120
266337556604542976
266337556730363904
266337556810063873
266337557862825984
266337557896372224
266337558001246208
266337558772973568
266337561570594816
266337562224906240
266337562698846208
266337563080527872
266337563726446592
266337563739058176
266337563827122176
266337564187840513
266337565806829568
266337565894909952
266337567484555264
266337567815909376
266337569372008448
266337569422319617
266337569703350272
266337570017927168
266337570215055360
266337570324115457
266337571032940544
266337571225862144
266337571548823552
266337572417044482
266337572886818816
266337573079756800
266337573079764992
266337573931200512
266337574128345088
266337575348875265
266337575512465410
266337575768317952
266337576380682240
266337578305867778
266337579111182336
266337579765465089
266337579891318784
266337580084256771
266337580814049280
266337581392871424
266337581455781889
266337581833261056
266337581862637568
266337581992660992
266337582093320192
266337582504374273
266337582642765825
266337582743429120
266337583175442432
266337583217401857
266337583615848449
266337583783628800
266337585260015616
266337585641705473
266337586363113472
266337586589614081
266337586799329280
266337587424280576
266337588271517696
266337588661592064
266337588791611392
266337589282357248
266337589735337984
266337590016344064
266337590037319680
266337592902037505
266337593086590976
266337595162771457
266337595515105280
266337595624136705
266337596370743297
266337596920188928
266337597897465857
266337597947793408
266337598962823168
266337599671648258
266337600019759104
266337600992845826
266337601752035328
266337602150465536
266337602938994689
266337603027079168
266337604125995008
266337604264407040
266337604474118144
266337605476560897
266337605669486592
266337606869069825
266337607875706880
266337607888297984
266337609381449728
266337609616326658
266337609868005376
266337612334252032
266337612644630529
266337612841762818
266337613458309121
266337614058102784
266337614091677696
266337614414622721
266337615534510080
266337615815516161
266337615903612928
266337615983304705
266337616121712640
266337616364990464
266337616637603840
266337617342263298
266337617400983552
266337617510019072
266337618202075136
266337618273398784
266337619040952320
266337619292606465
266337619523293184
266337619997245440
266337620538314753
266337620940947456
266337621746270210
266337622039875585
266337624170586112
266337624812298240
266337625009438723
266337625399508992
266337625424670720
266337626875891714
266337627299536896
266337627421163521
266337628369072131
266337628985647106
266337630143270912
266337630847893504
266337631003107330
266337631267344385
266337631267348480
266337631682576385
266337632273965057
266337632596938752
266337632924098560
266337633309962240
266337634199146496
266337634710851584
266337634866061312
266337635537133568
266337637760114690
266337637902721024
266337638368305152
266337638448001024
266337638938718208
266337639001628672
266337640448684032
266337640633225217
266337641136537601
266337641178476544
266337641694380032
266337642097037312
266337642415800320
266337643514720256
266337644340973568
266337645309874177
266337645376978947
266337645435699200
266337645989335040
266337646450708480
266337647381856256
266337648170373120
266337648543674368
266337649206382592
266337649244127233
266337649260888066
266337649546113024
266337650951196672
266337651114782720
266337651131576320
266337651924283392
266337652171759617
266337653950119936
266337656525434880
266337656613523456
266337658991685632
266337660199649282
266337661109817345
266337662028365824
266337662288404480
266337662355509249
266337662900776960
266337663123079169
266337664918233089
266337665081831424
266337665383817217
266337667002793984
266337667157987328
266337667342553088
266337667367727104
266337668214960128
266337668818952192
266337668839915521
266337669469069312
266337669502607360
266337670182100992
266337670370836480
266337670786084864
266337671180345344
266337671687856128
266337673097146369
266337674183446528
266337674665791490
266337675630489600
266337675970215937
266337676108656640
266337676255449088
266337676423213056
266337677270462464
266337677673107456
266337679451488256
266337679950639105
266337679963209728
266337680210673664
266337680634290178
266337680802082818
266337681087291393
266337682270076929
266337682483994625
266337682588844034
266337682932776960
266337683155083264
266337683624833024
266337684035883010
266337685025730562
266337685617123328
266337686275637249
266337687479386113
266337687718481921
266337689865969664
266337690188926978
266337690373472256
266337691162009600
266337691484966913
266337693452087296
266337693544378368
266337693917663234
266337694026719233
266337694194491392
266337694924304385
266337695167574016
266337695310172161
266337696207732736
266337696287449088
266337696560066560
266337696765599744
266337697214394369
266337697419915264
266337697533157376
266337697860296706
266337698271350784
266337699114385408
266337699932282880
266337700242673664
266337702524375040
266337702759247872
266337703111565312
266337703405178880
266337705867214849
266337705888194560
266337705917571072
266337706307616768
266337706529939456
266337707666587649
266337708195074049
266337709222674432
266337709579190272
266337709621116928
266337712133509120
266337712217407489
266337712250966020
266337712888500224
266337713412771840
266337713819623424
266337713979019265
266337714192912384
266337714511687683
266337715707064320
266337715749019648
266337716306849792
266337716541718528
266337717053427712
266337717649035264
266337717972004866
266337718458519552
266337718718566400
266337720425656321
266337721159647233
266337721298075650
266337721847525377
266337722539589632
266337723068067840
266337724489936896
266337724506718208
266337725047779328
266337725068767232
266337725471420417
266337726540963840
266337727065243649
266337727098793984
266337727140749312
266337727291727872
266337727367229441
266337727690178560
266337727753093120
266337728629723137
266337728801673216
266337730462642177
266337731494420480
266337732224245760
266337732840792064
266337732865974274
266337733331537921
266337734153605120
266337735609044992
266337735768420353
266337735869079552
266337736082997248
266337736124952576
266337737131565056
266337737274187776
266337737282564096
266337737676824576
266337737785880576
266337738297593856
266337738905767937
266337738960297984
266337739753013248
266337740147261440
266337741409771520
266337742672244736
266337743657918464
266337743834075136
266337744706494467
266337744773599232
266337744857481216
266337745302061057
266337746614894592
266337746862346240
266337747487301633
266337748435226625
266337748812709888
266337748896604160
266337749194383360
266337749655752705
266337749710290944
266337750050037760
266337751094398976
266337751216029697
266337751891316736
266337751891333120
266337752080072705
266337752864403457
266337753241886720
266337753715851265
266337753837469696
266337754516967424
266337754550530048
266337754881863682
266337755737509888
266337756291162112
266337756920303616
266337757759168513
266337758669328384
266337759113920512
266337759457865728
266337759688540160
266337761039089664
266337761433378816
266337761504669696
266337762016378880
266337762356117509
266337762389680128
266337762662297600
266337762876211200
266337762888790016
266337763018813440
266337763207565313
266337763878641664
266337763941548032
266337763983495169
266337764927238144
266337765510217728
266337766902726656
266337767993249792
266337768110710785
266337768177807360
266337768219762688
266337768278466561
266337768374951936
266337768647565312
266337769553551361
266337769683558400
266337769817788416
266337770111381504
266337770665033728
266337770933456896
266337771466153984
266337771512287232
266337771604549632
266337772065918976
266337772070113281
266337772200144896
266337772997054464
266337773139673088
266337773953363968
266337774284722177
266337775329112064
266337775694000128
266337776373469186
266337776558014465
266337776599969792
266337776893558785
266337777338175488
266337777631776768
266337778558713856
266337778617417728
266337779208826880
266337780043489280
266337781444382722
266337781637341184
266337781930942464
266337782476193793
266337783000481793
266337783168245760
266337783277305856
266337783537360896
266337783575093249
266337783629619200
266337783956795394
266337784627863553
266337784674009089
266337784917278721
266337785160536064
266337785374457856
266337785613524993
266337786053922817
266337786297208832
266337786930540544
266337786951507968
266337786964099073
266337786980859904
266337787253506048
266337788214013952
266337788947992576
266337790097244160
266337791112269824
266337791410073601
266337792244711424
266337793213607937
266337793276510208
266337793410732032
266337793876312064
266337794165714944
266337795478519808
266337795889586176
266337796439015425
266337797093355520
266337798091575296
266337798703943680
266337800121626624
266337800134209536
266337800444604416
266337800515899392
266337800612372480
266337800968876032
266337801438650369
266337801816121344
266337804127191040
266337805540671488
266337805813305345
266337806148837377
266337806933192704
266337806996099072
266337807256129536
266337807558139904
266337807738499073
266337807763656705
266337807868493824
266337808036270083
266337808506028032
266337808636055553
266337808950652928
266337809101643777
266337809428774912
266337809516867584
266337809776922624
266337809894363136
266337809911123970
266337810150199296
266337810682892288
266337810808729600
266337810955522049
266337812473839616
266337812691959810
266337814378074112
266337814491303937
266337814797492224
266337814973661184
266337815124664321
266337816508764160
266337816689115136
266337816835944449
266337817012105217
266337818098409472
266337818895339521
266337819260227585
266337819277004801
266337819545444352
266337819906162690
266337819990040576
266337821017661441
266337821571293184
266337821609050112
266337821957189633
266337821999124480
266337822271750145
266337822343041024
266337822816993281
266337823307743232
266337823735558144
266337824305983488
266337824431812611
266337824440217601
266337824821870594
266337825081917440
266337825123880960
266337826587693056
266337826646405120
266337827606908928
266337827636269056
266337828496084992
266337830064766977
266337830232522752
266337830496768000
266337831058808833
266337831868321792
266337832002523136
266337832182898689
266337832237404162
266337833978044416
266337833982230528
266337834443616257
266337834837876736
266337835769012224
266337836599496705
266337837090226176
266337837127987201
266337837656449024
266337837916504064
266337838184931328
266337839158013952
266337840022044673
266337840214970369
266337840777031680
266337842001752064
266337842031099904
266337842119180288
266337842228252672
266337842416996352
266337842475700224
266337843549437953
266337843843039232
266337844103090176
266337844832907265
266337845193605120
266337845323649024
266337846514810880
266337846724534272
266337847290769409
266337847693430786
266337848318377984
266337848842649601
266337849257893888
266337850054803456
266337850247749632
266337851812225024
266337852923736064
266337853582241793
266337853842264064
266337854161031169
266337854383337472
266337854895038465
266337855276728322
266337855419326465
266337855431929856
266337856010723328
266337858409877505
266337858774777856
266337858778980352
266337860272140288
266337861299748864
266337862876819456
266337863203958785
266337863883444226
266337864021864448
266337865334665216
266337866727178240
266337866811056128
266337867243069440
266337867356327936
266337867465371648
266337867796713473
266337869336023040
266337869801598976
266337870158127105
266337873190608896
266337873899433984
266337875094822912
266337875409371137
266337875799453697
266337876550250496
266337876877406209
266337877347160064
266337878555099136
266337878630617088
266337878848708608
266337879767281664
266337880660656128
266337881042321408
266337881184952322
266337881453383680
266337881646313473
266337881726001152
266337882128670720
266337883307257857
266337883739287552
266337884854951936
266337885039497216
266337886079696896
266337886155202561
266337886746591233
266337886805303297
266337887002451969
266337889804226560
266337889867153409
266337890143961089
266337890588585984
266337891033174017
266337891511320576
266337891750395904
266337893532987392
266337894019502080
266337895214882816
266337895655305216
266337896141824000
266337896599011328
266337898083786753
266337898746499072
266337898780057600
266337898809417728
266337899019124736
266337899065270272
266337899279183875
266337899761504256
266337900302581760
266337900390666241
266337900717813760
266337900780716033
266337900852039680
266337900877213696
266337901263081472
266337901388918784
266337901678317568
266337901762191361
266337901825118209
266337902454263809
266337903339249664
266337905688055808
266337905700659200
266337905910362112
266337905927139328
266337906120073216
266337906195578880
266337906212360192
266337907453865984
266337907986542592
266337908775075841
266337909668454400
266337910024966146
266337910687670272
266337911102914561
266337912667389952
266337912839364608
266337913678200832
266337914743574528
266337915574050816
266337915607588865
266337916605841408
266337916794585088
266337917373403136
266337917461471234
266337918359072768
266337919973867520
266337920212951041
266337920267481088
266337921026637824
266337922419154944
266337922503045121
266337922834374656
266337923593564160
266337924906352640
266337927112572928
266337927192268800
266337928198897665
266337929360732162
266337929499140096
266337930337980417
266337930426060800
266337930811961344
266337931629842432
266337933479514112
266337933903159296
266337934251278336
266337934301622272
266337934486142976
266337934700056576
266337940601438208
266337941117362176
266337941859729408
266337941952016384
266337942509858816
266337944569257984
266337945039028225
266337945970167808
266337946095976449
266337946976788480
266337947073257472
266337948574810112
266337948641918976
266337948759367680
266337948776157184
266337948868423680
266337948935548928
266337951011713024
266337951238213632
266337951527628800
266337951653445633
266337951762481154
266337952601370624
266337953331179520
266337954224562176
266337954899845120
266337955130515456
266337955201839104
266337956216856576
266337956430766080
266337957399654400
266337957550637056
266337958318190593
266337959484215296
266337960587296768
266337960620867584
266337961736536064
266337962072088577
266337964026626048
266337965205237760
266337966002151424
266337966178312192
266337966564192257
266337966681632768
266337968669749248
266337969038843905
266337969936420864
266337970385195008
266337970393587712
266337970615877632
266337970775265282
266337970813034496
266337970825596928
266337970829791232
266337970880139266
266337971110817792
266337971458940928
266337971630927873
266337971643498496
266337972012584961
266337972188745728
266337972201345024
266337972713033729
266337972788551682
266337974122319872
266337974147489793
266337974164283392
266337974264942592
266337974373994498
266337974961192960
266337975519031296
266337975544205313
266337975862980609
266337975909117952
266337976781508608
266337978295668736
266337978513760257
266337978765422592
266337980904509440
266337981076500480
266337981193936896
266337981642731520
266337981684654082
266337981739188225
266337982074732544
266337982431256576
266337982708084736
266337982775173120
266337983379165184
266337983387557888
266337983622426625
266337983966355456
266337984129929216
266337984381595648
266337984448716800
266337985434378241
266337985610518529
266337987695108097
266337988043214849
266337988286509057
266337989335060480
266337990140366849
266337991260254208
266337991390265344
266337991650328577
266337991751000064
266337992057184257
266337992849911808
266337993034461186
266337994343071745
266337994926088193
266337995328733184
266337996536676352
266337996758978560
266337997388144641
266337997555908608
266337997971128320
266337998457671680
266337999569166336
266337999766319105
266338000194113538
266338000617750528
266338000898781187
266338001372725248
266338002316455936
266338003264356352
266338003834793985
266338004031905794
266338005223079937
266338005290196992
266338005650927616
266338006053552128
266338006439428096
266338006456233984
266338006548484096
266338007248932864
266338007362203650
266338008758886400
266338008779849728
266338008788242432
266338009882955776
266338010155589632
266338010667311105
266338010818306048
266338011061555200
266338011162243074
266338011464216576
266338011678134273
266338011715883008
266338012546342912
266338012663783424
266338012865126400
266338012986757120
266338013095792640
266338015088107521
266338016455434240
266338016795176961
266338017185234944
266338017189429248
266338017336229888
266338018250600448
266338018405777408
266338019118829568
266338019345301504
266338019966070784
266338020561661952
266338020716859393
266338020880424961
266338021610250240
266338021656367105
266338021668958208
266338022843371521
266338023506063360
266338023879364608
266338023996805120
266338025645174784
266338025661947906
266338025699688448
266338025708089345
266338025833897984
266338025955532801
266338026454667265
266338026559528961
266338027079598081
266338027134140420
266338028241448960
266338028925091841
266338029264846848
266338029612969984
266338030326005760
266338030674141184
266338030829326336
266338031034839042
266338031273906176
266338031722708993
266338031840157696
266338032351838208
266338032511250434
266338032607698944
266338032968404992
266338033278808064
266338033459163138
266338033849233409
266338033954074625
266338034012790784
266338034310594560
266338034344148994
266338035048796160
266338035354988544
266338036017688577
266338036198031360
266338036491640832
266338036600672257
266338038169350144
266338038253252609
266338038660083712
266338039071125505
266338039687692288
266338040090345472
266338040107122689
266338040774008832
266338040945979393
266338041336053760
266338041549950976
266338041612881922
266338041633857536
266338042602737664
266338042858586112
266338043152171008
266338043676467203
266338046176268290
266338046444716032
266338046474084353
266338047174533120
266338047489081344
266338048030175233
266338048319557632
266338049657561088
266338050081161216
266338050412531712
266338051054260225
266338051125542912
266338051435945985
266338051607896064
266338051712753666
266338051876347904
266338052245442561
266338052924919810
266338052937510912
266338053935747073
266338053994455042
266338053998665728
266338054086721536
266338055521185792
266338056578154496
266338056859160577
266338059837140992
266338060487254016
266338060998950912
266338062890590208
266338063507132416
266338063767191552
266338064652189699
266338064748666880
266338065381990400
266338066170531842
266338066908729345
266338067693072384
266338067810500609
266338067839844353
266338068032806914
266338068120870912
266338069635031040
266338071073665026
266338071912513536
266338072159989761
266338072399056896
266338072407441408
266338074143907840
266338075259592705
266338075809026048
266338075989405696
266338075993595906
266338076245229568
266338076475924481
266338076798902273
266338076975067137
266338077377720320
266338079487442944
266338080682831872
266338080691195904
266338080770908160
266338080930271232
266338081110634497
266338081530052608
266338081764954112
266338082532495360
266338082926780416
266338083304255488
266338083325222913
266338083476217856
266338084638031872
266338084642254850
266338084961017856
266338085082636289
266338085183291393
266338085434974208
266338085887963136
266338086810701824
266338087729238018
266338088001892352
266338088421314560
266338089054638080
266338089230794754
266338089230815233
266338089604108289
266338090073870336
266338090115809280
266338090266804224
266338090333917184
266338090963054593
266338091147591681
266338091197927424
266338093005676545
266338093030862848
266338093320249344
266338093341237248
266338093743874048
266338093836144640
266338094637281280
266338095379673088
266338095790698497
266338096084287488
266338096331763712
266338097619427328
266338098328248321
266338099246809089
266338099456528384
266338099578163200
266338100454752257
266338101012594688
266338101302022144
266338101335576577
266338101864050689
266338102593875968
266338102606438400
266338102941978625
266338104258990081
266338104275787776
266338105005592577
266338105311760384
266338105437593600
266338106347757570
266338106809135104
266338107060789249
266338107945803777
266338108256174080
266338109241827328
266338109346676736
266338109367664640
266338110550466560
266338110667898881
266338110944722944
266338112337223681
266338112404344832
266338112953786369
266338113159323650
266338113620688897
266338114065297409
266338114371465219
266338114715406336
266338115394871296
266338116535726080
266338116636393472
266338116804157440
266338117068406784
266338117152296961
266338117634625536
266338117844353025
266338118175703040
266338118863552512
266338118884524033
266338119220084737
266338119605952512
266338120272867329
266338120281243649
266338120428056576
266338120511930368
266338121296257025
266338121979928577
266338123166908416
266338123385036800
266338123980627969
266338125230530560
266338125759016960
266338126333620224
266338127155699712
266338127185051649
266338127998746625
266338128757915648
266338129022185473
266338129248649216
266338130557300736
266338130704089088
266338132012716033
266338132046258177
266338132054663169
266338132562153475
266338133799473153
266338135477198849
266338135829524480
266338136328650754
266338136420929536
266338137104588800
266338137985413120
266338138241236992
266338138849439746
266338139214327808
266338140061573121
266338140241924096
266338141441507328
266338142938882048
266338143047921664
266338143979061249
266338144310394880
266338144499167232
266338145061175296
266338145681956866
266338145996525568
266338146013306880
266338146667597826
266338148110438400
266338148437598208
266338148638916608
266338149205168128
266338149389701121
266338149511344128
266338150216003584
266338150295687168
266338150769639424
266338151822409728
266338151944036352
266338152229257216
266338153202323456
266338153676292096
266338154032812032
266338154179592193
266338154288668672
266338155840565248
266338155857321984
266338156071239680
266338156088016896
266338156822007808
266338156834615296
266338157040119810
266338157052690432
266338157581197312
266338157941891072
266338158394867713
266338158835298304
266338158965301248
266338159032406017
266338160185835521
266338160399757313
266338161129570304
266338161729347586
266338161968435201
266338162605961217
266338162970853376
266338164279496705
266338164426301441
266338164887650307
266338166624108546
266338167198736384
266338167827869697
266338169446883328
266338170273153024
266338172085092352
266338172756189184
266338173305622528
266338173477605376
266338175499259905
266338175679594496
266338176312954880
266338176421998592
266338177235709952
266338177806118912
266338177948733440
266338178531725314
266338178561093632
266338179173474305
266338179425116160
266338179924234240
266338180092022784
266338180477882369
266338182474371072
266338183300648960
266338183611047936
266338183808184320
266338183967563776
266338184508620803
266338184571547648
266338184672182273
266338185280380928
266338185817227264
266338185976635393
266338186463162368
266338186576412672
266338186920357888
266338187759198209
266338188988129280
266338189009096704
266338189541769217
266338189743120384
266338189755695104
266338189923479552
266338190095441921
266338190384852993
266338191290822656
266338191844462592
266338191928348672
266338192444252161
266338193060810752
266338193102761984
266338193115320321
266338194189078528
266338194512035841
266338194725933056
266338195606745088
266338196177186817
266338196588208128
266338196911173633
266338196978290688
266338197368352768
266338197498376192
266338197573877760
266338198664409088
266338198878318592
266338200006569984
266338200254046209
266338201126465536
266338202233733120
266338203181670401
266338204226052097
266338204515463168
266338206868439040
266338207157866497
266338208009302016
266338208244195328
266338208319672321
266338209586372608
266338210240679938
266338211436040193
266338211901620225
266338214279786496
266338214359482369
266338215621980160
266338216163028992
266338216620220416
266338217568124928
266338217761071104
266338218075619328
266338218453118976
266338218964836352
266338219069685760
266338219820478465
266338219904360448
266338221531746304
266338221858910208
266338222483861504
266338224090271745
266338224186732544
266338224509693952
266338224870408193
266338224950112256
266338225419853824
266338226632007681
266338226896252929
266338226963365888
266338227349241856
266338227814801408
266338228309721089
266338229345734656
266338230289457155
266338230553686016
266338231023456256
266338231396745216
266338231967166464
266338232168493056
266338232193646594
266338232202063872
266338233430990849
266338234148216833
266338234446000128
266338234798333952
266338236920651776
266338237809823744
266338240213176320
266338241106567168
266338242301927424
266338243308572672
266338244394897409
266338244558471168
266338245061791744
266338245506396160
266338245644800000
266338245900636160
266338246282326017
266338247460913153
266338247918100480
266338248190734336
266338248568238080
266338249004437504
266338250275311616
266338250594062336
266338250816368640
266338250854113280
266338251386789889
266338251575525376
266338251885932544
266338252313747457
266338253723013121
266338253815283712
266338255153295363
266338255220396032
266338255765655553
266338255975358464
266338256201842688
266338257388851200
266338257544040448
266338258043150337
266338260220014592
266338260245151744
266338261025300482
266338261134364672
266338261553782785
266338262686261248
266338262770139137
266338262946287616
266338263483179008
266338264091340800
266338264695336960
266338265328668672
266338266029125632
266338266310139904
266338267153178624
266338267790729216
266338271242645504
266338271376859136
266338271712403457
266338273704685568
266338274652585985
266338274820386816
266338275143340033
266338275164311552
266338275260760064
266338275441131520
266338275898294272
266338276066095104
266338277475377153
266338277706047488
266338278129668096
266338279136313344
266338279534780416
266338280012922880
266338280163930112
266338280449134592
266338280654643201
266338281409622017
266338281569013761
266338282185568256
266338282529501184
266338282588229632
266338283716497408
266338284488245248
266338284546973696
266338284744085504
266338284790239233
266338284874121216
266338285712990208
266338286027558912
266338287185178627
266338287243894785
266338287466205184
266338288116301824
266338289315880961
266338289764687873
266338289957617664
266338290553212931
266338291001995264
266338291861835778
266338292650364928
266338292977508352
266338293187223552
266338293317255168
266338293908664321
266338294747504640
266338295095623680
266338295125012480
266338295200481281
266338296425226240
266338296999837696
266338297113100289
266338297616429056
266338297889058816
266338299893927937
266338299948457984
266338300598550529
266338302620213248
266338303182266369
266338304675434496
266338304780279808
266338305409425409
266338306948730882
266338307309453312
266338307850522625
266338307871494144
266338307938607104
266338308777447424
266338308819394560
266338309003952128
266338310086078464
266338310119645184
266338310706851841
266338311189172224
266338311562477568
266338312950800385
266338313105965056
266338313290522624
266338313600909312
266338313735118848
266338313760305152
266338313923854336
266338314141982720
266338314402029568
266338314699812865
266338316155240448
266338317094748160
266338318483070976
266338319259037697
266338319498088448
266338319703609344
266338319753936896
266338320047562752
266338320706043905
266338321914015744
266338322438307840
266338322660605952
266338322702536704
266338322908053505
266338323402981376
266338323440746497
266338323734360064
266338323864383488
266338325156204544
266338325403684864
266338325806342144
266338326854897664
266338327458873345
266338327765086208
266338328457138176
266338328624906240
266338329124036609
266338329237262336
266338329434419200
266338329623134209
266338329757364225
266338329769951232
266338329849655296
266338331028242432
266338331393159169
266338331988742145
266338332571750401
266338334488551424
266338334509518850
266338335096709121
266338335453241344
266338336099160064
266338338536030208
266338338590568449
266338338900959232
266338338984841216
266338339861446657
266338341656600576
266338341748891648
266338342336073728
266338342386421761
266338342461911040
266338342646452224
266338344097701888
266338344588423168
266338344840089602
266338345179832320
266338345729265664
266338345758650368
266338346907885570
266338346991747073
266338347696402432
266338347801251840
266338347855802368
266338348942118912
266338349374124032
266338349466390528
266338349931954176
266338350045224960
266338350233964544
266338351219625984
266338351295111168
266338352255610880
266338352503083009
266338353165770752
266338353295798272
266338354428268544
266338354717659136
266338354881236993
266338355334246400
266338355481022465
266338355535564800
266338356915470337
266338357481717760
266338357825658880
266338357989224448
266338359205580801
266338359364960256
266338359817949186
266338359952166913
266338359994093568
266338361344659457
266338361587933184
266338362888179712
266338363626385408
266338364800774144
266338365186637824
266338365459283969
266338365648023552
266338366054866944
266338366713380864
266338367199916032
266338367271219200
266338369989140480
266338370047856640
266338370119159808
266338370232406016
266338371209682945
266338371515867137
266338371935285248
266338372061110272
266338373071937536
266338373172617216
266338373399105536
266338374833561600
266338374942593024
266338375500460032
266338376578379777
266338376691642369
266338377622753280
266338377639542785
266338378121883648
266338378444836864
266338378847506432
266338378990096384
266338380365828096
266338380932079616
266338381699641344
266338382043553793
266338382727221248
266338383633211392
266338383754833920
266338384950226945
266338385843613696
266338385969434624
266338386565013505
266338387131244544
266338387710070784
266338388150464512
266338388737683456
266338388997713921
266338389672992768
266338390444736514
266338390918713344
266338391052935170
266338391992446976
266338394211221504
266338396035747841
266338396182573056
266338396232892416
266338397788962817
266338397851889664
266338397923184641
266338398158077952
266338398741078016
266338398963396608
266338399194062848
266338400632717312
266338401148628992
266338401253482497
266338401765187584
266338402058776577
266338402843107328
266338403266723840
266338404147527681
266338404965445632
266338405573595136
266338405900759040
266338407125504000
266338407934996481
266338408203440129
266338409755328512
266338410891993088
266338411118465024
266338411978301440
266338412565524480
266338412972355585
266338413379203072
266338413668614145
266338413706350592
266338414457143297
266338415308595200
266338415350534144
266338415828664321
266338417502208000
266338417921642496
266338419771314177
266338420341760000
266338420341764096
266338420589207553
266338420807315456
266338420815720448
266338421071552512
266338421633605632
266338422174646273
266338422283726848
266338423466491905
266338423474880512
266338425257480192
266338425324580864
266338426377351168
266338426473820160
266338427706937344
266338427878928384
266338428013133824
266338428214468608
266338428654850049
266338428742930432
266338429061722112
266338429204324352
266338429606952960
266338429988634624
266338430470983681
266338430605213696
266338430710067200
266338432274534401
266338432979202048
266338433012752384
266338433113407488
266338433163743232
266338433562198016
266338434317160449
266338434690473984
266338434757574656
266338435315425280
266338435558670336
266338436242370563
266338436900864000
266338438146580481
266338439069302784
266338439786536960
266338440885436416
266338441166467072
266338441858523136
266338442521223170
266338443095855104
266338444136030208
266338444362518528
266338444609994753
266338444614201344
266338445104930817
266338445994127360
266338446329643008
266338447336275969
266338448288399360
266338448296779779
266338448393256960
266338448972079104
266338449295044608
266338450041630721
266338450326835201
266338450419093504
266338450448449536
266338450448453632
266338450893049856
266338451190853632
266338452147163137
266338452151349250
266338452553990144
266338452855992321
266338453988446208
266338454118465536
266338456538603520
266338458019184641
266338458308603904
266338458644127744
266338459390717953
266338460468649986
266338461265584129
266338461693378560
266338461919875072
266338462091866112
266338462444171264
266338462851035137
266338463257874432
266338463576641536
266338465833181184
266338466491666433
266338467296989184
266338467821268992
266338468421070848
266338468530102272
266338468576231424
266338468748226560
266338468752404480
266338468769181696
266338469087944705
266338469398319104
266338469415096320
266338469717094400
266338470413336579
266338471675838464
266338471969427457
266338472623747072
266338472825081856
266338472971882498
266338474427297792
266338474460844033
266338475119345664
266338475530387456
266338475937259522
266338476222459904
266338476855791618
266338477556260864
266338479020072961
266338479166849026
266338479166877696
266338479829577728
266338480509034496
266338480894910465
266338481448566784
266338481582792705
266338481763131392
266338481792483328
266338483315036160
266338483621220352
266338483625414658
266338484107743232
266338484363620353
266338484820774912
266338485072453632
266338485424762881
266338485621899264
266338485852573697
266338485990981632
266338486364278785
266338487333175296
266338487475773441
266338487479980032
266338487580635138
266338487786143744
266338487932960768
266338488000061440
266338488662781952
266338488696320000
266338490025922560
266338490332102657
266338491326164992
266338492395708416
266338492945158144
266338493209395200
266338493322637313
266338494312488960
266338495348494337
266338495717597184
266338496011182080
266338497017806848
266338497659559936
266338498171244545
266338498578116610
266338498603266048
266338498913648640
266338499991568384
266338502164226048
266338502579482625
266338503695155201
266338503753859073
266338505381253120
266338505590984704
266338506954117120
266338507864305664
266338507956576257
266338508078211072
266338508766056449
266338509789470720
266338510452178944
266338510473162752
266338510737395713
266338510766759939
266338510984843264
266338511593033728
266338511655927809
266338512129904640
266338512830349313
266338512960372736
266338513014902784
266338513119739904
266338513241399296
266338513321086976
266338514889736192
266338515376291841
266338516236107776
266338518329085952
266338519146975232
266338519595749377
266338521206374400
266338521906835456
266338522871496705
266338523983003648
266338524301762560
266338524649881600
266338525060943872
266338525283241984
266338525379719169
266338526386348033
266338527489449984
266338527636254720
266338528198279168
266338528709988352
266338529024557056
266338530345758720
266338530819706881
266338531042009088
266338531880882176
266338531880882178
266338532472274945
266338533910929408
266338534875615232
266338535286644737
266338535529910273
266338535630585856
266338536167448576
266338537803243520
266338537908105216
266338538050703360
266338538692423681
266338539157999617
266338540013629440
266338540030418944
266338541175468032
266338541750083584
266338541821386752
266338541934616576
266338543281004544
266338543582990337
266338544157609984
266338544296013824
266338545013252096
266338545164226560
266338545319424000
266338545445240832
266338546313469952
266338547089420289
266338547466919936
266338548142202880
266338549857656832
266338551560560640
266338552521035776
266338553569611776
266338553661890560
266338554257473536
266338554504941568
266338554685292544
266338554806951937
266338555557711872
266338555968749568
266338557596155904
266338558225297409
266338558690881536
266338559051571201
266338559156445184
266338559198388224
266338559529721857
266338560339243008
266338563283632129
266338563380105216
266338563564638208
266338563749195778
266338563828887552
266338565842145280
266338565959602176
266338566089621504
266338566555172864
266338567314354177
266338567792517120
266338567998021632
266338568153210880
266338568874622977
266338570011295746
266338570053226496
266338570380402688
266338570636242945
266338570732724224
266338571189895168
266338571559006208
266338571626090496
266338572209106944
266338573920399362
266338574344019970
266338574503407617
266338574637613056
266338574977359874
266338575627452416
266338578265686017
266338578764816384
266338579024842752
266338580983603201
266338582405476352
266338583080747009
266338583416299521
266338583529533440
266338585207267329
266338585555390465
266338587296022528
266338589175066624
266338589858734080
266338590122987521
266338591007989762
266338591750385665
266338591976853504
266338592371138560
266338592811520001
266338593277091840
266338595139354624
266338595177115649
266338595365851136
266338595470704640
266338596087283712
266338597102288896
266338598498992128
266338598608052224
266338598813581312
266338600394825729
266338600491294721
266338601116250112
266338601854443520
266338602827538434
266338603091783680
266338603662180352
266338603972579328
266338604345876482
266338604589129728
266338605121818624
266338605478338560
266338606354935808
266338606690484226
266338608829566976
266338608842174464
266338608913448962
266338609001553920
266338609307734018
266338609618100224
266338610054316034
266338610838634498
266338611241295872
266338611333570560
266338611421667329
266338611786555393
266338611899817984
266338611966906369
266338612495405056
266338612797386752
266338613963415552
266338614626091008
266338615020355584
266338615024549888
266338615280422912
266338615796322304
266338616597413888
266338616639381504
266338617205604355
266338617285300225
266338617432088576
266338617625047040
266338617725693952
266338618531000320
266338618640048128
266338619566989312
266338619734781952
266338619764137984
266338620363923457
266338620451999744
266338621475414016
266338621659959296
266338621798354944
266338622263926784
266338624168144896
266338624616923136
266338624935706624
266338625988485122
266338626382749697
266338626986725376
266338627615866880
266338628148531200
266338628505059328
266338629037744128
266338629658492928
266338629952094209
266338630342160384
266338630455402496
266338630740615168
266338631709515777
266338632334471169
266338632355426304
266338632724529152
266338633064255489
266338633248821249
266338633307549696
266338633647288322
266338634687471616
266338635048157184
266338635241095170
266338635438252032
266338636323246082
266338636402933760
266338636440670208
266338636700733440
266338637136924674
266338637812203520
266338638089027585
266338638130970625
266338638370070530
266338638927888384
266338639280234496
266338639368290304
266338640014241792
266338641977159681
266338643134795776
266338643692642304
266338644430827520
266338644439207936
266338645601042432
266338645869481984
266338645949153280
266338646666379267
266338647417180160
266338647492669441
266338647920496640
266338647979216896
266338648004370433
266338649275248640
266338649606598656
266338650533527552
266338650898456576
266338651842179073
266338652928503809
266338652932689920
266338653796696064
266338653830250499
266338654136459264
266338654182580225
266338655302463488
266338656065826816
266338656179060736
266338656560762882
266338656606904320
266338656753704961
266338656971784192
266338657500282880
266338657626124289
266338658041360384
266338658502729728
266338658792136704
266338659115094017
266338660025249792
266338663594606592
266338666383802369
266338667390455808
266338668980080641
266338669084958720
266338669156237312
266338669164654592
266338669353381888
266338670162886656
266338670435508224
266338670502617089
266338670812999680
266338670875918337
266338671266000896
266338671567962112
266338671823831040
266338672281001986
266338672318767104
266338672427823105
266338672624951298
266338675753889792
266338676596953090
266338676982837249
266338677846847488
266338678194962433
266338678509535232
266338678757011457
266338679214186497
266338679495221249
266338680107569154
266338680220835840
266338680363442176
266338680908693504
266338681101639680
266338681315553281
266338682586411010
266338682963890176
266338683299446784
266338683723059202
266338684381569025
266338685501456384
266338685627273216
266338685660835840
266338686365491200
266338687728640000
266338688701710336
266338689527971840
266338689595109376
266338689817403392
266338690530422784
266338690580766720
266338690962444289
266338690979217408
266338691755163648
266338692682117120
266338692816306178
266338692866646017
266338693223165953
266338693453860864
266338694015885312
266338695014137858
266338695811059713
266338696226295810
266338696456966145
266338698411507712
266338698889674753
266338699460112385
266338700936499201
266338700970061825
266338701674684416
266338702027014144
266338702266089474
266338702366752770
266338703079768064
266338703369199616
266338703474044928
266338703557939200
266338704031883265
266338705864790017
266338706280042496
266338707169243137
266338707647373312
266338708037439489
266338708670791680
266338709434146817
266338711090917376
266338711728439296
266338711824900096
266338712001052672
266338712244326401
266338712810553344
266338713339056128
266338713548750849
266338714458918912
266338715461378048
266338715545268225
266338715578793985
266338715704639488
266338716052779008
266338716954537984
266338717243932672
266338717260709888
266338717399130112
266338717625634816
266338717852131329
266338719102017539
266338720251256832
266338721719275520
266338722503593984
266338723082416128
266338723199844352
266338723896102912
266338724458164224
266338724554604544
266338724923719680
266338725825490944
266338726471405568
266338727826161664
266338727897485313
266338728606310403
266338728761495553
266338728967028737
266338729403232257
266338729663279104
266338729738780672
266338730275643393
266338730443423744
266338730476965890
266338730527318017
266338732058230785
266338732825772032
266338732892880896
266338733584961538
266338734516092930
266338735384297472
266338736726491136
266338737426948096
266338737682804737
266338737775058946
266338737850568704
266338737884114944
266338738085433344
266338738479722497
266338738525855744
266338738551005184
266338738966253568
266338739305992194
266338739863814144
266338741050802177
266338741239562240
266338741394751488
266338741977755648
266338742560759810
266338743181512705
266338743449972736
266338743877791744
266338743915540480
266338745337397249
266338745953972224
266338746654392320
266338747547807744
266338748504092673
266338749321998337
266338749460398080
266338749892399104
266338750718693376
266338750982934528
266338751486230528
266338752601935874
266338752924889088
266338753419808768
266338753906356224
266338754346774530
266338754476769282
266338755101749248
266338755147870208
266338755386945537
266338756301299712
266338756351627264
266338758008401920
266338758062915584
266338759291838464
266338759396704256
266338761355436034
266338761611284480
266338761628065793
266338762341109761
266338762605330432
266338762630516736
266338764857679873
266338765105152000
266338765201620993
266338765864316928
266338767307165696
266338767370067968
266338767512674304
266338768062124033
266338769995718656
266338770436100096
266338770725519361
266338771421769728
266338772709412865
266338772940095488
266338773133049856
266338775024668672
266338775825805312
266338776358477824
266338776509472769
266338777314762753
266338780103979009
266338780464693248
266338781152563200
266338781475532800
266338782050148352
266338783048372224
266338783920807938
266338786223464449
266338786613555201
266338786902941696
266338787209121795
266338788219953153
266338789218193408
266338789239164929
266338789251751938
266338789897678849
266338790275166208
266338790342279168
266338794159108096
266338794247159808
266338794456895489
266338794737901568
266338795044102145
266338795056676864
266338795446734848
266338795874562048
266338796176539648
266338796340133889
266338798483435523
266338799217426432
266338799360036864
266338800010149888
266338800718974977
266338801507512320
266338801671098368
266338802585460738
266338802639970304
266338802816131072
266338802946170880
266338803688558592
266338803877306368
266338804330270720
266338805311746048
266338805831835649
266338806221897728
266338806767181824
266338807106904066
266338807413080064
266338808822390784
266338809749323776
266338810235846657
266338810495922176
266338811448029185
266338811540287488
266338812261695488
266338813083791360
266338813364805633
266338813763272704
266338814170112001
266338815046721536
266338815818477568
266338816049160194
266338816099500033
266338816166596608
266338816183369730
266338816300814336
266338821342392320
266338821619204096
266338822420303872
266338823062052864
266338823720550400
266338824601358336
266338824714600448
266338824735576064
266338826019012608
266338826513948672
266338827319255040
266338828111974401
266338828506251264
266338829441593344
266338829475143680
266338830796353536
266338831173824513
266338832620863490
266338833015111680
266338834139205632
266338834659282945
266338834961285120
266338835238105089
266338836810964992
266338837482065920
266338837700169729
266338837763084290
266338838606131201
266338840535527424
266338841533763584
266338842049646593
266338842250977282
266338843110817795
266338843362488321
266338843425374208
266338843500871680
266338845551886337
266338845631578112
266338845644181505
266338846055231488
266338847837798400
266338847934251008
266338848575979521
266338850245332992
266338850362753025
266338850463424513
266338851423932416
266338853189722112
266338854301212674
266338854615777281
266338855404326913
266338856406757376
266338856545157120
266338856822001665
266338857627312128
266338857916715010
266338858839470081
266338859170803713
266338859841908737
266338860093550592
266338861230219264
266338861381206016
266338862022942720
266338862278782976
266338862425600000
266338864040394754
266338864115900416
266338865432891394
266338865990733824
266338867207094272
266338867244851200
266338868029169666
266338868423438336
266338868587012096
266338868771553280
266338870151495680
266338871032287232
266338871061647360
266338871111974912
266338871388819456
266338871619497985
266338872307359744
266338872932323329
266338873213321216
266338873506942976
266338877546057728
266338877625749505
266338878309425152
266338878368149506
266338878431064064
266338878565277696
266338878896603136
266338879223783425
266338879353802752
266338881287356417
266338882067505152
266338882730201088
266338883824922624
266338884076572673
266338884730892288
266338885238398977
266338885586522113
266338885729136640
266338885766877184
266338886429577216
266338887276834816
266338887473975296
266338888132464640
266338888258310144
266338888757432321
266338889470451712
266338889596301312
266338891030724608
266338891089457152
266338891097833472
266338891735396352
266338894897876993
266338894910484480
266338895577350145
266338896688852994
266338897305419776
266338897313800192
266338897640951808
266338897804537856
266338898425286657
266338899134132224
266338899486461952
266338901248073730
266338902233735170
266338902514745345
266338902535708672
266338902825119744
266338902946750466
266338903122903040
266338903127113728
266338903185817603
266338903185833984
266338903722700800
266338903932411904
266338904427347970
266338904456695808
266338904880320513
266338905513656320
266338905610141696
266338905773727745
266338905803091968
266338906214113280
266338906801336320
266338906964893696
266338907040411648
266338907484991488
266338907648581632
266338907724079104
266338907824742402
266338908139315200
266338909749911552
266338909917704192
266338910110629888
266338910169341953
266338911134044160
266338911897411584
266338912451047425
266338912673361920
266338912685928448
266338913164075008
266338913470275584
266338914544021504
266338914661437440
266338914825039873
266338915382853632
266338917731684352
266338918096596992
266338919350693889
266338919522660353
266338919774298112
266338920902569985
266338921565270017
266338921644978177
266338922118922240
266338922186027009
266338922928435200
266338924396433408
266338925390483456
266338925403062272
266338925470171136
266338925969289217
266338927592480768
266338927684775936
266338928003543040
266338928943054848
266338929547022336
266338929849028608
266338930281021440
266338931187019776
266338931333812224
266338931866484736
266338931891638272
266338931954552833
266338932269146113
266338932654997504
266338933175119873
266338933972017153
266338935284830208
266338937264549888
266338937323266048
266338937528791040
266338937688186881
266338937906282497
266338938325712896
266338938615119874
266338939177156609
266338939181359105
266338941165240321
266338941186215936
266338941421117440
266338944038346752
266338945137254400
266338945548312577
266338946110341121
266338947238592512
266338947385393153
266338947750309888
266338948085870592
266338948358471680
266338948656287744
266338949046353920
266338950346575872
266338951072210944
266338951474851841
266338952221442048
266338952473092096
266338953240666112
266338953353891840
266338954213740545
266338954293424128
266338956168294400
266338956461871104
266338956898086913
266338958177353728
266338959280455682
266338960425508864
266338960559718400
266338961826385920
266338961893490688
266338962770116611
266338963709640705
266338964720455680
266338964863057920
266338965097951232
266338965529968640
266338965613854720
266338966024904704
266338966695972864
266338967278977025
266338967320948736
266338967476125697
266338967606149120
266338967669075969
266338968457605122
266338969032224768
266338969728458753
266338969975939073
266338970223407104
266338970244349952
266338970638618624
266338971007721472
266338971120963584
266338971511042048
266338971884343296
266338972605751296
266338973683707904
266338974136676353
266338974153461760
266338975025864705
266338975357231104
266338976250605569
266338976556806144
266338976821018624
266338977232089088
266338978083508224
266338978880450560
266338979287281664
266338979845128192
266338980092600320
266338980172288000
266338980558155776
266338980642029568
266338981950656512
266338982156173313
266338984060395521
266338984748253184
266338984823771137
266338984823771138
266338984978948096
266338985402576896
266338987139035136
266338987482955776
266338987482968064
266338987529084928
266338987969478657
266338988384714752
266338988938391554
266338989718528000
266338989974372353
266338990448328704
266338990465101824
266338991337512960
266338991593381888
266338991597568000
266338992386080769
266338995137548288
266338995829628930
266338996257443840
266338996626534401
266338997075324928
266338997146615808
266338997301805056
266338997314412544
266338997603815425
266338998220369921
266338998870491136
266338999185055744
266338999344459776
266339000070045696
266339000334295040
266339000489488385
266339000959254529
266339000984432640
266339001106038785
266339001185738752
266339001496129536
266339002016219136
266339002326609920
266339002741825536
266339003521982465
266339004373405696
266339004633468928
266339005048688640
266339006101463041
266339006730600449
266339007447846913
266339007540129793
266339007678513153
266339008261545984
266339009184268288
266339009540800512
266339009914085376
266339010782302208
266339011684089857
266339011906400256
266339011952533504
266339013047226368
266339013294710785
266339013617651712
266339013647028224
266339013714145280
266339014997594115
266339015182151680
266339015706427392
266339016234917888
266339017715490817
266339017895854081
266339018659213313
266339018856341505
266339019179323392
266339019632300032
266339019821027328
266339020047540224
266339020060127232
266339022253723649
266339022710910977
266339025504321536
266339025730822144
266339025743400961
266339026095714304
266339027010072577
266339027203006464
266339028184481795
266339029035909120
266339030424223744
266339031200190466
266339031539929088
266339031728668672
266339031778988032
266339031883853825
266339032508801025
266339032538157056
266339032735293440
266339032915652609
266339033288933376
266339033364439043
266339034266210305
266339034807287808
266339034853429248
266339035205734400
266339035411271680
266339036254306304
266339036317224960
266339037504221184
266339037630038016
266339040045977601
266339040486363136
266339040738017280
266339041081970688
266339041664983041
266339041664987136
266339042629656577
266339042843570179
266339043078451200
266339043359477762
266339043363663872
266339043762139136
266339043791495169
266339044613574656
266339044634537985
266339044655513600
266339045251100672
266339045477593088
266339045792161794
266339046719094784
266339047713144834
266339047818018817
266339048044511232
266339048178737153
266339049097273344
266339049390895104
266339049755791360
266339050217168897
266339050380726272
266339051026644992
266339051903270912
266339052326883329
266339052498849793
266339053065084929
266339053639712769
266339054948339712
266339055346802688
266339055770431488
266339056638640128
266339056772845568
266339057792086016
266339057850785793
266339057854984192
266339058144395265
266339058794524672
266339060564512768
266339060698734592
266339061650837504
266339061768257536
266339061877334016
266339062015729664
266339062191906816
266339062208663552
266339062250631169
266339062372249603
266339062779084800
266339063148199937
266339063269818368
266339063756382209
266339063865430016
266339065035628544
266339065366978560
266339065371164672
266339066503651328
266339067032137729
266339067371876352
266339067808059394
266339068294619136
266339068688883712
266339068869226496
266339068986658817
266339069238337536
266339070697947137
266339070798610432
266339070853144576
266339070945406977
266339071108988928
266339071218036736
266339071268356098
266339071473905665
266339071671025665
266339072061100032
266339073222905856
266339073235496961
266339073852059648
266339075160678401
266339075458490368
266339075584299008
266339075835953152
266339077413027841
266339077467537408
266339077576613888
266339078050549761
266339078570639360
266339078734233601
266339079766028288
266339079917015042
266339080101584896
266339080223223808
266339080332259330
266339080634249216
266339081531838464
266339082232295425
266339082307780608
266339083465404416
266339083826130944
266339084136484864
266339086254628864
266339087882002432
266339088318230528
266339088477601793
266339088691515392
266339089798815744
266339089991741440
266339090176307200
266339092151795712
266339092353126400
266339092441231362
266339092944531457
266339093435260928
266339094966190081
266339095326887936
266339095473713152
266339098921406464
266339099143725056
266339099269533696
266339099382792192
266339099898699776
266339101421232128
266339101425430528
266339101672873984
266339102163615744
266339102750806016
266339102809546752
266339103224778752
266339103241535489
266339103933603840
266339103979749378
266339104055259136
266339104134950912
266339104315297792
266339104390787072
266339105292550144
266339105309331456
266339105359687683
266339105560997888
266339105628102657
266339105951059969
266339106240483328
266339107964329984
266339108895485952
266339109117775872
266339109407170560
266339109981786113
266339111021998080
266339111210721280
266339111906975744
266339112032813056
266339112263495680
266339112301244416
266339112372539392
266339113664401408
266339114788474881
266339117623816193
266339119725166592
266339120941506560
266339121193172993
266339121587445760
266339123432919040
266339123474870273
266339123927859200
266339124049494016
266339124313726976
266339124334706690
266339124884144129
266339125303595009
266339125370683392
266339125442007040
266339125458763778
266339125488140289
266339125995659264
266339126155030528
266339126561886209
266339127371386880
266339127417516032
266339127895666689
266339128067637249
266339128105381889
266339128961019904
266339128965218304
266339128969412609
266339130303197184
266339130504519681
266339131364372480
266339131595034624
266339132329058304
266339132375187456
266339132991762432
266339133016915970
266339133574762496
266339133734137856
266339135000805376
266339135520899072
266339135592222720
266339136347189248
266339136942784512
266339138020724736
266339138310135808
266339138981220352
266339138993795072
266339140021415936
266339140050751490
266339141602648066
266339141657169920
266339142256963584
266339142907076608
266339143313924096
266339144425426945
266339145369128960
266339145620783104
266339145755017217
266339145755029507
266339145847296000
266339146681958400
266339148347084800
266339149815095296
266339149882224640
266339150477807616
266339150603636737
266339150620397569
266339151064989697
266339152046460928
266339152507838464
266339152910508032
266339154378518530
266339154474979328
266339155183820800
266339155997507584
266339156500836352
266339156777660417
266339156886683649
266339157205463041
266339158744776704
266339158828646400
266339159159996416
266339160003051520
266339161315889153
266339161420734464
266339161961803776
266339162066665472
266339162263785473
266339163048136704
266339163199115264
266339163438202880
266339163907973120
266339164193169408
266339164432261120
266339164780363777
266339164860076032
266339165946388480
266339166567161856
266339168190357504
266339168727232512
266339169209552897
266339170513997825
266339172351094784
266339172359495680
266339172485308417
266339172976054273
266339173252861952
266339173399662592
266339173819101184
266339175622656000
266339176402800640
266339181230452736
266339182539071489
266339182589403136
266339182853644288
266339182929145856
266339183944167424
266339184355188736
266339184426491906
266339184682360832
266339184992735235
266339186582368256
266339187001790465
266339187698065409
266339188704690176
266339188809543680
266339189384179712
266339193242931200
266339193393930240
266339193532338177
266339193901445121
266339194274709504
266339194471862272
266339195612717057
266339195633664000
266339197261058049
266339198137692160
266339198351585280
266339199073001472
266339199966388225
266339200092229632
266339200163512320
266339202818510848
266339202961141760
266339203107942400
266339204634664960
266339205523849216
266339205653860352
266339205909737472
266339206849241088
266339208254341122
266339209030287360
266339209445519360
266339209953017857
266339210645078016
266339211089702912
266339211752394752
266339212511571968
266339213379772416
266339213602086912
266339213769863168
266339213774053376
266339214017310721
266339214231220224
266339214671609857
266339214977806336
266339215258832898
266339215523065859
266339215955083264
266339216315777025
266339217326632960
266339217431465985
266339217527943168
266339217553104896
266339218295500800
266339218454888448
266339218857537536
266339219599921152
266339219742547968
266339219767709696
266339220409425920
266339220631740416
266339222242344961
266339222376554496
266339222460456960
266339222498205697
266339222628208640
266339222846337024
266339223764873217
266339224536641536
266339224838631424
266339225312587776
266339226176589824
266339226193379328
266339227124523008
266339228726730752
266339228860956673
266339228902912002
266339228932251650
266339229016150016
266339229108416512
266339232954589184
266339234284195840
266339234368065537
266339234716200960
266339235173371904
266339236268105730
266339236595253248
266339237442510848
266339237568323584
266339238293938176
266339238491086849
266339240844087296
266339240881819650
266339241087352832
266339243037687808
266339243255803904
266339243390029824
266339243801067521
266339243943661568
266339244098846720
266339244505710593
266339244576997377
266339244786737152
266339245701091328
266339246472851457
266339246493806592
266339247211040768
266339247982784512
266339248041496576
266339248058290176
266339248335114240
266339248414814208
266339248909725700
