266382031074783232
266382031678763010
266382033348083712
266382033561985024
266382034895777793
266382035088728064
266382035126460416
266382035646550017
266382035948544000
266382038746140672
266382039111045120
266382039765352452
266382041044639744
266382041300496384
266382043611529216
266382043838046208
266382043993214976
266382044731416576
266382044920168449
266382046308487169
266382047482871808
266382048569208832
266382050049798144
266382050787983360
266382052876771329
266382053984067584
266382055800184832
266382055972155392
266382056676802560
266382056966197248
266382057394028544
266382057645674496
266382057645694976
266382058488729602
266382059977715713
266382060095143937
266382060934025216
266382065233178624
266382066319491072
266382066508247040
266382066852188160
266382068945141761
266382069746249728
266382069960163328
266382070996160512
266382071096803328
266382073395306498
266382074120904705
266382074544525313
266382074750070784
266382075010105344
266382075391795200
266382075991572480
266382077761572864
266382077962887170
266382078445236225
266382078885646336
266382079061790720
266382081154752512
266382082404651008
266382082475978752
266382083709100033
266382083923001344
266382085625888769
266382087249080320
266382088964562944
266382089182642177
266382089467871232
266382089518202880
266382091091058688
266382091091075072
266382091216904193
266382092177399808
266382092651335683
266382095344095234
266382096598179844
266382097684496384
266382099500642304
266382099580334080
266382101522300928
266382102101102594
266382102763798528
266382102914801664
266382103304876032
266382103942397953
266382104877756417
266382104986791937
266382105079070720
266382105238437888
266382105443979264
266382105569808384
266382106102468608
266382106303815681
266382106425434112
266382107037794306
266382108547756032
266382108816207872
266382109688594433
266382109734756352
266382110674264065
266382111437631488
266382113236983808
266382114994388993
266382115434795008
266382116126875648
266382116252684288
266382116286246912
266382117645193217
266382117854920704
266382118043664384
266382121294245888
266382122061811712
266382122133094401
266382123785662467
266382125165604864
266382125773754368
266382127388561408
266382128164532224
266382129842237440
266382131075350528
266382131222155265
266382132031668224
266382132992159746
266382133302546433
266382133554208768
266382133629689856
266382135873634304
266382136678952960
266382136712511488
266382137354231808
266382138125987840
266382138314747905
266382138474131457
266382138612535296
266382139065520128
266382140202164224
266382141053603840
266382142915895297
266382144610390017
266382144778141696
266382144899796993
266382145738653696
266382145851899905
266382147160530944
266382147483496448
266382148892770304
266382149026996226
266382150125887488
266382150457241602
266382151279337472
266382152743133184
266382152856399872
266382154836082688
266382155528151040
266382156710965249
266382157281382402
266382157830840322
266382157881176064
266382158757761024
266382158841643009
266382161421164545
266382162700402688
266382163669315584
266382163715436544
266382164222963713
266382164562702338
266382165435101184
266382165812600832
266382166580133888
266382166647255041
266382166995386368
266382167645503488
266382169226743809
266382169977528321
266382173022588928
266382173412655104
266382174310236161
266382174377373697
266382175551778819
266382178450034689
266382180375207936
266382182266843136
266382182371700737
266382184313663489
266382185362247682
266382186360471552
266382186708611072
266382188939980800
266382189288124416
266382189682376706
266382189850144769
266382190370226176
266382192282849280
266382192291237888
266382192681316353
266382193364967425
266382193599864832
266382193784389633
266382194266746880
266382194962993152
266382195080433664
266382195457916928
266382195504066560
266382196527472641
266382198041612288
266382198788198400
266382199568359425
266382199694172161
266382201430618112
266382203309674496
266382204421156865
266382204983197696
266382205385846784
266382205654274048
266382205914324992
266382206577041408
266382208854523904
266382209148133376
266382209848602624
266382210679046144
266382211132030976
266382211790536704
266382212847513600
266382213694758915
266382214084825088
266382214961451008
266382215603183617
266382216689496065
266382217201213440
266382218086187008
266382218123952128
266382218644037632
266382219570995201
266382220183359488
266382220606976000
266382221429067777
266382222024650752
266382222234378240
266382223660433409
266382223761100800
266382223970820097
266382224599945217
266382224616730626
266382224973246464
266382225044557824
266382225560457216
266382229415022593
266382230849470464
266382231596060672
266382231625412608
266382232736890880
266382233349267457
266382233856774144
266382233944870913
266382234196533248
266382235656134656
266382237967200256
266382238604726272
266382239460372480
266382240269869056
266382241674969089
266382242866135040
266382243210072066
266382244074110976
266382246527762432
266382246628429824
266382246854934528
266382247526031360
266382247559585792
266382247807033344
266382249178583040
266382251636432896
266382251758088192
266382251951013889
266382252861177856
266382252911505408
266382252970225664
266382253377085441
266382253993627648
266382254039769088
266382254639575040
266382255360991234
266382255667175425
266382256388575232
266382257277779969
266382257810460676
266382259307827200
266382259475607552
266382262008950784
266382263992852481
266382264475209728
266382265070809088
266382265251160064
266382265708331009
266382265918058497
266382267365089280
266382267415412737
266382267763544064
266382267855826944
266382268317175809
266382268329754624
266382268539486208
266382268547883008
266382268644335616
266382269109919744
266382269286076416
266382269390921728
266382270070407168
266382273396498433
266382273757192192
266382274646380545
266382274914828289
266382275241975808
266382275971801090
266382276437368832
266382276835823616
266382277272018945
266382278458998784
266382278459019265
266382280614875136
266382280635842560
266382280979787776
266382281822842881
266382283890647040
266382285329293314
266382285807427584
266382285874544640
266382286835036161
266382287627767808
266382288101703681
266382289196433408
266382289380978688
266382289947197441
266382290064650240
266382290995798016
266382291293585412
266382291931115520
266382292098879490
266382294233800704
266382295756308484
266382297589227522
266382298012852224
266382298373582848
266382299589922817
266382299636039680
266382300864970753
266382300890136576
266382300923695104
266382302429470721
266382303075381248
266382303368978432
266382304593719296
266382305344516097
266382305415790593
266382305617137664
266382306141409281
266382306799915008
266382307085139969
266382307215167489
266382307294863361
266382307663953920
266382309777874944
266382309974999040
266382310075662336
266382311115862016
266382311120072704
266382311153606656
266382311229104128
266382311510122497
266382311979880450
266382312852295680
266382315318571009
266382315385651200
266382317302452224
266382317352779776
266382317700907008
266382318288121856
266382318837563395
266382319483490304
266382320729198592
266382322595676160
266382322914443265
266382323291930624
266382325561053184
266382326370533376
266382326831927297
266382327452676096
266382331084931072
266382332351639552
266382333316304896
266382333769289728
266382334457155585
266382335346360320
266382335795163136
266382336084561920
266382338110418944
266382338785701888
266382338915717120
266382339096059907
266382339280613376
266382340589223938
266382341377761280
266382344171175936
266382348688429056
266382348738777088
266382349397266432
266382349531488256
266382349896404992
266382350009643008
266382350038990848
266382350194184193
266382352039677952
266382352635277313
266382353167949824
266382353398628352
266382355906850818
266382358490529793
266382358683475968
266382358821879808
266382359199367168
266382359211941889
266382359522332675
266382360206012417
266382360214392832
266382360944181248
266382361363636224
266382362881966081
266382363729211392
266382363842469888
266382363859243009
266382363876007936
266382365591494657
266382366677823489
266382366715568128
266382367004962816
266382368628158465
266382369483808768
266382369857093634
266382370104569856
266382370293284864
266382370372984832
266382371228643328
266382372218470402
266382372528857088
266382374697308160
266382374735056896
266382375133523970
266382375682973696
266382376609935361
266382377239052288
266382377884975104
266382378052775936
266382378996494338
266382379390746624
266382379776618496
266382380045045760
266382381697622016
266382382406443008
266382384507781120
266382385124368384
266382385287950337
266382385661222913
266382385803833345
266382386235863040
266382388291047424
266382389318668288
266382391541641216
266382392036581379
266382392183369729
266382392674111489
266382393831723008
266382396281196544
266382396344127489
266382396457365504
266382397405270017
266382397686288384
266382398009245697
266382398156062721
266382399707947008
266382400555188224
266382401545043970
266382401838669824
266382402136449024
266382403545739264
266382403763834880
266382403990351872
266382404715950081
266382405005365249
266382405999394816
266382406347550720
266382406527893505
266382408939610113
266382409040293889
266382409891733504
266382411141636098
266382411305205760
266382411368112129
266382412496371712
266382412584456192
266382413037465600
266382413398167552
266382413758885889
266382415969263617
266382417537929217
266382417579872256
266382420218105856
266382421035978753
266382422394941440
266382423946842112
266382425007996928
266382425343545344
266382425817505792
266382426169806848
266382426236923906
266382426861883392
266382426866065411
266382426924797953
266382427566526465
266382427860111361
266382428795461633
266382430108274688
266382430489939969
266382432838754304
266382432989749248
266382434629738497
266382434705231872
266382436076765185
266382437368610816
266382438782074882
266382438828228608
266382440673734657
266382440854065152
266382440896032769
266382441260912640
266382443349688320
266382443437752322
266382443563581441
266382443785879554
266382445060956161
266382445526544385
266382445857865729
266382446893883393
266382447703371776
266382448055697408
266382448705806337
266382450224136192
266382450593243136
266382452044492800
266382452514250752
266382453063708673
266382454175191040
266382455186018304
266382458948296704
266382459623600128
266382459984306176
266382460575707136
266382462664454144
266382462693806080
266382463079706624
266382463356510209
266382464631570434
266382465738878978
266382465973772288
266382465998921729
266382467773112320
266382467861209088
266382468951711744
266382469442445313
266382469660540928
266382470398750720
266382470734282752
266382470822383616
266382472017752064
266382472286175232
266382473531891712
266382475570335744
266382475834580992
266382476065259520
266382476321099776
266382477847851008
266382478669910017
266382479223566337
266382479349411841
266382479739465729
266382480318287872
266382480427327489
266382480528007169
266382482163765249
266382482386063360
266382484156084224
266382484353212417
266382484550340608
266382484592287744
266382485838000129
266382486513258496
266382486655885314
266382487297605632
266382488627212288
266382489684156419
266382490334265347
266382490409779200
266382490455908352
266382490959220736
266382491177328640
266382492884402177
266382494075604993
266382494511812608
266382496730603520
266382496873213952
266382496978067456
266382497032585216
266382497854668800
266382498290860032
266382498592866304
266382498852913152
266382498907430912
266382502090915841
266382502208339969
266382503500189697
266382503873486848
266382504737533952
266382504792043520
266382504913686529
266382505106620416
266382506125819904
266382506553655297
266382506952110080
266382506994044928
266382507308613632
266382507782569984
266382509967806464
266382510303371264
266382510978637824
266382511293222913
266382512484405248
266382512782209026
266382513059016704
266382513335832576
266382514589933569
266382514749321217
266382517622419458
266382518155108353
266382520189321217
266382520600383489
266382522844340224
266382522986938369
266382524878565377
266382525428019200
266382526048772096
266382526849880064
266382527332241408
266382527512596481
266382528418557952
266382530180157440
266382530347954176
266382530465374208
266382531006451712
266382531069362176
266382531883057154
266382532457660416
266382532810006528
266382533049057280
266382533128773633
266382533212659712
266382534521262081
266382534584180738
266382535074906112
266382535196549121
266382536509382656
266382536899452928
266382536949788672
266382538568777728
266382540250677248
266382540607209473
266382540762382336
266382541546729472
266382541781606401
266382543018917888
266382544122032128
266382544545648641
266382544906354688
266382545644560384
266382545996890112
266382546747682818
266382547376807938
266382548576399362
266382548580569089
266382549276831744
266382549310386177
266382549864034304
266382550170218496
266382550329602048
266382550933581824
266382553106247680
266382553299177472
266382555505373185
266382555601854465
266382556084191232
266382557359247360
266382557891948545
266382558504300544
266382559473197056
266382561142505472
266382562446946304
266382563415818240
266382563667484672
266382564699291648
266382565299073026
266382565403947008
266382566871937024
266382566943256576
266382567106805761
266382567572393984
266382568390275072
266382568797130753
266382568843272193
266382569422061570
266382569577275393
266382570751680512
266382570843930625
266382571624083457
266382574144851968
266382574207770624
266382574933385216
266382575034064896
266382576023900160
266382576657252353
266382576938283008
266382578175594496
266382579018645505
266382579022827521
266382579643600896
266382580339855360
266382580692172801
266382582541848578
266382582738984961
266382582797713408
266382583007432705
266382584202797057
266382585712746496
266382586228649984
266382586610327552
266382588401303553
266382588996894720
266382591643508737
266382591672860672
266382591844810752
266382593170214913
266382593753227264
266382596206911489
266382596236267520
266382597876232192
266382599709130753
266382600157937664
266382600795471872
266382601000980480
266382601487523841
266382602003427330
266382602305404930
266382602448035840
266382602569658368
266382603286888451
266382603400122368
266382603672760320
266382604255780864
266382604289323008
266382606885597185
266382607502176256
266382607506350081
266382607510544384
266382607510552579
266382607535702016
266382607544107008
266382607548289024
266382607602839553
266382607632179202
266382607632183296
266382607653158912
266382607669944320
266382607716069376
266382607716077568
266382607795777537
266382607808335874
266382608840130560
266382608911446016
266382609385398273
266382610140389378
266382610358476800
266382610656280576
266382611193155584
266382612459814912
266382613017661440
266382614368251904
266382614552788992
266382614808641536
266382616175996928
266382616528297987
266382616599605250
266382616717041664
266382617643991040
266382618206019585
266382618856157184
266382619988590593
266382620160573440
266382620777132033
266382621347565568
266382621611814912
266382622404538368
266382623222423554
266382623285334016
266382624136765441
266382624296169472
266382624476504064
266382624577163264
266382627383148544
266382627609657344
266382627626446849
266382630059126784
266382631262900224
266382631397105664
266382632542158848
266382633070641155
266382633385201664
266382635738218496
266382636954578944
266382638141546496
266382638892322816
266382639936700416
266382640289050624
266382640607817729
266382642763681792
266382643833237506
266382643950669824
266382645565485056
266382645955555328
266382646672752641
266382646857310208
266382646987354114
266382647406768128
266382648333709312
266382648690241536
266382648778321921
266382649000607745
266382649055129600
266382650942554112
266382651521380352
266382651714322434
266382651991130113
266382652880322560
266382653492711425
266382654805516288
266382655157841921
266382655283679232
266382656655212544
266382656839749633
266382657456316417
266382658190323712
266382658324545536
266382658408443904
266382659343757312
266382660388155392
266382660643999744
266382660765626370
266382660950167552
266382661440921600
266382661625454594
266382661688381440
266382662745337856
266382662816653314
266382663093481472
266382663923941377
266382664263675904
266382664385298433
266382665295478784
266382665396146176
266382668537671680
266382671012298753
266382671150710785
266382672090255360
266382672169947136
266382672711008256
266382673419837440
266382673730220032
266382674552303620
266382674665558017
266382677152772098
266382677593190400
266382678511738880
266382678553661440
266382678754992128
266382678994059264
266382679874875392
266382680961200128
266382681590362113
266382681846185985
266382683368718336
266382684916441088
266382685688168448
266382686317338624
266382686917103617
266382688372527104
266382688758407171
266382689383366656
266382691061092352
266382691522457600
266382692529082368
266382692554268672
266382692839481344
266382692940132352
266382693749641216
266382693992910850
266382694332653569
266382694936616961
266382696085876736
266382696098443266
266382696870182912
266382697025388545
266382697360924672
266382697423831040
266382697822289920
266382697906180096
266382699806199808
266382700565381120
266382701337145345
266382701865607168
266382702050164737
266382702771572737
266382703006457857
266382703350382592
266382703962771456
266382704134729728
266382704541585409
266382706152206336
266382706609377280
266382706772959232
266382706869403648
266382708475830272
266382708727500801
266382709587312640
266382710476517377
266382710912712704
266382710967259136
266382711369920512
266382712217141248
266382712712077313
266382714033299457
266382715014766592
266382715207700480
266382716013015040
266382716151410688
266382716474388480
266382717657165825
266382718286303232
266382718340833281
266382718386970625
266382719238434817
266382719263592448
266382719339094016
266382719657865218
266382722501582848
266382723915083777
266382725936734210
266382727199203328
266382728256167936
266382729195704321
266382730848268288
266382731309621248
266382731397713921
266382731997483010
266382732127514625
266382732219801600
266382733197058048
266382733482270720
266382733993992192
266382734912520192
266382735172567041
266382735621357568
266382736535732226
266382736753827840
266382737890492416
266382740876820480
266382740990074880
266382741233340416
266382742109962240
266382743989002240
266382744446193664
266382744584593408
266382744592982018
266382744618139648
266382744714612736
266382745045975043
266382745054367747
266382747948437504
266382749194149888
266382749726818305
266382749949124608
266382750481784832
266382750792179712
266382752541208576
266382752864149504
266382752922861568
266382753442971648
266382753740763138
266382753761742848
266382753774309377
266382754181181440
266382754273443841
266382756022480896
266382756609654784
266382756811010048
266382757700173824
266382758601973761
266382758958477312
266382759575027712
266382760195788800
266382761076588546
266382761537978368
266382761915461632
266382762905317376
266382762922106881
266382763526070272
266382763526074368
266382763853234178
266382764943761409
266382764977303553
266382765077966848
266382765388361729
266382765723893760
266382765979758592
266382766667599872
266382766738903041
266382766831202304
266382766982168576
266382768076881920
266382768299204608
266382768391479298
266382768404058112
266382769217748994
266382770308280322
266382771021312000
266382771159719937
266382771189059585
266382771587518464
266382772212469760
266382772594147328
266382772866801664
266382772929703937
266382772971651072
266382773466562561
266382773965709312
266382774070562816
266382774460633088
266382774997504000
266382775693750272
266382775932817408
266382776587141120
266382777459560449
266382778487144448
266382778579435520
266382778919186433
266382779162431488
266382779586052096
266382780391374848
266382780638834689
266382781364457472
266382781683208193
266382782643728385
266382783172182016
266382783465791488
266382783469989888
266382783910387715
266382784761835521
266382785139318784
266382785546186752
266382786045280256
266382786775117824
266382786963836928
266382787232276480
266382787769143296
266382788708687872
266382788725452800
266382789023264769
266382789421723649
266382789862117376
266382790042480640
266382790919073794
266382791397240832
266382792110247937
266382792823296000
266382793729253376
266382793767010304
266382793796354049
266382794379378688
266382794404536321
266382794643611648
266382795067244544
266382795151118337
266382795633479680
266382796065488896
266382796094849025
266382796103233537
266382796568805376
266382797000810496
266382797067911168
266382798548520960
266382799391563777
266382799559348224
266382800222052352
266382801102848000
266382801597767680
266382802017210368
266382802302423040
266382802600226816
266382803493584896
266382803522965504
266382804722532352
266382805485879296
266382805565591552
266382805603319808
266382806094061569
266382806672896000
266382807104905216
266382807264280578
266382807499169792
266382807503343617
266382807658541056
266382808736468992
266382809063636992
266382809768284160
266382809780846592
266382810288357377
266382811076907009
266382811244658689
266382812020625408
266382813182451712
266382814222639104
266382814226829313
266382814566559744
266382814834999296
266382815464144896
266382818689556482
266382819335495680
266382821675909120
266382822581870592
266382822799994880
266382825505296384
266382826381926400
266382826595823616
266382827505987585
266382827636023296
266382829376643072
266382830819487745
266382830903365632
266382831457026048
266382832052613121
266382832266526720
266382833260576768
266382833449316353
266382834082660352
266382834808266752
266382835345133569
266382835848466432
266382836150435840
266382836230148096
266382836263702530
266382837253554176
266382838910287872
266382839728177152
266382840009199617
266382840462200833
266382841846304769
266382843607928832
266382844455157762
266382845478567939
266382845906407424
266382846824939520
266382848402010112
266382849140211712
266382849874210816
266382850163605504
266382850339782656
266382850624999424
266382851409326082
266382851891675137
266382853267390464
266382853955276803
266382855616229377
266382857054863360
266382857260396544
266382857293930496
266382859282046976
266382861895090177
266382862952062976
266382866219417601
266382867695804417
266382869084131328
266382870594088961
266382871688790017
266382872296976385
266382872452161536
266382872489897984
266382872770916352
266382873794330624
266382873949528064
266382874004054016
266382874289246208
266382874436055040
266382874574458880
266382876961026048
266382877661462528
266382878508716033
266382879355969536
266382879649591296
266382881079824384
266382881243426818
266382881302142977
266382881331486721
266382881348280320
266382882279403520
266382882434600960
266382882942107648
266382883202158593
266382884456247296
266382884900847617
266382885571919874
266382886536622080
266382886754738176
266382888013029376
266382888617013251
266382889174835200
266382889275506688
266382889367769089
266382889401335808
266382889762029568
266382891200675840
266382892081491970
266382892144422912
266382895202070529
266382895701168130
266382895860563968
266382895889928192
266382896133189633
266382896145772544
266382897353719808
266382898532335617
266382898570088449
266382898574278656
266382899249549312
266382899329245184
266382899597688832
266382899786444800
266382900008718337
266382900830806017
266382902051356673
266382902424653824
266382904047849472
266382904261767168
266382905440346112
266382906639912960
266382907743027200
266382909089402880
266382909542391809
266382909580140545
266382909697564673
266382909982769152
266382910020542464
266382910217658368
266382910414790656
266382912516128769
266382912784588801
266382912805548032
266382912813948928
266382913006874626
266382913573117953
266382913841549312
266382914042855425
266382914202251264
266382914399375360
266382915548639232
266382915850604544
266382916983066625
266382917125668864
266382917297659906
266382917352173568
266382917910003713
266382918895693824
266382919197663232
266382920376283136
266382920997015553
266382922037223425
266382923337461760
266382924272762880
266382925988253696
266382926487375872
266382927301062657
266382927401730048
266382927644983296
266382927846322176
266382929033310210
266382930304180224
266382931289862144
266382933189853184
266382934859186176
266382938726354944
266382939321937920
266382939321946113
266382939737174016
266382940248883200
266382940588613632
266382940638949376
266382942832558081
266382942954209280
266382944870998016
266382945697292288
266382947060441089
266382947278548992
266382947748311040
266382947878318080
266382948339699713
266382948973027329
266382949430198274
266382953565802499
266382953746153472
266382953830047744
266382954232684544
266382954421420032
266382954668912641
266382954941538304
266382955532939267
266382955633590272
266382956963172353
266382956971581441
266382957575561216
266382958150176768
266382959769157632
266382960092135425
266382960264097792
266382961035853824
266382963476951040
266382965725073408
266382966425522177
266382966710747136
266382966928842754
266382968220704768
266382969059549184
266382969147641856
266382969269260288
266382969286037504
266382969843892224
266382970376568832
266382971483877377
266382971592916993
266382972477915137
266382974013042688
266382974189203456
266382974596026369
266382975141294081
266382975594287105
266382975871111171
266382976538009600
266382976626065408
266382976688992256
266382977167134722
266382977326518273
266382977368481792
266382977561407491
266382977989226497
266382978492534786
266382979587264513
266382980098961408
266382981982220288
266382982720393217
266382982766546944
266382984029016065
266382984574296065
266382984855306240
266382985098563585
266382985417334784
266382985794838528
266382986071642112
266382986314915840
266382986537205760
266382987204112385
266382987875217409
266382988919599104
266382991037702144
266382991058690048
266382991499091968
266382992174354433
266382995068444672
266382996385460224
266382997090099200
266383000344875009
266383001083068416
266383003423473666
266383003922624512
266383005851975681
266383007798149121
266383008838332416
266383009807216640
266383011602386944
266383012336369665
266383013334630401
266383013410131968
266383013535952898
266383013678546944
266383013762461696
266383015607943168
266383017000435712
266383019009511425
266383020565594112
266383022541135872
266383023921065984
266383024189497344
266383026571857920
266383027066785792
266383027649777664
266383028442517504
266383028669014016
266383029587562497
266383031252680704
266383031617605632
266383031667929088
266383031839891457
266383032326447105
266383033010114560
266383033593122817
266383034360672257
266383035606384641
266383036059365379
266383036378132480
266383037380575232
266383038194266113
266383038685011969
266383039163150336
266383039452557313
266383039796502528
266383039905542144
266383040316579840
266383042896097282
266383043521024000
266383044238266368
266383044494098432
266383044871602176
266383045219721216
266383046054391808
266383046188613632
266383046272483329
266383048482893824
266383049040740352
266383049674067969
266383050374529024
266383050710065152
266383051460857856
266383051603468288
266383051829948416
266383052308094976
266383052492640256
266383052727525376
266383053243416576
266383053583163392
266383053767712768
266383053994196992
266383054107455488
266383054979862528
266383055168630784
266383055218962432
266383055609008128
266383055764217856
266383056913461248
266383057387405312
266383057941061632
266383058712801280
266383059690065922
266383060315013120
266383061103554561
266383061774635008
266383061996933120
266383063079088130
266383063511076865
266383063582400513
266383063829843968
266383064089907200
266383064098279424
266383064136036353
266383064899407873
266383065285279744
266383065717288960
266383066048643072
266383066312896512
266383067302744064
266383068435206144
266383068485541888
266383068661686274
266383068938506240
266383068980465664
266383070440071168
266383070549139457
266383070796591104
266383071627079680
266383071702560769
266383071824203776
266383072465920000
266383072805666816
266383072864374784
266383073107664896
266383073334132736
266383073627742208
266383074042994689
266383074709864448
266383075427102721
266383075842342912
266383076165300224
266383077574594560
266383077612339200
266383080430899200
266383080766447616
266383080871321600
266383081840197633
266383082737762304
266383083052335105
266383083144617985
266383085606686720
266383085631840257
266383086407806976
266383086659457024
266383093001240576
266383093269688321
266383093336797184
266383093475188736
266383093710077953
266383094695747584
266383095408762880
266383095501041665
266383097539489792
266383098369937408
266383098978123777
266383100790075392
266383101905743872
266383103281467392
266383103369572352
266383103503765504
266383104070021120
266383104279707648
266383104367804416
266383105370238976
266383106712428544
266383107555475456
266383108079751170
266383109224812544
266383109962993664
266383110692798464
266383111460376578
266383112181805056
266383113565913088
266383113733668865
266383113804976128
266383114006319104
266383114014695424
266383115528855552
266383115600146435
266383115914711040
266383116342550529
266383116552245248
266383117235933185
266383117789564928
266383118263537664
266383118695542785
266383120209678336
266383120801091587
266383121308581889
266383123690950656
266383124223631361
266383125402226689
266383126668914690
266383127717490690
266383127826550784
266383127855910913
266383128640225280
266383130531885056
266383132662571009
266383132826165249
266383132939390976
266383133132341248
266383135346946049
266383135846047746
266383137142083585
266383137645400064
266383138085797888
266383138408779777
266383139113410562
266383140942147584
266383141084753921
266383141265088512
266383141881659392
266383143144136704
266383143286759424
266383145287442432
266383145862045696
266383146000478208
266383146768019456
266383147975983104
266383148013744128
266383150467411968
266383151666962432
266383151847313409
266383154988871680
266383155504771072
266383156016447488
266383156066791425
266383156104556545
266383156897267712
266383157069230080
266383158050705408
266383159690657793
266383160055578625
266383160353357824
266383160856682496
266383161439694848
266383163390054401
266383164015013888
266383164912578560
266383166628036608
266383166749671424
266383166812614657
266383167026511872
266383167634690048
266383168679071744
266383169295626241
266383170369368065
266383170767822848
266383170813972480
266383171065610240
266383171774476288
266383172139380737
266383173972287488
266383175234756608
266383175641612288
266383178019794945
266383179240308737
266383179290656768
266383180028850176
266383181027102720
266383181597515776
266383182163755008
266383182230847488
266383183128440832
266383183178764289
266383183732408322
266383185053630464
266383185204633600
266383185330458624
266383185997361153
266383186093826049
266383187784110080
266383188320989185
266383188643962880
266383189411508225
266383189487013888
266383189637988353
266383190183247872
266383190518812672
266383191391223809
266383191923900416
266383192142008320
266383192553029632
266383194021060608
266383194117509121
266383197632360449
266383198471192577
266383198701907968
266383200522223616
266383200799039489
266383201205886976
266383201738563584
266383203344973824
266383203634409473
266383203944783874
266383205299527680
266383206855610368
266383208902430721
266383209506406400
266383210236223488
266383210886340609
266383211142184962
266383212014600192
266383212727656448
266383213755265024
266383213805584384
266383214698954752
266383215399415808
266383216460570625
266383216762556416
266383216770940928
266383217064566784
266383218268332033
266383220893958145
266383221204340736
266383222705901569
266383223720914946
266383225318961152
266383226342350850
266383227223150594
266383228615675904
266383232159850496
266383233057423360
266383235838271488
266383237146873856
266383239311159297
266383239378247681
266383241135652866
266383241492197377
266383241597030400
266383241840324609
266383243203473409
266383243383828480
266383243450925056
266383244717608960
266383244755349504
266383244822446080
266383245317398528
266383245908799489
266383246303035392
266383248282759169
266383250090520576
266383251495596032
266383251956985856
266383252246372353
266383252418359296
266383252917456896
266383255203348481
266383255392112641
266383255694102528
266383256209981440
266383256323239936
266383256621031424
266383256629411840
266383256767827969
266383258122612736
266383258357493760
266383258806267904
266383258957254659
266383260588859392
266383260819537920
266383261796798464
266383262975393792
266383263201894401
266383264846069760
266383267224244224
266383267320692737
266383267421372416
266383267543015424
266383267568160768
266383268503494656
266383269640167424
266383270466420736
266383271473070080
266383271913484288
266383272551010304
266383273494708225
266383274560090112
266383276451692544
266383277705805824
266383277944877056
266383277986828288
266383278540476416
266383279601614848
266383282818674690
266383283380690944
266383283745587200
266383284467015681
266383286757109764
266383286933262336
266383287746981888
266383288241893376
266383289089130496
266383289156251649
266383289227550720
266383289533739009
266383289894461440
266383290007711746
266383290380984320
266383290422927361
266383291307917312
266383291660267520
266383291974832128
266383292478140416
266383292734009344
266383293015023616
266383293073747968
266383293505753088
266383294382350337
266383295581933568
266383295594504192
266383297628762112
266383298408882176
266383298626981888
266383299193221120
266383300556374018
266383301311336448
266383302477348864
266383302519320577
266383303240716288
266383303639179264
266383303718879232
266383303874068481
266383304369000448
266383304574513152
266383305253982208
266383308538146816
266383308559114242
266383308903026688
266383309129535488
266383310488473601
266383310660435969
266383310740144129
266383311532855298
266383312413655040
266383313512587264
266383314917679104
266383316368900096
266383317274877952
266383318365384704
266383318440869888
266383320454144000
266383320743546881
266383320957476864
266383322161233920
266383325499895809
266383325848035328
266383325994815489
266383326976294912
266383326980497409
266383327110496257
266383327165038592
266383327458631680
266383327831924737
266383327831928833
266383328201043968
266383329018908672
266383329165713408
266383329526415360
266383330281414656
266383330583404544
266383330822467584
266383330956701698
266383333032861699
266383333351641088
266383333607473153
266383333632651265
266383334567989248
266383334907715584
266383334995787778
266383335868219392
266383336459603969
266383336723865600
266383337118113792
266383337428504576
266383337801793537
266383338321879040
266383338368028672
266383338523197440
266383338577731584
266383339395624961
266383340968501248
266383341970919424
266383341996105728
266383343946461185
266383345292812289
266383347687755776
266383348669222912
266383349185126401
266383350850269184
266383351169052673
266383351622017024
266383352737705984
266383353031323648
266383353643679745
266383353844994051
266383354289606656
266383354738384897
266383355216527360
266383355728257024
266383356634210305
266383356898451456
266383357456285696
266383357720535040
266383357829603328
266383357930258433
266383357972185088
266383359654100992
266383360715272194
266383360778178560
266383360836923392
266383360904028161
266383361067585536
266383361797419008
266383363089252352
266383363303170049
266383363949092865
266383365417099264
266383366125940738
266383366633426946
266383367090622464
266383368621522944
266383369292627968
266383369422651394
266383371339448320
266383371427532800
266383374468403200
266383375546331136
266383378910179328
266383379115692032
266383379388301312
266383379732258818
266383379996483585
266383380743077889
266383381779075072
266383381946851328
266383382995410944
266383383008010240
266383383075098624
266383383347728385
266383384006230016
266383384337592320
266383384601833473
266383384811536386
266383385130323968
266383385205809152
266383385763643392
266383386598326272
266383387617554432
266383387730776065
266383387743354880
266383388108259328
266383389056172033
266383390029254657
266383391233028096
266383391585341440
266383394005479424
266383394164850689
266383394764623873
266383396345872384
266383396983410688
266383398384308224
266383398443040770
266383398724055040
266383398795366401
266383400489873408
266383401483919360
266383401622335489
266383401731383296
266383402662514688
266383403803361280
266383404130500608
266383404180860928
266383406261223424
266383406382870528
266383406529671168
266383406953275392
266383407473369088
266383409012695040
266383409096560641
266383409763471360
266383410841387009
266383410954657793
266383411080486912
266383413899042816
266383415333502976
266383416260435968
266383416361115649
266383416554057728
266383416893767681
266383417128673281
266383418739269634
266383419053862912
266383420895133696
266383421285224449
266383421683662848
266383423353012225
266383425085267968
266383425651494912
266383426104463360
266383426456780800
266383428868526080
266383428918845440
266383429824819201
266383430869200896
266383431255068672
266383432664363010
266383433268350976
266383433532592129
266383433591308289
266383435923329025
266383437596872704
266383437676560385
266383437768830976
266383439446544384
266383439727583232
266383440545452032
266383443011723264
266383445108867072
266383446337798144
266383447667392512
266383449944907776
266383450028781569
266383455867252737
266383456219590656
266383456781615104
266383457616293888
266383458417393664
266383459033948160
266383459356905473
266383461760241664
266383461932212224
266383462116769794
266383462213242880
266383463370850305
266383463601561600
266383464830468097
266383465153458176
266383466579505152
266383468668264448
266383469460987904
266383470408921089
266383470442471424
266383470832537602
266383471730098176
266383471763652608
266383473563021312
266383474880049153
266383475869880320
266383475878264832
266383475903459330
266383477899923457
266383478214512641
266383478600368129
266383480378769410
266383481058238464
266383481804816384
266383481976795139
266383483671306241
266383484468228098
266383485172846592
266383485273509888
266383486489866240
266383487043510273
266383487429386240
266383487563603968
266383487693619200
266383488394080256
266383491393015809
266383492668063744
266383492957491201
266383493318205441
266383493863444480
266383494429700096
266383495042048000
266383496925310978
266383497516699648
266383498024189952
266383498590433280
266383500356251648
266383500419137536
266383501434179584
266383501962641408
266383502960910337
266383503472615425
266383503535509505
266383503615201282
266383504781242368
266383505141927936
266383505943052289
266383506467328000
266383508325425152
266383509319454720
266383511060111360
266383511429197826
266383511961886721
266383514201628673
266383514411364352
266383515371843584
266383516009377792
266383517578039296
266383518123307009
266383520581165057
266383520853803009
266383522799960064
266383523332620289
266383524746121216
266383525140365313
266383525232640000
266383525371068417
266383528722300928
266383529791864835
266383530655891456
266383532513968130
266383532820164608
266383533017296896
266383533034049536
266383533348622336
266383533713547264
266383534468501504
266383535546454016
266383535659683842
266383536381120512
266383536645361666
266383537735884800
266383537840738305
266383538021072896
266383538486669313
266383538927046656
266383539002564608
266383539505885186
266383540244058113
266383540604792832
266383540650917888
266383540655108096
266383540906766337
266383540927729664
266383541414268929
266383541460410368
266383542366371840
266383542538366976
266383543503028225
266383544329318400
266383544664879104
266383545294024704
266383546191601665
266383546556510208
266383546967539712
266383547265327105
266383547500224512
266383547865128960
266383548498452480
266383549203091458
266383549526052864
266383550335549443
266383551149248512
266383551862280192
266383552621449216
266383553644855297
266383557948235776
266383558237622273
266383558761922562
266383561484009472
266383561584693249
266383561815379968
266383563069472768
266383564608774145
266383564642324484
266383565300830209
266383566684962816
266383567435747328
266383567968411648
266383569532895232
266383573261627393
266383574381510656
266383574817705984
266383576587706368
266383577837625344
266383579444031489
266383579855060992
266383582442967040
266383585043427328
266383585509007360
266383585509011456
266383586393993216
266383586763087874
266383587258036224
266383587346092032
266383588147228673
266383588252086272
266383588273057792
266383589480992768
266383589581672448
266383590265335809
266383590605074432
266383591053881344
266383591401979905
266383594728087553
266383594858090496
266383595797610496
266383595936022530
266383596326117376
266383598549086209
266383598846889984
266383598930755586
266383598955929600
266383600797249536
266383600826580992
266383603569659906
266383604035235841
266383604123328513
266383604656005120
266383605410967552
266383605553582080
266383605557760001
266383605977198592
266383606757330944
266383608799981569
266383608883843072
266383609496207362
266383611450761216
266383613526962176
266383613933793280
266383614592307200
266383614944624640
266383615087235072
266383615515033600
266383617670922240
266383620946657280
266383621206716416
266383621445779458
266383621751984128
266383622477586432
266383622641156097
266383622683123712
266383623010258945
266383623467450369
266383624100773888
266383625044508673
266383625476505601
266383626504138752
266383628429307904
266383628689354752
266383628697731072
266383628785811456
266383629259767808
266383629310124032
266383630094454785
266383630346113024
266383630417420288
266383630580977664
266383631394668544
266383632153862145
266383633319882752
266383633928056832
266383636088111104
266383636683689984
266383637828730880
266383639036698624
266383639430963200
266383640991240192
266383642106945536
266383642392150016
266383642731888640
266383643566555137
266383644933906432
266383645969895424
266383647656001537
266383647714725888
266383647895068672
266383648377405440
266383649312751617
266383649715400704
266383650856259584
266383651279884288
266383652122927105
266383653364449280
266383654140399616
266383654673076224
266383655461593088
266383656266907648
266383656556298240
266383656606629888
266383657370009600
266383658892537856
266383658947072001
266383659035131904
266383661543329794
266383661815967744
266383663661449216
266383663959273472
266383664881995776
266383665435652096
266383665561493504
266383667469881344
266383667679596545
266383669428641792
266383670061961216
266383670393319424
266383671269941249
266383673505492993
266383673564200960
266383674201763840
266383674826702849
266383675443249152
266383676210823168
266383676886097920
266383677636874240
266383678618361856
266383681000714240
266383683429208064
266383684012232705
266383684821716992
266383687065677824
266383687254417409
266383687527059456
266383688244277248
266383690786033665
266383691465515008
266383692086251520
266383692639911936
266383692774137856
266383693109661696
266383693541675008
266383693617168384
266383695542353922
266383696058265603
266383697631129601
266383697652101120
266383697849237504
266383698058940418
266383699212386304
266383699522768899
266383699921215488
266383700697182208
266383701607329793
266383703884845056
266383704220372992
266383704232968193
266383704887291905
266383705554173952
266383706292367363
266383706422394881
266383707433226241
266383708548894721
266383709077381120
266383709568131072
266383711392653313
266383713477226496
266383713993109504
266383714760671233
266383716006371328
266383716148969472
266383716690055168
266383718778814465
266383719219224576
266383720053886976
266383720418775040
266383722310418433
266383722310426624
266383722494967808
266383722713079809
266383723400933376
266383723530956800
266383724030070784
266383725191888896
266383726227881984
266383726714445824
266383727129681920
266383727200964609
266383728408932352
266383728832569344
266383729197449216
266383729793040385
266383730938093570
266383731298820097
266383732414484480
266383733077200897
266383733702135808
266383733941235712
266383735144984576
266383735522463745
266383735610540033
266383737045020672
266383737233764352
266383737338605568
266383737380540416
266383737707708417
266383737854509056
266383738714333184
266383739175723008
266383739846811648
266383740215902208
266383740643704832
266383740836646912
266383740891176960
266383741906214912
266383742178844672
266383743554555906
266383744452132866
266383746444439552
266383746993893376
266383747413319681
266383747459477504
266383750580035584
266383751087529985
266383751506980864
266383752014483457
266383753109204992
266383754057109504
266383754195501056
266383754522681345
266383756540116993
266383756624027648
266383756695314432
266383756988919810
266383758586966016
266383759694237696
266383761082564608
266383761120325632
266383762705747968
266383762953220099
266383763569786880
266383765520138240
266383766107353088
266383766962982913
266383767273345025
266383767722131457
266383768997212161
266383770125488128
266383770809143296
266383770880454656
266383772562366465
266383773682249728
266383774558875648
266383774609199107
266383775104106496
266383775112515586
266383775129272320
266383775989104640
266383776286912512
266383777129963521
266383777184501760
266383778262446080
266383780531556353
266383781823401984
266383782335111168
266383782611922944
266383783769559040
266383784604217345
266383785724100608
266383786554576897
266383789519949824
266383790287495168
266383791239622656
266383791885533186
266383792283996160
266383794548916224
266383794972532737
266383796117594112
266383796201484288
266383796792872960
266383797145202688
266383797157785601
266383798940348416
266383799158464513
266383799393337344
266383799548514304
266383799628210176
266383799699509248
266383799703703552
266383799967969280
266383800311902208
266383800341241857
266383800429314049
266383802497130496
266383802736181249
266383802887200768
266383803449229312
266383803763814400
266383804145487872
266383804757839873
266383804879478784
266383807513513986
266383808859885568
266383809040224257
266383809719697409
266383810776674304
266383812236300288
266383812945137664
266383815558197249
266383815923085312
266383816384466946
266383816900345857
266383818808766464
266383819131740160
266383819211431936
266383819618254849
266383821186936834
266383821446995968
266383821715423232
266383822218723328
266383822411677696
266383822822723585
266383823170842624
266383823460253696
266383824294932480
266383826517889024
266383826576633858
266383828640210945
266383830649290752
266383831077093377
266383831253274625
266383832482201600
266383833555935232
266383835665678336
266383835682467840
266383835745370112
266383836185763841
266383836361936897
266383836466778112
266383836705873920
266383838245158913
266383838446485504
266383839503458305
266383839671234561
266383840082268161
266383840707219457
266383841277644800
266383842502389760
266383842565304320
266383843903279104
266383844087840769
266383845534879744
266383845606170624
266383845677469696
266383846382116865
266383847179051008
266383847724290048
266383847749455872
266383847942389761
266383848194072576
266383848722530304
266383848751894528
266383848764489729
266383848865148929
266383849192292352
266383850203136001
266383850744197121
266383851314638850
266383851637579777
266383852208005120
266383852547747841
266383852937818112
266383853415972865
266383853541801985
266383855689293824
266383856960155649
266383857111138306
266383857652207616
266383858021318656
266383859535446016
266383859548057600
266383860059738114
266383862047834112
266383863046078464
266383865248100352
266383866661572608
266383866695131137
266383866791608321
266383867592732672
266383868091834368
266383868976828417
266383869756981248
266383869824073729
266383870033805314
266383870314831873
266383870612606977
266383871371788288
266383871585710080
266383872848179200
266383873569595392
266383873733173248
266383874160996353
266383874676895744
266383875440275456
266383875972927488
266383876195229696
266383876631449602
266383879177400320
266383879215124480
266383879403864064
266383879458414592
266383879970099200
266383880393732096
266383881484263424
266383882633498624
266383883656904705
266383883979870208
266383884109889537
266383884168601600
266383884801933313
266383885686939648
266383886198657025
266383887528230913
266383889050775552
266383889264701440
266383889843494913
266383890476830721
266383890724294656
266383894134276097
266383894796976129
266383896231424001
266383896713785345
266383897619742721
266383897774944256
266383897955282944
266383899255513088
266383901621092352
266383902929715202
266383903063945216
266383903571464194
266383904892653568
266383905546960896
266383906092228609
266383908344573952
266383910873743361
266383912064925696
266383914514403328
266383914808012801
266383915000922112
266383917555253248
266383918075367424
266383919493025792
266383919753089024
266383921351102465
266383922412285953
266383922659749888
266383923108536321
266383926057136129
266383926703042561
266383926820474880
266383927118270464
266383930062667776
266383930800893952
266383930939301889
266383931094482945
266383932512141313
266383932931571714
266383932994510848
266383933917257728
266383934978420736
266383936542879745
266383936580628481
266383936836476929
266383936932966401
266383937759215616
266383938187051008
266383938208030720
266383938346426369
266383938510012417
266383940019965952
266383940292587521
266383940435185664
266383941047566336
266383942075166723
266383942679134208
266383943232802817
266383943778045952
266383945699053568
266383947179638784
266383947208990720
266383947229966336
266383947569700865
266383949591371776
266383952007274497
266383952602877953
266383953705975808
266383954741964800
266383954834227201
266383954880380929
266383955283025920
266383956436471808
266383956520357888
266383956759420931
266383957426319361
266383957510205440
266383957732495360
266383957858328576
266383958068051969
266383960316186625
266383960446222336
266383962514006016
266383963445149697
266383965496160256
266383966368567296
266383968230858753
266383968256016385
266383969963102208
266383971699552256
266383971963793408
266383973364662272
266383973431799808
266383973733789696
266383973750554624
266383975457619968
266383975919001600
266383976070008832
266383977965821952
266383978313957376
266383978917949442
266383979198943232
266383979375124481
266383979958120450
266383980042014720
266383980994129922
266383981497438208
266383981644234752
266383982453743616
266383983305187328
266383983665881088
266383985150676992
266383985607847936
266383985809190912
266383986174078976
266383986643828736
266383987558203392
266383987671441408
266383989210771457
266383989403684864
266383989995077634
266383990976561154
266383991463088129
266383991697981441
266383992624918529
266383992838844416
266383993006608385
266383994352975872
266383994759823360
266383995175067648
266383995942600704
266383996001345536
266383996982812673
266383997075087360
266383997884575745
266383998102679554
266383998874419200
266383998920560640
266383999046402050
266383999981744130
266384000581521408
266384000610873347
266384000979984385
266384001445535745
266384001646866432
266384002557026306
266384002577997824
266384003068743680
266384004129894400
266384004272488448
266384004784218112
266384005534978049
266384007619551232
266384009448271872
266384009624436736
266384009783820290
266384010723344384
266384012191354882
266384013256716289
266384013332213760
266384017207730176
266384017312583680
266384017811726336
266384019803996161
266384020542201858
266384021632741376
266384021741789184
266384021938925569
266384022849064960
266384023901851648
266384024082210816
266384024728137729
266384024807821312
266384024820387840
266384025181114368
266384025382428672
266384029404762112
266384029903884289
266384030084239360
266384030449152000
266384032164610048
266384032282050560
266384032986701825
266384033053818881
266384033150279680
266384034706358272
266384036946141184
266384037982138368
266384038149890050
266384038741299200
266384040519675904
266384040913948673
266384041857658881
266384041945751552
266384042100928513
266384043384377344
266384044915310592
266384046165204992
266384046328803329
266384046630764544
266384046697897985
266384046882447361
266384047289274368
266384047473848320
266384047998107649
266384049822654464
266384051412283392
266384051479384064
266384053668823041
266384054151151616
266384054256017408
266384054776102912
266384055640141825
266384056583868416
266384058169307136
266384060857868288
266384061143060481
266384061633810432
266384061734465536
266384062527201280
266384062577508352
266384062598500352
266384062879502336
266384063802269696
266384064645300226
266384066167844864
266384066453065729
266384066453065730
266384066960556032
266384067535183872
266384067824586752
266384068822835202
266384068965453824
266384069200318464
266384069804310529
266384070215364608
266384072379621376
266384074019573760
266384074757779457
266384076569726977
266384078587166720
266384079044354050
266384080143253504
266384081841946624
266384082160726016
266384083146395649
266384084211740672
266384087026106368
266384088699654145
266384090360594432
266384090536747008
266384091035889665
266384092034109440
266384092151566336
266384092919107584
266384093162385408
266384095024660480
266384095364395009
266384097096642560
266384097184710657
266384098757591040
266384100192051201
266384100330438658
266384100691165184
266384102540836864
266384104512172032
266384104570880001
266384105443319808
266384106659647488
266384107066490880
266384107876007937
266384110367412226
266384111537639424
266384112053530624
266384113144049664
266384113181786112
266384113261494274
266384115929079808
266384116189122560
266384116285591552
266384116470145025
266384116545622016
266384116646293504
266384117736824832
266384117845856256
266384118156234752
266384118277877760
266384120026898432
266384120148529153
266384121239056384
266384123784998912
266384124347052033
266384124892307456
266384126897164288
266384127694094336
266384129204039681
266384129292120064
266384129736716290
266384130588176384
266384130638487554
266384135717797888
266384136103665667
266384136929943552
266384137248727041
266384137512943616
266384138943209472
266384140843220992
266384143909277696
266384144265781248
266384145092071424
266384146195173376
266384146874654721
266384147801571329
266384147952582656
266384148703358977
266384150016188417
266384151131877377
266384151144456193
266384152532758528
266384155183566849
266384155439411200
266384156118884352
266384156420894721
266384156483788800
266384157884694528
266384158060863488
266384158375428096
266384158761299968
266384161739251712
266384162271940608
266384163718955009
266384165233119232
266384165581230081
266384165983899648
266384167560966144
266384167997169664
266384168286560256
266384168571781120
266384170106908672
266384171193229313
266384171608469505
266384171948204032
266384174414446592
266384175664349185
266384175865683968
266384176276725760
266384176763252736
266384177606299648
266384178399027201
266384178709422080
266384179250479104
266384179644735489
266384179674103808
266384179846070272
266384179955134465
266384183075672065
266384184090718210
266384184833085440
266384184908578816
266384185000857601
266384185302847488
266384185663578112
266384185676148736
266384186229805056
266384186506629120
266384186611478529
266384186653433857
266384186691158016
266384188586983425
266384188767346688
266384190847725568
266384191653048321
266384194219954176
266384195943804929
266384196237414400
266384196812042240
266384196895920128
266384197189525505
266384198015807488
266384198590402560
266384199722876928
266384199982907392
266384200201031680
266384200381394944
266384202939908096
266384204542119936
266384205481664512
266384205632655361
266384205880115200
266384205972402176
266384207008395265
266384207880794112
266384207952101376
266384208702885888
266384212955901953
266384213530537987
266384214650388480
266384214935601153
266384215069843456
266384215497650176
266384218316234752
266384218731470849
266384218886656000
266384220061044736
266384220144939009
266384220249808898
266384220568567808
266384221591973888
266384221919129600
266384222154022912
266384223387136000
266384224322482176
266384224582508546
266384227241689088
266384230655864834
266384231511498752
266384231771545600
266384232341962752
266384232916590592
266384233415716865
266384236087484418
266384236162973696
266384236884402177
266384237610008576
266384237840719874
266384238381764608
266384238801219584
266384239086432256
266384242555109376
266384243180052480
266384244744548352
266384245390450688
266384245818261504
266384246170607616
266384246577430528
266384246594220034
266384247365971968
266384247726698496
266384248431316993
266384250008371200
266384250364895233
266384250536853504
266384250574606337
266384253074419712
266384253867139072
266384254253031424
266384255171575808
266384255356133376
266384256199172097
266384256492781568
266384257558134784
266384257629429760
266384258040463360
266384258040475648
266384259000958977
266384261286854658
266384262805196801
266384263035899904
266384265221132288
266384266244546560
266384266286477312
266384266458451968
266384267276341249
266384267746082816
266384267783831552
266384267955810306
266384268517847040
266384269587410945
266384270451437570
266384270698889217
266384271000862722
266384272628269057
266384273332924416
266384274926739456
266384274977062912
266384276302471168
266384276600258560
266384277191655426
266384277623681024
266384277694988289
266384278470930432
266384278584176640
266384280341598208
266384280765214720
266384282908520448
266384283357290497
266384284137447424
266384285311840257
266384285366366208
266384285479612416
266384285622235136
266384286788251649
266384287006334976
266384287115407360
266384287669055488
266384287706779649
266384288004571136
266384288285593600
266384289187364864
266384289883623425
266384290047201280
266384291041271810
266384291242598400
266384292991623168
266384293796904960
266384294111498240
266384294233128961
266384295155859456
266384296225423360
266384296665833472
266384298234507265
266384298591019008
266384298700062722
266384299777994754
266384300457463808
266384300621041664
266384300679757826
266384300834955265
266384303938740227
266384306153336832
266384306354679808
266384306459512832
266384306576969730
266384307701043200
266384307763957760
266384309349392385
266384309361975296
266384312822288385
266384313275269120
266384313896030208
266384314252541953
266384314323845121
266384315871539200
266384316177723392
266384316517457920
266384316681043969
266384319566729216
266384319730315266
266384320472686592
266384320644648961
266384321424789504
266384322204938240
266384322506932225
266384324285308928
266384325824610304
266384329217810432
266384330186698753
266384330954260482
266384332850089984
266384334192250881
266384335295365120
266384336020983808
266384336297803778
266384337291837440
266384337514139648
266384338520776705
266384338994728961
266384339707768833
266384341502947329
266384341616193536
266384342421471232
266384342786379776
266384343168086016
266384343478435840
266384344212463616
266384344371822592
266384344384421889
266384345701425152
266384346070536192
266384347702108160
266384348029284352
266384348280918016
266384349623091200
266384350684262400
266384350772355072
266384350793322496
266384351422451712
266384352118718464
266384352357793792
266384352764624897
266384353205026818
266384354517864449
266384355193155584
266384355834875905
266384356107513857
266384356354953216
266384356468219904
266384356514340866
266384356694695937
266384360054333440
266384360280838144
266384361753038848
266384364089257984
266384364189913088
266384364651286528
266384364923932672
266384365766967298
266384367214010369
266384367268528128
266384369000783872
266384370477195265
266384371060178944
266384373161545729
266384373404794880
266384373664858112
266384375959134208
266384376722497536
266384377716563969
266384378429599744
266384378861600768
266384379121639424
266384379218100224
266384379314577408
266384379339755520
266384380509954049
266384380849692673
266384380862283776
266384380862287873
266384382057660416
266384383504687105
266384388881776640
266384389011808256
266384389070540802
266384390077161473
266384390194601984
266384390504996864
266384390567915520
266384391767486464
266384392828620800
266384393122238464
266384396267962369
266384396557377537
266384396704157696
266384397979250688
266384399069749250
266384400311267329
266384401636659200
266384401800245248
266384403268247552
266384403297615873
266384403813502976
266384403930963969
266384404186816513
266384404358778882
266384404757225473
266384404874682370
266384405671596033
266384407022170112
266384408091705344
266384408255270912
266384408980881410
266384411119996928
266384411438772224
266384411614908416
266384413099687936
266384413674315776
266384414458646528
266384417453404161
266384417625370624
266384417784729601
266384418074152961
266384419026268160
266384419382767616
266384419479248896
266384419600887808
266384419659579394
266384420473278465
266384420758503424
266384422167777281
266384423916826625
266384426911531008
266384427209338880
266384427318382592
266384427456806912
266384427750408192
266384427897192448
266384427955924992
266384430145351680
266384430967439360
266384433861517312
266384433987350528
266384434004123648
266384434587111426
266384434675212288
266384437133053952
266384437221154817
266384438982750208
266384439460909056
266384440501088258
266384441432236033
266384441952309248
266384442258509827
266384443630030848
266384444003332096
266384444464709633
266384444498272257
266384444506648577
266384444812820480
266384444938649600
266384445769134080
266384445936898048
266384445945286656
266384445991440384
266384446360543232
266384447111319552
266384447241338881
266384447681740800
266384448482861057
266384449300729857
266384449728557056
266384450911354880
266384452706516992
266384453058822146
266384453935448064
266384454036115456
266384454166142976
266384455076290560
266384455244066816
266384455390859266
266384455495729152
266384456003252225
266384457186037763
266384457848741891
266384458163290112
266384459023126528
266384461409685504
266384461845909504
266384463674609664
266384464043712513
266384465184559104
266384465373315074
266384466304458753
266384466707111937
266384467373981696
266384467713736704
266384469806706688
266384471459254272
266384472172277761
266384475825528832
266384477255778304
266384480028200961
266384481076801537
266384481366208513
266384482288943104
266384482670620672
266384483232649217
266384484298014720
266384484474187778
266384484755185665
266384485254316032
266384486076383232
266384488416804864
266384488530063361
266384488584577024
266384489142427649
266384489863860225
266384490149052416
266384490543316992
266384490748866561
266384491348635648
266384492539830273
266384492682428416
266384493122818048
266384493508706304
266384493710020608
266384493986840576
266384494758596609
266384495396139008
266384496029466625
266384496113369088
266384496541196288
266384498546061312
266384499716268033
266384499812753408
266384501276549121
266384501926658050
266384502253834240
266384502513872897
266384502992039937
266384505856749568
266384506129362944
266384508549476353
266384508574633986
266384508604018688
266384509019230208
266384509958770688
266384510436909056
266384510474678272
266384512714412032
266384513129656320
266384513339359233
266384514811576321
266384514966777856
266384515109367809
266384516455747585
266384516736753664
266384516812251136
266384518414487553
266384518854893568
266384519798607872
266384519983165440
266384520096407552
266384520427745280
266384520520019968
266384520792641537
266384521870589953
266384521887375360
266384522814312448
266384523640586241
266384523703496704
266384523871256576
266384523871264768
266384524005490688
266384525595131905
266384526232662016
266384527335759872
266384527507730433
266384527667118080
266384528321413121
266384529764261888
266384529781043201
266384530846384128
266384531144200192
266384531475533825
266384532402499584
266384533476233216
266384534944247809
266384535132983296
266384535246225409
266384535384621056
266384537490182144
266384537699905536
266384538769432576
266384538991747072
266384539977404417
266384540203905024
266384540241641472
266384540371652608
266384542091313152
266384544129748992
266384544230436866
266384544519819265
266384544939261954
266384547409702912
