266349315830718464
266349316682170368
266349317458104320
266349318544445441
266349318812864512
266349318913531904
266349319949541376
266349320066977792
266349320301850624
266349320775794688
266349321723719680
266349322449321984
266349322629685248
266349322633883648
266349323103653888
266349323699232768
266349324827492352
266349324861063168
266349325204979712
266349325670572033
266349325884485632
266349327734149120
266349328308776960
266349328346529792
266349329411870720
266349329588031489
266349329609011200
266349329722249216
266349330036846592
266349330967969792
266349332398223360
266349333765554176
266349334088544256
266349334604435456
266349335007084544
266349335497814018
266349336135335938
266349336143724546
266349337389461504
266349338618384384
266349338740027392
266349339805380608
266349339817934850
266349339817943040
266349340057038848
266349340589711360
266349341776674816
266349341860564992
266349341889921024
266349342217105410
266349344100335616
266349345039843329
266349345899696128
266349346373660672
266349347225079808
266349347594194944
266349348189782020
266349349091549184
266349349326422016
266349349636812800
266349350291140608
266349350828003329
266349351134183424
266349351746547712
266349352719613952
266349353482997760
266349354405744641
266349354422517760
266349354787422208
266349354858721280
266349355559165952
266349355609489408
266349355760513026
266349356813254656
266349357593419776
266349358864293888
266349360021917698
266349360160313344
266349360206454784
266349360210649089
266349360948846592
266349361301180417
266349361410228224
266349362177769472
266349363817742336
266349364224593920
266349364606296065
266349364891504641
266349365625495552
266349366229487617
266349366787334146
266349367303225344
266349367420678145
266349368666370048
266349368725086208
266349369190649857
266349370788675585
266349371371708419
266349372437061632
266349373020053504
266349373393367040
266349375129808896
266349376425820160
266349376803311616
266349377054986240
266349378313261056
266349379387011072
266349379554795522
266349380989243393
266349382805356544
266349383396753408
266349384571183106
266349384827011072
266349384881537025
266349384940261376
266349386043383808
266349386102091776
266349386320203776
266349386471182336
266349386487975936
266349387029049346
266349387217776640
266349387708514304
266349388614475776
266349388853542912
266349389793075200
266349390187343873
266349391261102081
266349391781191680
266349392229965824
266349393890926594
266349394444578816
266349394733977600
266349395224711168
266349395312787456
266349395967107073
266349396336209920
266349397422522369
266349397502210049
266349398018121728
266349398177480704
266349399133794306
266349399934910466
266349402900271105
266349402917068801
266349406201184256
266349406691921920
266349407765671936
266349407795048448
266349407904071680
266349408340287488
266349408839421953
266349409195925504
266349410525515776
266349412207435776
266349414585610240
266349415390904320
266349415411896321
266349415416078336
266349415986524160
266349416573718529
266349416636616704
266349416649195520
266349416938627072
266349417286754305
266349417513250817
266349417844596737
266349418196893696
266349418465349633
266349419719430144
266349419920781312
266349420172419072
266349420210171905
266349420646395904
266349420847710208
266349420977733632
266349421296496641
266349422147944448
266349422470918144
266349422890336256
266349423762735104
266349424144437248
266349424597422080
266349426744897536
266349426937851904
266349428200316928
266349428548452353
266349428556836864
266349430066794496
266349430356180993
266349431270555648
266349431597707266
266349431618686976
266349432776318976
266349432881168384
266349433078296576
266349434521153537
266349435179646977
266349435460677633
266349436752519169
266349437201293312
266349437427793920
266349438530879488
266349438614769664
266349438639943685
266349438669312000
266349438975483905
266349439613038592
266349440049246208
266349440099553280
266349440112132096
266349441043288064
266349441081040896
266349441756311552
266349443018813440
266349443056545795
266349443635367936
266349444147052544
266349444281286656
266349445376012288
266349446575570945
266349447775141888
266349447963873281
266349449335406592
266349450073608192
266349451373846529
266349451415810048
266349452250451968
266349453202558979
266349453517131776
266349455924666368
266349456021151744
266349456084045825
266349457161994241
266349457560453122
266349457736626176
266349458772615168
266349460232228865
266349460790071296
266349462987866113
266349463185014784
266349464753692672
266349465789685760
266349465886158850
266349466255241216
266349466381074432
266349466787917825
266349467635154944
266349469170270209
266349469535191040
266349470898327552
266349471313559554
266349471460372481
266349471485542401
266349472408276994
266349474153111552
266349474404773888
266349474505437184
266349475885367297
266349476900384769
266349476963311616
266349477638586368
266349477869268993
266349478431313921
266349478972379136
266349479219851264
266349479349850112
266349480687841280
266349480742367232
266349480922722305
266349481207930880
266349481795145728
266349485070876672
266349485251252225
266349485683245056
266349486169800705
266349486589214721
266349487562301440
266349487574880256
266349487964975105
266349488606679040
266349488808001537
266349489416192000
266349491056168962
266349492037627904
266349493249789952
266349493509840897
266349494143184897
266349494852022272
266349495120453633
266349495174963200
266349495204331520
266349496642990082
266349498421358592
266349498467512320
266349498740129792
266349498853367808
266349500128436224
266349500522721281
266349500916977664
266349500992458752
266349501588074497
266349502531792896
266349502573715456
266349502984773632
266349503169306624
266349504087867392
266349504628916224
266349504733794305
266349505178394624
266349505421660160
266349506008862722
266349506197606400
266349507145523200
266349507279724545
266349507367804928
266349510190563330
266349511377575936
266349511461449728
266349511482408960
266349511562104834
266349512359047169
266349513231446016
266349513491480577
266349514477162496
266349514762379264
266349515450224640
266349515597025280
266349516985344000
266349518805676034
266349518868582402
266349519388700672
266349520235945986
266349520395325440
266349520756031488
266349521427124225
266349521800400896
266349521833967616
266349522723143680
266349523746570242
266349523771723778
266349525399109633
266349525692710913
266349526376386560
266349527353675776
266349527685013504
266349527861186562
266349528150577152
266349528284815360
266349528628744192
266349528704221185
266349528859410433
266349529304031232
266349529798963200
266349530931421185
266349531057246208
266349531808014336
266349533208907776
266349534806953984
266349534920200192
266349535197028352
266349535264137216
266349536627261440
266349537428373504
266349537533247488
266349537550016513
266349538577620995
266349539013840896
266349541832413184
266349542159560704
266349542407036928
266349542729973761
266349543354933248
266349544789381120
266349545842159616
266349546186104832
266349546584543232
266349546806845442
266349547171770368
266349547763167232
266349550271344641
266349550707548161
266349551609319424
266349553249304576
266349553790365696
266349555887529984
266349556613148672
266349556957057024
266349557938536448
266349558655774721
266349558739656704
266349558865485824
266349559108734977
266349559599493120
266349559851143168
266349560857780224
266349560954253313
266349561977659392
266349562044747778
266349563277869056
266349564129337345
266349564414525440
266349564632637441
266349564771057664
266349564871729152
266349566125805568
266349566704640000
266349566784323584
266349567203741696
266349567967105024
266349568235544577
266349570999599104
266349571540647936
266349571574202368
266349571607781376
266349573285490689
266349574053036033
266349575118405632
266349575596544000
266349575667847168
266349575978229760
266349576083091456
266349576288612352
266349580046721024
266349580868788227
266349581342736385
266349581623779329
266349582135480320
266349582663946242
266349582949158913
266349583175671808
266349585037938688
266349585293799426
266349585809686529
266349587239952384
266349587336421376
266349588317876224
266349589341290497
266349590071087104
266349590381469696
266349592495394817
266349592898048000
266349593564942336
266349594277982208
266349594370260992
266349594592546817
266349594605146113
266349594693214209
266349595100078080
266349595322368001
266349597453074432
266349598472290304
266349598782676992
266349599390838784
266349599722184704
266349600347136000
266349601173417984
266349601257312257
266349602347814912
266349602532360192
266349603463503872
266349603807440900
266349604218482688
266349604734382080
266349604734390273
266349605313208320
266349605686497281
266349605816516610
266349607175467009
266349607506817024
266349607909466114
266349608106594304
266349608194699265
266349608207269888
266349608530231296
266349609817874433
266349610153435136
266349611793412096
266349611885662208
266349612678385664
266349614075109377
266349614406451200
266349614712619008
266349614830059522
266349615186591744
266349615559888897
266349616008658944
266349616444891137
266349616772022272
266349618286190592
266349619276034048
266349620093931522
266349620530122754
266349621259956224
266349622673412096
266349624154009600
266349624485351424
266349624678293504
266349625055772672
266349626477662208
266349626657996800
266349627417165824
266349628490924032
266349628885180416
266349630059597824
266349631494049792
266349633847058433
266349634681704450
266349635377967104
266349637294764032
266349638024572928
266349638083293184
266349640461459456
266349641099005952
266349641493274626
266349641510027264
266349641543593985
266349642269208577
266349642852229122
266349642910928896
266349643389095937
266349644194385920
266349644236341248
266349644316037121
266349644546723841
266349644970352641
266349645419118592
266349645792415744
266349646316699648
266349646937473025
266349647189114880
266349647302385664
266349647977668609
266349648510332928
266349648707457024
266349649349181441
266349649831542785
266349649915432960
266349649919606785
266349651639283714
266349652134203392
266349652620763136
266349652964679680
266349653237329921
266349653400903680
266349654369779712
266349657024757760
266349657570045954
266349658752823296
266349659797221376
266349661063872512
266349662754193409
266349663576281088
266349664910077952
266349664952016896
266349664998150144
266349665342078976
266349666860417024
266349667619586048
266349667774758912
266349668051595264
266349669817397248
266349671146999808
266349671780347905
266349672203956224
266349675043504128
266349675324526594
266349676276637697
266349676872204289
266349676893175808
266349678927425537
266349678973575168
266349679271350274
266349681028771841
266349681792143360
266349682635206656
266349682748440576
266349682777792512
266349683641831425
266349683771858944
266349684623290368
266349684744937473
266349685244063746
266349685361479681
266349685638324224
266349685873180673
266349686439419904
266349686552674304
266349687039205376
266349687097917440
266349687202795520
266349688796610560
266349688972787713
266349689136365569
266349689803264000
266349690570829825
266349691027980288
266349691619377152
266349692944805888
266349693737517056
266349694219870211
266349694559596544
266349694660276224
266349695608188928
266349696207970304
266349696610623488
266349696614817792
266349696715460608
266349697147473920
266349697373986816
266349699404017664
266349700175761411
266349700934938625
266349702071603200
266349703120171008
266349703367630848
266349703447314434
266349703594115072
266349704256819200
266349705326383104
266349705439629312
266349708073652224
266349708635693056
266349708878938113
266349709055115264
266349709239676928
266349710527303681
266349711559102464
266349711722688512
266349711873687554
266349712163090433
266349713970839552
266349714054733824
266349714428018690
266349715157819392
266349715766009856
266349715933761537
266349717192060928
266349717632450560
266349718194487297
266349718513262592
266349718903328768
266349719024979968
266349719947730944
266349720459427840
266349721130508288
266349721294098432
266349721596088320
266349723001163776
266349723089268738
266349724766961664
266349724859244545
266349725886849024
266349726004301824
266349726402768897
266349726457294848
266349726549540865
266349727157735424
266349727191298049
266349727220645888
266349727619112960
266349728118214656
266349728478924800
266349729351340033
266349731062620160
266349731326869504
266349731343654912
266349733205921792
266349733507911680
266349734128656385
266349734141235200
266349734153834496
266349734267072513
266349734757814272
266349735261134849
266349736578138112
266349736762675200
266349737182117889
266349738314592256
266349738520084480
266349740231380992
266349740818587648
266349741011509248
266349742823456768
266349743297400832
266349744148844545
266349744496979968
266349745117753344
266349745306484737
266349745868521472
266349746246012928
266349749781803008
266349749811175424
266349749911822337
266349750658424834
266349751472123904
266349752810090497
266349752835244032
266349753082716161
266349753753808897
266349755087609856
266349756480114688
266349756568182784
266349756786294784
266349756975026176
266349757482553344
266349757893582850
266349758187175937
266349759164448769
266349759470653440
266349759512596480
266349761295163394
266349761488093186
266349761727168512
266349761941078016
266349762595414016
266349762964512768
266349763992100865
266349764025655296
266349764700954624
266349765170692096
266349765267173377
266349765787279361
266349766219296768
266349766445780992
266349768157044736
266349768714887168
266349768970756096
266349769440514048
266349770510053376
266349773152477184
266349773504774144
266349774247182336
266349776281419776
266349777556488192
266349777724264448
266349778013663232
266349778516987904
266349779230023681
266349779242594304
266349780085649410
266349780194709504
266349780240855043
266349780677042176
266349780760940544
266349781218119680
266349782346366976
266349783088771073
266349783705346048
266349783986339840
266349784372236289
266349784619692033
266349786192572417
266349786612002818
266349788507820032
266349788830760960
266349789027905536
266349790378475520
266349790785318913
266349793092198400
266349793184452608
266349793394163713
266349795625537537
266349797148065796
266349798213427200
266349799765331969
266349800805523456
266349801296252928
266349802189639680
266349803879948290
266349803959644161
266349805259849730
266349805972901888
266349806530727936
266349807134724097
266349809055703041
266349810204954625
266349810808922112
266349811131887617
266349811807166464
266349812096589825
266349812155305984
266349812390191104
266349812478255104
266349813992411137
266349814579621888
266349815351369728
266349815791751169
266349816479629312
266349819310776322
266349819436613632
266349820246118400
266349820522934272
266349821244342273
266349821365985280
266349824293609472
266349824922763265
266349825518346241
266349825673555969
266349825962946562
266349825975521280
266349826147487746
266349826227183616
266349827091218432
266349829003804673
266349829146411008
266349829796556801
266349829934968832
266349829981089792
266349830991929344
266349831159689216
266349831268757504
266349832095006721
266349832346669057
266349833214898176
266349833399447552
266349834485764096
266349835551133697
266349835949592576
266349836138315777
266349836733931520
266349837144977408
266349839292440577
266349839518949376
266349840814985216
266349841351847936
266349841951629312
266349841976815618
266349842169733121
266349842664669184
266349843881017345
266349843906170880
266349844430471170
266349845307092992
266349846158536705
266349846947045376
266349847039340545
266349847303565312
266349847433576448
266349847966253057
266349847999807488
266349848599621636
266349850243764225
266349850482835456
266349850570940418
266349850675781635
266349850835181568
266349850898100224
266349850931650560
266349852034732032
266349852177350656
266349853922168832
266349854454849537
266349854685532161
266349854702305281
266349856153563136
266349856317124608
266349856828821505
266349856891740160
266349857353117696
266349857407643651
266349858997284865
266349859081166848
266349861035708417
266349861648093184
266349861899759616
266349862927355904
266349863925587969
266349864735096832
266349866182144000
266349866442174468
266349866916118528
266349867297828865
266349868224765953
266349868811943937
266349869696954368
266349869743095810
266349869973790720
266349870498078720
266349871211085824
266349871479529473
266349872532299776
266349872687501312
266349872750407682
266349874189066242
266349874977574912
266349875631894529
266349876055531520
266349876219101185
266349877372530690
266349877607411713
266349878660169728
266349881080311808
266349881512296448
266349884435726336
266349884607721472
266349884909694977
266349885182320641
266349885333323777
266349887002640384
266349887501791233
266349887514361856
266349888864935936
266349889322098689
266349889863163904
266349892618838016
266349893432532993
266349893566738433
266349894707601408
266349894753726464
266349894787268609
266349895731003393
266349896372723713
266349898587324416
266349899837227008
266349899849793536
266349902047637505
266349902894878720
266349903276560385
266349903930880000
266349905071730688
266349905495334912
266349906040590336
266349906267090944
266349906934001664
266349908599111682
266349909064704001
266349909400227841
266349909777731585
266349910570438656
266349911858098177
266349911954579456
266349912281726977
266349912948617216
266349913250607105
266349913976225792
266349915259682817
266349916601856000
266349916933193729
266349917478465537
266349917621084160
266349918669651968
266349919361724417
266349920968118273
266349921718919168
266349921840558081
266349921861509120
266349922025107458
266349922394202112
266349922633277441
266349922905894912
266349923585368065
266349923853799424
266349924952723458
266349925179199489
266349926097752066
266349926387163136
266349926521397248
266349927746138112
266349929469992960
266349930359185410
266349930443051008
266349931294511105
266349931743281153
266349931818778625
266349932728963073
266349933102239745
266349933605552129
266349933911748608
266349934889017344
266349935300059137
266349936075997184
266349938257051648
266349938500308992
266349938638741504
266349939293040640
266349939553079296
266349940635213824
266349940958183424
266349941142728704
266349941469880320
266349943055319040
266349943340531712
266349943906770944
266349944389128193
266349944758206465
266349945018269696
266349946192658433
266349946364645377
266349947652300800
266349948591816704
266349948990283777
266349949028016128
266349949707485185
266349950856744961
266349951049682944
266349951439740929
266349951460708352
266349951745937408
266349955613089792
266349957513089025
266349959077572608
266349959161475072
266349959828369408
266349960080007168
266349961074057217
266349961417994240
266349961837416449
266349962110066688
266349962403643392
266349962495946753
266349963695489025
266349963699707904
266349965029289984
266349965884919809
266349966652481536
266349967017377792
266349967139012608
266349967222923264
266349968141463552
266349968724471808
266349969089372161
266349969236172800
266349969328455680
266349969701740545
266349970263777280
266349970368634880
266349971329150976
266349971568201728
266349971954094080
266349972469993472
266349972612603904
266349972897816576
266349972931354625
266349973157863425
266349973900251136
266349973938003969
266349974613286913
266349975452147713
266349978102923264
266349980208476160
266349981290594305
266349982150426624
266349982163021825
266349982439862272
266349983404548097
266349984436346882
266349985673650177
266349986516717568
266349987514957824
266349988135723008
266349988483829760
266349989167505408
266349989947662337
266349990182547456
266349990258024449
266349991625383936
266349992602652672
266349992644579329
266349992749449216
266349993185652738
266349994863362048
266349995777736704
266349996088123394
266349997019254785
266349997027627008
266349997497405440
266349997690327040
266349997925208065
266349998495629312
266349998638243840
266349998717931520
266349998818619392
266349998973800448
266350000278233088
266350000286609408
266350000299184129
266350001096114176
266350001146441729
266350001410670592
266350002308251648
266350003172294657
266350003247775745
266350003423944704
266350004338294784
266350004606754816
266350004900339713
266350006364168192
266350006695514113
266350007043620865
266350007232364545
266350007773442049
266350009065275394
266350009325350914
266350009577005056
266350009635729409
266350010046758912
266350011166633984
266350013834215424
266350014211686400
266350014496915456
266350015134437376
266350015646146560
266350016183021569
266350017613291520
266350018317922306
266350018460516352
266350018636689411
266350021128105984
266350021971173376
266350024605171712
266350024626171905
266350024731025408
266350024940724224
266350025364369408
266350026056404994
266350026064805888
266350026131902465
266350026647810048
266350027130150913
266350027734147072
266350029051133953
266350029185368064
266350029319593984
266350029424431104
266350029449609216
266350030078754816
266350030082936832
266350030334615552
266350030884069376
266350032297553921
266350032796647424
266350032989593600
266350033853628416
266350034461794304
266350035569111040
266350035720077312
266350036789624832
266350037087424512
266350037209067522
266350038811308033
266350039033602049
266350039478173696
266350039792771072
266350040673579008
266350041189449729
266350041558564865
266350041977987072
266350042309332993
266350042594545665
266350043169169408
266350043181748224
266350043391459329
266350043496337408
266350043710238720
266350043873828865
266350044788162560
266350045232762881
266350045748670467
266350045861916672
266350046407176192
266350048198148096
266350048831479808
266350048856641536
266350049687121920
266350051108990978
266350051528429568
266350051822034946
266350052308561921
266350052576993282
266350053197762560
266350053520703489
266350054690918402
266350056423174144
266350056737751040
266350057685647360
266350057761173505
266350058193166336
266350058247692288
266350059799588864
266350060147732481
266350060277727232
266350060541997058
266350061271781376
266350061313736705
266350061565386753
266350062660104194
266350062723014656
266350063717068801
266350063901614080
266350064027443200
266350064102932480
266350064430092288
266350065067638784
266350065113788418
266350065185087488
266350065512247297
266350066116202496
266350066913136640
266350068276273153
266350068418895872
266350069740085248
266350069966569472
266350071082278912
266350071661072384
266350072915185664
266350076702625792
266350076773933056
266350077491159040
266350077881245696
266350078648795136
266350079189856257
266350079441502209
266350079441518592
266350079831584769
266350080381046785
266350080871759872
266350081194721280
266350085368066048
266350086735417344
266350087280656384
266350088228581377
266350088253747200
266350088706744320
266350089197473792
266350089977614336
266350090220879875
266350090422218752
266350091021975552
266350091839893504
266350092049604608
266350094566187008
266350095287595009
266350095560220672
266350096034181120
266350096508125186
266350097468620800
266350097770631168
266350098311684096
266350098865340416
266350098919870464
266350099620327424
266350100425613315
266350100857643008
266350100937326592
266350104372449281
266350104666058752
266350104741568512
266350104770904064
266350104976453632
266350105295204352
266350105462972416
266350105983070208
266350107383967744
266350109741174785
266350109850206209
266350110626177024
266350112391974912
266350112857526272
266350113037889536
266350113247600642
266350114291974144
266350114585600001
266350115026006016
266350115235721216
266350115382521856
266350115571261441
266350116527542272
266350117068615683
266350119341920256
266350120231133184
266350120705093632
266350122412146689
266350122697363457
266350122886119425
266350124270239746
266350124656115712
266350125872455680
266350126384160769
266350126577106945
266350126690361345
266350126912659457
266350127269175296
266350128527441920
266350129500549120
266350131228581888
266350131287322624
266350131538964480
266350132776296448
266350133275406336
266350133548036096
266350133833248768
266350133929717761
266350135162847232
266350137889148928
266350138233069568
266350140292464641
266350140443471873
266350140498001920
266350140753850368
266350140799975424
266350141156511744
266350141492035584
266350142372855808
266350145132699648
266350145703116800
266350146734927872
266350146953027584
266350147200487424
266350147200507904
266350147284377600
266350148282642433
266350148479766528
266350149297643520
266350150019059712
266350150555955201
266350151252197378
266350152439181314
266350152523063296
266350153361928192
266350154582466560
266350154657955841
266350154691518464
266350155157078016
266350155849150465
266350156184707072
266350156193095681
266350156440555521
266350156750929920
266350157237456897
266350158105702402
266350160043470848
266350160081215488
266350160274137088
266350161100414978
266350161243025408
266350161377255424
266350161993814016
266350162228682753
266350162614575104
266350162664882176
266350163679928320
266350163776393216
266350163998691328
266350164220989440
266350164464267264
266350165089189888
266350165386993664
266350165558968321
266350165634469888
266350166313951234
266350166318133248
266350167123456000
266350167593205761
266350168021028864
266350168243314690
266350169170251776
266350170038480897
266350171405815808
266350171523252224
266350171661672448
266350171745558528
266350172391497728
266350172651524097
266350173716881408
266350173880471552
266350174207631362
266350174224412672
266350174442504195
266350174836776960
266350175247794176
266350175419764736
266350176116039680
266350176816488449
266350177663729665
266350177906995200
266350179526008832
266350180176117764
266350180452950016
266350181547667456
266350181811904512
266350182445223936
266350182533312513
266350183212781568
266350183808389120
266350183837732864
266350184072613890
266350184232001537
266350184303321088
266350184571731971
266350184705966080
266350185351892992
266350185360265219
266350185490288642
266350185578373120
266350186220113920
266350186954104832
266350187151249408
266350187289669633
266350188040433664
266350189256785920
266350189512626177
266350189613305856
266350190217265153
266350191051943936
266350191425245184
266350191500746752
266350191664304128
266350191848878081
266350194851983360
266350195967664128
266350196693282818
266350196772986880
266350196810719233
266350198400352256
266350199037894656
266350199369244672
266350199679643649
266350200002592769
266350200036155392
266350200241672192
266350201210556417
266350202338807809
266350203118960640
266350203794231296
266350204536647680
266350205090271232
266350205107060736
266350205471973377
266350205488742401
266350207615238144
266350208055656448
266350208345075712
266350208508624896
266350209066487808
266350210077315072
266350211515949056
266350212199624704
266350212568711169
266350213235625984
266350213566976001
266350213864779776
266350214191910913
266350214791716864
266350214976266240
266350216825937921
266350217190846464
266350217836777472
266350218839207936
266350219258650624
266350219392847872
266350221397729280
266350221892673536
266350222853165057
266350223935283200
266350224262434817
266350224711237632
266350224799309824
266350225952739328
266350226472853505
266350227349450753
266350228259627008
266350228607729665
266350229236875264
266350230423887872
266350230620995585
266350231262724096
266350231342440449
266350231447293952
266350231610875904
266350232579743746
266350233699627010
266350234995675136
266350235058569218
266350235759026177
266350236342054914
266350236472066048
266350236572733441
266350236702752769
266350236853751808
266350236904079360
266350238476926976
266350238476943360
266350238766333954
266350239844282368
266350239873642497
266350240486002690
266350240926425089
266350241358434304
266350241681379328
266350242528645120
266350243073900544
266350243203919874
266350243422031873
266350243745001472
266350244655161344
266350245028433920
266350245133307905
266350245640822784
266350245695344641
266350245926035456
266350246362238976
266350247243046913
266350252137783297
266350252402016257
266350252695638016
266350254016835584
266350255853957120
266350256931885056
266350257309364224
266350257531662337
266350257925926914
266350258345349120
266350260685795328
266350261746950144
266350261910519808
266350261981814784
266350262799699969
266350263751815168
266350264754257920
266350266129981440
266350266318737408
266350267174375425
266350267308601345
266350268445257728
266350269326053379
266350270664015872
266350270760484864
266350272316588033
266350272480161794
266350273071562752
266350273570680832
266350273780412416
266350274736689153
266350275525234688
266350276015976448
266350276070486016
266350277068734465
266350277274238976
266350277781757953
266350277903384576
266350278066974720
266350278272512002
266350278872297472
266350279048458241
266350280180916225
266350280797478912
266350281023971328
266350281237860352
266350281409839104
266350281971884032
266350282882052096
266350283574112256
266350283691544576
266350284148707329
266350285344083968
266350285927112704
266350286120050688
266350286577225729
266350288900874240
266350290394021888
266350291790753792
266350292046606337
266350292478603264
266350292843515904
266350293137113089
266350293858541568
266350298061209600
266350299625697281
266350299667648512
266350300095447041
266350300120629249
266350300955291649
266350301802549249
266350302700122112
266350303077605377
266350304201674752
266350304319119360
266350304713392129
266350305443188736
266350305875218432
266350306860888064
266350307200622594
266350309092257792
266350309251624961
266350311516536832
266350311596232706
266350311868858368
266350313152344064
266350314398023680
266350314620338176
266350314809090048
266350314943307776
266350315182387200
266350315186565120
266350315446620161
266350316818165760
266350317367603201
266350318185500673
266350318504271873
266350319246643200
266350320110669824
266350320437846016
266350320664313857
266350320895004672
266350322279141376
266350322639831040
266350323302551553
266350323327725568
266350324921561088
266350325479378944
266350325663948800
266350326171459584
266350326842523649
266350331158462464
266350331229765632
266350331502419968
266350331527581696
266350331796025344
266350331854745600
266350331926020098
266350332341264384
266350332420956160
266350333142392833
266350333276610560
266350334069338112
266350334639755264
266350334782341121
266350334891401216
266350335390515200
266350335994494976
266350336174858240
266350339089903616
266350340033626112
266350340348190721
266350341220610048
266350341921046528
266350343468765184
266350344085323776
266350344282456064
266350344345362432
266350344525721601
266350344999673857
266350345305849856
266350345570099200
266350345687543809
266350346278957057
266350347335909376
266350349181399040
266350349487595520
266350350859116545
266350351970598912
266350352922722304
266350353111453698
266350353358917633
266350355925852160
266350356244598785
266350356374630401
266350356802457600
266350357070876672
266350357133807616
266350358803148800
266350359419703296
266350361286152192
266350362854838273
266350363953754112
266350364775833601
266350364968767488
266350365354631169
266350365442719746
266350365480476672
266350366331908096
266350366617120768
266350366961049600
266350367787343872
266350367892197376
266350368085131264
266350368173219840
266350369225965568
266350369301471232
266350369418915840
266350370647834625
266350371021139968
266350371339907072
266350371402829824
266350372212314113
266350373273497600
266350374082981888
266350374926024704
266350377794928641
266350377878831104
266350378696724481
266350380038909952
266350380936491008
266350381167173632
266350382052147201
266350382349955072
266350382911979520
266350383562104832
266350384061231105
266350384363216896
266350384820416512
266350384946245632
266350385030115328
266350385369858049
266350385445343233
266350385520852992
266350386653319168
266350386846248960
266350387550887936
266350387999674368
266350388117110784
266350388771442688
266350389333479424
266350389576732674
266350389916491778
266350390772129792
266350391048941568
266350392336601090
266350392651173889
266350393200631808
266350394450518016
266350395582971904
266350396228919296
266350396396670980
266350397537533952
266350397592047617
266350397852094464
266350398099570688
266350398502227969
266350399135547394
266350399148138496
266350399190073344
266350399387226112
266350400314150912
266350400880398338
266350402176446465
266350403120140288
266350404000944128
266350406169423872
266350406504968193
266350406815322112
266350407398346752
266350407863902208
266350408388202496
266350408404959232
266350409008951296
266350409298350081
266350409541627905
266350409893957632
266350410162372608
266350410795737088
266350411659763713
266350411840118784
266350411848495106
266350412012081152
266350413102604288
266350413341659137
266350413777866752
266350413928882176
266350414033735681
266350414478315520
266350414591557632
266350414948093953
266350416906825729
266350417468850177
266350418672644098
266350419557617664
266350419968675840
266350420941742080
266350421403131905
266350422007087104
266350422191665152
266350424381083649
266350425161211904
266350426868289536
266350428390846464
266350430773198848
266350430970318849
266350431087759360
266350431435894784
266350433038114816
266350434178973697
266350434455793664
266350436297093120
266350436368400384
266350437203050496
266350437731536897
266350437953847296
266350438159376385
266350439585423360
266350439660937217
266350441120546817
266350441124728832
266350441372188672
266350441506426881
266350441854533632
266350442542419969
266350443704233984
266350443892981760
266350444517941248
266350444761190400
266350444824125440
266350445524549632
266350445801373696
266350446019502081
266350446136918016
266350446510231552
266350446531186688
266350446778675201
266350447076466689
266350447609118720
266350449437847553
266350449567866881
266350450364788737
266350451325292544
266350452151566336
266350452390649856
266350452554231809
266350453548253184
266350454491979776
266350454676529152
266350454835912704
266350455548948482
266350455645425665
266350456295522307
266350456824029185
266350457746780161
266350457818058753
266350458434633728
266350458535292928
266350459638407168
266350459755843585
266350460351414272
266350460364013568
266350460951228417
266350461592948737
266350461748137985
266350461764911104
266350463698472960
266350465204228096
266350465242001408
266350465829183489
266350466236030976
266350466923892736
266350466949062656
266350467175571456
266350467943116800
266350468534530049
266350468685496320
266350468857491456
266350470396772352
266350470400987137
266350470602293248
266350471399215107
266350471927693312
266350472242266114
266350472657518592
266350472720437249
266350473022410752
266350473169215488
266350473274085377
266350474482049024
266350475106983936
266350475438354433
266350478491807745
266350478575689729
266350478919598081
266350479028658176
266350479645237248
266350480588943361
266350481411035138
266350481767555072
266350481876586497
266350483051008000
266350483319427072
266350483462049793
266350485475307520
266350487111090176
266350487912202240
266350488029638656
266350488985931776
266350489971597312
266350490508472321
266350492140068864
266350492303622144
266350492811157505
266350493264130048
266350493528383488
266350493553549312
266350493838745601
266350494178496512
266350494748913666
266350495617146882
266350495696814080
266350495747153921
266350496015581185
266350498561531904
266350499144544256
266350499396206592
266350499853389824
266350500100849665
266350500117610498
266350500314750979
266350502139265024
266350503074594816
266350503464693760
266350504886554626
266350505519874049
266350505578602496
266350505750585344
266350507319234560
266350508569149440
266350509026332672
266350509189890048
266350509261213696
266350510041333760
266350510632755200
266350510645325824
266350510980870144
266350511270273024
266350512075591681
266350513216434176
266350513564549120
266350515376508928
266350515443601408
266350516395704321
266350516957749249
266350517058424832
266350518866149376
266350521214959616
266350522099961856
266350523521830913
266350523794481152
266350523907727361
266350524788527104
266350524926930944
266350525497364480
266350525526716417
266350527007293440
266350529175773186
266350529301590016
266350530345963520
266350530606034944
266350530891218944
266350531058999296
266350531721715713
266350532522819584
266350536519979008
266350536624844801
266350537191092224
266350537262379008
266350537602121728
266350538663284737
266350539762176001
266350540844326912
266350542794657792
266350542832406528
266350542958239744
266350545059602432
266350545948770305
266350546225606656
266350547756519424
266350547957841920
266350548008185857
266350548452773888
266350548800905216
266350549161607168
266350549186797568
266350550126313472
266350550621249536
266350553888608256
266350554152837120
266350554383527936
266350555226578945
266350555947991040
266350556417753088
266350557822873600
266350558925975552
266350559446040577
266350560100368385
266350560217796608
266350560536584192
266350561002139648
266350561081835520
266350563682312192
266350563938140160
266350564626034688
266350564630200320
266350564718280704
266350564852527105
266350565804621824
266350567188746241
266350568069558272
266350568241524736
266350569759858688
266350569906647041
266350571064262656
266350572469354497
266350573186609153
266350573857685506
266350573870256128
266350573916401664
266350574574923776
266350575220842496
266350575715766272
266350576621727744
266350577234092032
266350577414459393
266350578442067968
266350581118033921
266350582376300545
266350582875447297
266350583575875584
266350584095989760
266350585303928832
266350585870172160
266350587015217152
266350587191377921
266350587753406465
266350588218986496
266350588785209344
266350589099769856
266350589124935680
266350590114816001
266350590244827137
266350590592946177
266350590844624896
266350590936887296
266350591356313600
266350591842848768
266350592501374976
266350593969381376
266350594585939969
266350595097636865
266350596032954368
266350596934754304
266350597568073728
266350598268538880
266350598977363968
266350599094816768
266350599564562433
266350601435238400
266350601569435648
266350601707847680
266350602051809281
266350602538344448
266350602592866304
266350602668359681
266350602882277376
266350602991325184
266350603083587586
266350603666604033
266350604413181953
266350605835063296
266350606715850754
266350606984298496
266350607261110272
266350607437275136
266350607680536576
266350608410353664
266350608578129920
266350609567997952
266350609723191296
266350610226499585
266350610390069248
266350611459620865
266350611577073664
266350611707097090
266350612143292417
266350612751470593
266350613695197184
266350613850374144
266350614131388416
266350614580183040
266350614680829953
266350614710198273
266350614928322560
266350615846858752
266350616534712320
266350616857686020
266350617138712576
266350617495236608
266350617507794944
266350617826586624
266350619655274496
266350621089755138
266350621790183425
266350622096388096
266350622268354561
266350622935236608
266350623304339456
266350623480496131
266350624197718016
266350624361312256
266350625200156672
266350625460211714
266350626194194433
266350626684928000
266350627372814336
266350627561558017
266350628782092288
266350629394468865
266350629709049857
266350629713235968
266350630531121152
266350630556270592
266350630770188289
266350631428698112
266350631642619905
266350632494067713
266350634154995713
266350634704457728
266350634733826048
266350634935136256
266350635669147648
266350635732062209
266350636898078720
266350637455925249
266350638055694336
266350638420615170
266350638743560192
266350639595012096
266350639980883971
266350641683779584
266350641805422593
266350642476503041
266350642732335104
266350643965464577
266350644435243011
266350645009862656
266350647664861186
266350649254477824
266350649908789248
266350650248527873
266350650428891136
266350650965753856
266350651540385793
266350651586535426
266350651850780673
266350651993382912
266350652265992195
266350652786085889
266350653964693504
266350654098923520
266350656703590400
266350656787472384
266350657009766400
266350657039130625
266350657089449984
266350659085938688
266350659400519681
266350659761225729
266350659819958272
266350660008689664
266350660172259328
266350660713332736
266350661011116033
266350661489287168
266350662089052160
266350662097453056
266350663653552128
266350664580489218
266350665373212672
266350665612271616
266350665670991874
266350666010722306
266350666056863745
266350666346287104
266350666388234240
266350666681823232
266350667080290304
266350667222880258
266350667378073600
266350668137246720
266350669018038273
266350669697536000
266350671001960448
266350671228448768
266350671299756032
266350672256040960
266350672365113345
266350672608391168
266350672713232385
266350672969089024
266350673124265984
266350673694687232
266350673736650752
266350674692947968
266350677599592448
266350678673342464
266350680669814784
266350681403826176
266350681500295168
266350682616000513
266350683035426816
266350683358375937
266350683572285440
266350684234981376
266350684595712001
266350685380034560
266350685463924736
266350685749116928
266350686709641216
266350686860611586
266350687267483649
266350687611387904
266350687959531520
266350688236363777
266350689255583746
266350690148970496
266350690438352896
266350690438361090
266350691038158850
266350691239460864
266350691583418369
266350691788943361
266350692069953536
266350693797990400
266350694179672064
266350694846578690
266350696671109121
266350697002434560
266350697463828480
266350697744830465
266350698512408576
266350698667601920
266350699284164610
266350699435134978
266350699619688448
266350700458553345
266350700664074240
266350700781510656
266350700966051840
266350701125455873
266350702085959681
266350702488592384
266350702908018689
266350704627683328
266350704682225665
266350706880045056
266350708071215104
266350708247384065
266350709098807296
266350709262393345
266350709790896128
266350710034165760
266350710315155456
266350710952689664
266350712521375745
266350712575901696
266350712689143808
266350712856928256
266350713091813378
266350714350075904
266350714840821760
266350715411263488
266350716753428480
266350717483220992
266350717625847808
266350718355664896
266350718468911104
266350718670209024
266350719605551105
266350720251486210
266350720436015104
266350720880631809
266350721484587008
266350721597849601
266350721845301249
266350721857900544
266350721862094848
266350722352812032
266350722663190528
266350722881310720
266350723015520256
266350725154619392
266350725565673472
266350725754413056
266350726484221953
266350726937210880
266350727008514048
266350727859957760
266350728556208129
266350729193742336
266350730204569600
266350730837909504
266350730846298114
266350732737933312
266350733010558977
266350734826696705
266350735904604161
266350736986750977
266350737037082625
266350737418747905
266350739666907137
266350741235589120
266350741336248321
266350741499830272
266350743521472512
266350744125452288
266350744146427905
266350744687501312
266350744788144129
266350745203380224
266350745463427074
266350745517973504
266350745769619456
266350745807360000
266350745916428288
266350746306486273
266350746780438528
266350746935631873
266350750471446529
266350750496591873
266350751478079489
266350752123994112
266350752149159936
266350752765706240
266350753667510273
266350753734615041
266350753801711616
266350754166611968
266350754678308864
266350755131305984
266350755525566464
266350756637069312
266350756653842432
266350757039702017
266350759732461568
266350760277704704
266350761141747713
266350761313705984
266350761468899328
266350762693640192
266350763914186752
266350764107104256
266350764220375040
266350764224565251
266350764459446272
266350765180858370
266350765638045696
266350765856129024
266350766078443520
266350766166515713
266350766309126144
266350766699200512
266350767701622784
266350767991050240
266350768511127552
266350768821518337
266350770352435200
266350771916906499
266350774450282496
266350775184281601
266350776715186179
266350776740352000
266350779395350529
266350780515237889
266350781534441472
266350782083899393
266350782155194368
266350782683676673
266350783015047168
266350783342211073
266350784952795136
266350786118828033
266350786236260352
266350786886397953
266350787335184384
266350788731867137
266350789084209153
266350790078246912
266350790283755521
266350791139418113
266350791491727360
266350791542063104
266350791974064129
266350792607416320
266350792640958464
266350794180276224
266350794243194880
266350794280935424
266350794654236673
266350794943655936
266350795161743360
266350798139703298
266350798164860928
266350798613651456
266350800828248068
266350801142837248
266350801398665216
266350801964908544
266350802543714304
266350802589843456
266350802677927936
266350803093176320
266350804435345409
266350804598935552
266350804670226434
266350804888326144
266350805131608064
266350805249060864
266350805446189058
266350806540886016
266350807404912641
266350807765626880
266350808227000320
266350809036517376
266350810215108608
266350810248642560
266350810563227648
266350810693263360
266350812572307456
266350814149345281
266350814371667968
266350814585577472
266350815424421889
266350815873220610
266350816141656064
266350816254906368
266350816749834242
266350816779198465
266350817060216832
266350817416720384
266350817601265664
266350817613840385
266350817697738752
266350818532401154
266350818788261888
266350818863755265
266350820042346496
266350821153849344
266350821325815808
266350822512816128
266350822697340928
266350823108399104
266350823360040960
266350824396029952
266350825142632448
266350825180364801
266350825595629568
266350825838891009
266350826929393664
266350827621470209
266350828980432897
266350830268067840
266350830456823808
266350830603624449
266350832679809025
266350833145360385
266350833619312641
266350833778716672
266350833829048320
266350833870987264
266350834479136768
266350834701434880
266350835204755456
266350835250905089
266350835435438082
266350835791958016
266350835812929537
266350835963940864
266350836534345729
266350836555329536
266350836693733376
266350837574545408
266350838094647296
266350838195310592
266350838245629956
266350838488895488
266350838509867009
266350838887362560
266350839046750208
266350839499726848
266350839835279362
266350839973679104
266350840011436032
266350840443453441
266350840808361986
266350840841904128
266350841542373376
266350841672388608
266350841877889024
266350841882083329
266350842041475072
266350842653863936
266350843828252672
266350844881022976
266350844960714752
266350845388521472
266350845602430977
266350845606633472
266350845732458497
266350845791182850
266350846562951168
266350847003344897
266350847485689856
266350847829610496
266350848282619904
266350850258116608
266350850543329281
266350852560797697
266350852862783488
266350852887937024
266350852887953409
266350853508702208
266350854179786752
266350854263693312
266350854662152193
266350855341633536
266350856239194113
266350856373424128
266350856465678336
266350857115811841
266350858927763456
266350859854675968
266350859934388224
266350859976331264
266350860458672128
266350860798398464
266350861054267393
266350861087809536
266350861133955072
266350862270615553
266350862497103874
266350863486971905
266350863528898560
266350863843483648
266350863931555840
266350864359358465
266350864699113472
266350865093390336
266350865131114497
266350867245043714
266350868134236161
266350868247482368
266350868859863042
266350869119913986
266350869640007680
266350870755676160
266350871485480960
266350871548416000
266350871955251200
266350872399863809
266350872433418240
266350873343565825
266350873410691072
266350874819969024
266350875566546944
266350876791279618
266350876938096640
266350878062153728
266350880364851200
266350880561958913
266350881178546176
266350881698615296
266350881757347840
266350882050936832
266350883619627010
266350884542377986
266350885125357568
266350885158912002
266350885259603968
266350885582565377
266350887579037697
266350887667134465
266350887755214848
266350887927181313
266350889957212160
266350890074656768
266350891341336576
266350892075331584
266350892452818945
266350893149061120
266350893379768320
266350893547532289
266350893774036992
266350894025674753
266350894973612032
266350895439171584
266350895736954880
266350898693931010
266350899151118337
266350899188883458
266350899725758464
266350899826405379
266350900128395264
266350900149370881
266350901076303872
266350901449588736
266350901558644736
266350902401712128
266350902603051008
266350902720487424
266350903085391872
266350903240585216
266350903269937152
266350903672598528
266350904159109120
266350904465313793
266350905291591683
266350905337712640
266350905404846080
266350905534853121
266350905887162368
266350908022087681
266350908718329857
266350910165372929
266350911230717953
266350912086372352
266350913000722432
266350914317737985
266350914833616897
266350915555049472
266350917127909376
266350918885322752
266350918998581248
266350919799668736
266350919816450049
266350920101675008
266350920479145985
266350920680484864
266350920886022144
266350921242529792
266350921750020096
266350922001707008
266350922110742528
266350922609852417
266350922681163776
266350922869907456
266350923192885248
266350923624902656
266350923943661568
266350925445201921
266350925629779968
266350925763981312
266350925835292672
266350926074359809
266350927701753856
266350928121180160
266350928658042880
266350928871968768
266350929706618880
266350930742636544
266350931556323328
266350932835569666
266350932915257344
266350934165172225
266350935331192832
266350935687716864
266350937331884033
266350938246221825
266350939630338048
266350940293054464
266350943409418241
266350944130826243
266350945221353472
266350945699504128
266350947918299139
266350948102832128
266350948291579904
266350948501303297
266350950015434752
266350950015463425
266350950426480640
266350950623612929
266350950942388224
266350951143710722
266350951529578498
266350951651229696
266350952695615489
266350953064710144
266350953891000322
266350954683719680
266350955644207104
266350955862306817
266350958219501569
266350958399868928
266350958727008256
266350958773141504
266350961730138112
266350961965006850
266350962493513728
266350964196392960
266350964267696128
266350965312081920
266350965588889600
266350966465519619
266350967287586817
266350968310988801
266350969250525184
266350969569296384
266350969976127488
266350970395557888
266350970907287552
266350972643717120
266350973272850434
266350973641977856
266350974644387840
266350974908637184
266350975189651456
266350976250818560
266350977504931840
266350978079522816
266350979438477312
266350980268957697
266350980390592512
266350980927475712
266350981732773889
266350981825060864
266350982387093504
266350983297253377
266350983502770176
266350984597471233
266350985989988352
266350986363297793
266350986585595904
266350986925322242
266350987013394434
266350987185381379
266350987537707009
266350987948740609
266350989089599489
266350990238822400
266350991920734208
266350992474374144
266350992671506433
266350994005303296
266350994269544448
266350994395389953
266350995477504000
266350996060516352
266350996316360705
266350996886794241
266350996949721089
266350997062971392
266350997406883840
266350997704695808
266350999235616768
266350999885725698
266351000955277312
266351001387282432
266351003044036610
266351003182448640
266351004835012608
266351005304778754
266351006999261185
266351007062163457
266351007104131072
266351009641660417
266351009994002432
266351011642368001
266351011663314944
266351012896468992
266351015396245504
266351015484334080
266351015861825536
266351017124323328
266351017728299008
266351017883484160
266351018252595201
266351018550386688
266351019980640256
266351020035162113
266351020228091905
266351020282634240
266351020366512128
266351021368934401
266351022916636672
266351023805853696
266351024040710144
266351024057499651
266351025177366528
266351025416466432
266351025475162113
266351025684885506
266351025915580417
266351025932337152
266351028360867842
266351028729942017
266351028948062209
266351029296197632
266351029736599552
266351030055366656
266351030084726784
266351030139248640
266351031342993408
266351032764878849
266351033498882048
266351033851203587
266351034379681792
266351034631352320
266351036023848962
266351036132892672
266351036606865408
266351037814800384
266351037873528832
266351038590750720
266351039119253505
266351039215710208
266351039337361408
266351039588999169
266351039639347200
266351039773560832
266351039794536449
266351039878397952
266351040725663745
266351041472258048
266351041598083072
266351041845551106
266351042910879744
266351043091238913
266351044353744897
266351044412440576
266351044873842688
266351045205176321
266351045523959808
266351045582675968
266351045964345344
266351049084911616
266351049659518976
266351050242535424
266351050334818305
266351051270152192
266351052062875648
266351055191822336
266351057037303809
266351057251229697
266351057263808512
266351057712603136
266351058731814913
266351060183044096
266351060636024832
266351061554573312
266351061810429952
266351062351499265
266351062460534784
266351062976438273
266351063530094592
266351063559462912
266351063857258496
266351064037605377
266351064314429440
266351065912459264
266351066860371968
266351067250446337
266351067720216576
266351067799900161
266351069062385664
266351069674754048
266351070215823360
266351070526205952
266351070589116417
266351070782058496
266351071725772800
266351072199708674
266351073080520705
266351073478967296
266351073772584960
266351073890013184
266351075882328065
266351076205264896
266351076444360705
266351076754735104
266351077430001664
266351077543260162
266351077606162433
266351077786537984
266351077841068033
266351077950107648
266351078596038656
266351078734458883
266351078948360192
266351079401324544
266351079678177280
266351080009510912
266351080215044098
266351081053888512
266351082651918336
266351082932948993
266351083096526848
266351085357264896
266351085466312704
266351085483069440
266351085562785795
266351086053502976
266351086250622976
266351086284181505
266351086565216256
266351086632312833
266351086678446080
266351086737178624
266351086783299586
266351086795894784
266351086804295683
266351086871408640
266351086951088129
266351086976258048
266351087081107457
266351087794155522
266351088301658113
266351088326803457
266351088368775169
266351088947568640
266351089228578817
266351089501220866
266351089551560705
266351089559949313
266351089786425344
266351089929052160
266351089937432576
266351090503651328
266351090671419392
266351091300593665
266351091308974080
266351091606757376
266351091950698496
266351091992629249
266351092621778945
266351092688908289
266351093590654976
266351093703909376
266351094551179264
266351094660206593
266351094786056192
266351095289360384
266351095855583233
266351096593776641
266351096698638336
266351097587830784
266351098443472897
266351099047444480
266351099945041920
266351100125380608
266351100834230272
266351102415470593
266351103422115840
266351103690555393
266351103925424128
266351104042885120
266351105267605504
266351105557020672
266351105733177344
266351106341343232
266351106643357697
266351107196981249
266351108581122048
266351109839392768
266351110179139584
266351110271426561
266351110787321856
266351111156424704
266351111332577280
266351112188227584
266351112334999552
266351112632811520
266351113551351808
266351114734145538
266351115128422400
266351115480735746
266351116000849920
266351116827127808
266351116965511168
266351117087170560
266351117254930432
266351117770821634
266351117800185858
266351118127337472
266351119641505796
266351121898033152
266351122472640512
266351123198251009
266351123810627584
266351124112617472
266351124792082432
266351126071357440
266351126083940353
266351127719731200
266351127912644608
266351128030085121
266351130114654210
266351130764800001
266351130831880192
266351130857058305
266351131528142848
266351131658162176
266351131884654592
266351132182454272
266351134036328448
266351134644506624
266351136301252608
266351137354027010
266351138314547200
266351138733977602
266351139371495424
266351139526680576
266351139920953344
266351139962888192
266351141820968960
266351142638874624
266351143129587713
266351143335124992
266351143549014017
266351143825850368
266351143997816835
266351145188990977
266351145360977920
266351146040426496
266351148443787264
266351148611559424
266351149689487360
266351150280876034
266351150700314624
266351151887294464
266351153472749569
266351153963487232
266351154202562561
266351154454204417
266351156882718720
266351159504154624
266351159755829249
266351159915196416
266351160242352128
266351160393338880
266351162133983232
266351162553401346
266351162553405440
266351164260491266
266351164415688704
266351165757849603
266351166449938432
266351166684815361
266351167267827712
266351167402020864
266351167783702529
266351168211529728
266351169151045632
266351170371584001
266351170463875073
266351170468081665
266351171155918848
266351171516645377
266351171818622977
266351172540059648
266351172598771713
266351172762353665
266351172871405570
266351175127924736
266351175216017408
266351175639658497
266351176939888640
266351178642776064
266351179020267520
266351179242545154
266351179515191296
266351181171933185
266351181486514177
266351182249865216
266351182816100352
266351183021613056
266351183587852288
266351184225382400
266351184313479168
266351184930037761
266351185181675521
266351185756303361
266351185785663488
266351186054094848
266351186477711361
266351187345952769
266351187434024960
266351187455008769
266351188277075969
266351188629405696
266351189094973440
266351189313077248
266351190139351040
266351191104032768
266351192173588481
266351192647544833
266351192685293568
266351193071169536
266351194300096512
266351195508056064
266351195575169027
266351196313362432
266351196925747200
266351196942512128
266351197978497024
266351199316475904
266351200205684736
266351200461549569
266351201765974016
266351203183644673
266351203372380160
266351203905048576
266351204387397632
266351205440180225
266351206543278080
266351207252127744
266351207327596544
266351211672907776
266351211815530496
266351211953926144
266351212297850880
266351212490809345
266351214583750656
266351214759931904
266351216072749056
266351216261476353
266351216328593408
266351217108717568
266351217628835840
266351217821761536
266351218023088128
266351219449143297
266351219755319296
266351219902128129
266351221277855745
266351224994033664
266351225472155648
266351225891602434
266351225899986944
266351226386530306
266351227384786944
266351228081020928
266351228114583552
266351228794044416
266351229175730176
266351230299828224
266351230698258432
266351230769586176
266351231600041984
266351232539570176
266351232564744193
266351233030303747
266351233441333248
266351233470701568
266351233986617344
266351234171170816
266351234959687680
266351235219734528
266351236008259584
266351236259913728
266351236993921024
266351238629687296
266351240064155649
266351242060636160
266351242979205120
266351244212334592
266351244522713088
266351245504163840
266351246007484417
266351247244795904
266351247332896769
266351248247242752
266351248800874496
266351249627164672
266351250801577985
266351250944192512
266351251237773312
266351251325865987
266351252105990144
266351252126969856
266351252668047360
266351254589034496
266351255088144384
266351256220622848
266351256514211840
266351256946216960
266351257638285315
266351257751543808
266351258280013824
266351258489741312
266351259433443328
266351260360380416
266351260372971520
266351260427485184
266351261018894338
266351262176530434
266351262688235520
266351262755344385
266351262755352576
266351263099281409
266351263250259969
266351263661309953
266351263841669120
266351263929729024
266351264063950849
266351264424656898
266351264839905280
266351265645211648
266351265905246210
266351267020959745
266351267947888643
266351269973745664
266351272276414466
266351272783912960
266351272783921153
266351273727639552
266351274646196224
266351274973347840
266351275011084288
266351275564732417
266351276193890306
266351277003390976
266351278001627136
266351279951998976
266351280023281665
266351280233009152
266351281629720576
266351282355310593
266351282829271040
266351282921545730
266351285702373376
266351285836591104
266351286029545472
266351287489150979
266351288747429889
266351288806170624
266351289041043456
266351289716326401
266351289905053696
266351290211262464
266351290496471040
266351290660052993
266351290802642945
266351292228726784
266351292581027840
266351294137118721
266351294611079169
266351296402051073
266351299187064834
266351300055289856
266351301015793665
266351301250658304
266351301519089664
266351301573607424
266351302454423552
266351302550892545
266351302815150081
266351302819332096
266351302953541632
266351303192629248
266351303763050496
266351303821778944
266351303964372993
266351304199258113
266351305981833216
266351306141212672
266351306749407233
266351307198193664
266351307479212032
266351308880105472
266351312323637248
266351312780812289
266351313229578240
266351313938415617
266351315599368192
266351316413079552
266351316979286016
266351317042212864
266351317377744897
266351317549735937
266351318925451264
266351318946426880
266351322230579200
266351322993922048
266351323216240641
266351323379793920
266351323518230528
266351324042510337
266351326148059136
266351326202585088
266351326894632960
266351327192428545
266351327771234304
266351330023600128
266351330057154560
266351330665316352
266351331479007232
266351332062031872
266351332837953536
266351333173510144
266351333483892736
266351333727145985
266351334431789056
266351334549237761
266351336038232064
266351336327614464
266351336386351104
266351337174888448
266351337267138560
266351337392979968
266351337703362561
266351338298945536
266351338907131905
266351339041349632
266351339670487040
266351341272711168
266351341675376641
266351342086393857
266351342350647296
266351344116453376
266351345446035456
266351346196836353
266351346716913664
266351347283148800
266351348725985281
266351348944101376
266351349359325184
266351349761982464
266351349942337538
266351350059765760
266351350294650881
266351350449856513
266351350626013184
266351351099969536
266351351506825217
266351351951392768
266351352312127490
266351352324706304
266351353155166208
266351353469747200
266351353901756416
266351355436883969
266351355680153601
266351357261381633
266351357752127490
266351358347706368
266351359475978241
266351360394555393
266351361057251328
266351363460562944
266351364089729024
266351364119068673
266351364286857217
266351364458811392
266351364974735360
266351365368971264
266351365851332608
266351367755558912
266351369877860352
266351370360213504
266351370863513603
266351371626872833
266351371643678720
266351373543690240
266351374059581440
266351376660054016
266351376769089536
266351379646402561
266351379667361792
266351380543987712
266351381013737472
266351381223469056
266351381357686785
266351381408018432
266351381412212736
266351382183948289
266351382246875136
266351382603386880
266351382670483456
266351383551279106
266351385451298820
266351385543598083
266351386822836225
266351388102098944
266351388722860033
266351389008097280
266351389100367873
266351390199259139
266351390320893952
266351390597738496
266351391390441473
266351392040554496
266351392564858881
266351392724250625
266351393152049152
266351397312806913
266351397614784512
266351398747246593
266351398801780738
266351400164917248
266351401683263488
266351401746190336
266351407618207744
266351407857278977
266351407869853696
266351409388212224
266351410910732289
266351412043194368
266351412676546560
266351413293092864
266351414807261186
266351417579683842
266351417961369600
266351418515013632
266351418640834560
266351418733117440
266351418850541568
266351419299344384
266351420389859329
266351420452786177
266351420704452610
266351422512181248
266351422994526209
266351423099375616
266351423162302464
266351423279742977
266351423762079744
266351424168943616
266351424504479744
266351424730955776
266351424810676224
266351425276227585
266351425997660161
266351427062988800
266351427901878272
266351427906072576
266351429021741056
266351429030133762
266351430506528768
266351430745595904
266351431420878849
266351431462838272
266351432125530112
266351433211838464
266351433794871297
266351433887145985
266351435313205248
266351435426435073
266351435699064832
266351435933949952
266351436504371200
266351436764434432
266351437280317440
266351437771051008
266351437792030720
266351437808799744
266351439234875392
266351439239065600
266351439725621248
266351439897559040
266351440119885824
266351440312819712
266351440862265345
266351441961172992
266351442074411008
266351442409963520
266351444133814272
266351444238667778
266351444326772736
266351444561649666
266351444792336385
266351445685723136
266351446478442496
266351446545555456
266351446910451712
266351447099207680
266351448785301506
266351449242480640
266351449280237568
266351449578033152
266351449825501184
266351449850662912
266351450534330368
266351450609831938
266351451184439296
266351451884896256
266351453138984962
266351453176754176
266351453625524225
266351454275661824
266351454376304641
266351454653140993
266351456150515712
266351456901271552
266351457152946176
266351457186500609
266351457752719360
266351459057152001
266351459224936448
266351460369977347
266351462739738624
266351462752350208
266351462941093888
266351464044183552
266351466078412801
266351467009564672
266351467227664385
266351467273789440
266351467554799617
266351467697422338
266351468276248576
266351468922159105
266351469454823424
266351469484179456
266351469651968002
266351470474059778
266351470524387330
266351470729912321
266351470910259201
266351471191285760
266351471421972480
266351471522631680
266351471606509568
266351472189521920
266351472235667457
266351474261520384
266351476769710080
266351477679861760
266351478145429504
266351479416311808
266351480611672064
266351480657805312
266351480884305921
266351481509261312
266351482155188224
266351482683666434
266351483166007296
266351484197826560
266351484394954752
266351485007298560
266351485175091200
266351485456109569
266351486202675200
266351486462730240
266351487632949248
266351488949948417
266351490531201024
266351490631880704
266351490921271297
266351491437195265
266351491579785216
266351492020187137
266351492213116929
266351492221513728
266351492791951361
266351493089722370
266351493806964736
266351494675177474
266351495136542721
266351497074335744
266351497367916544
266351497674113024
266351497829310464
266351498521374720
266351498852700160
266351499318263809
266351499620278272
266351500010340353
266351500123582464
266351500589166592
266351500949848064
266351501008580608
266351501092474880
266351501109235713
266351501138608128
266351502023598080
266351502539509760
266351502745038848
266351503332225024
266351503806197760
266351503906856960
266351504250769408
266351505228042240
266351505391632384
266351506855436288
266351507501371394
266351507828527105
266351507954343936
266351508206010368
266351508352794624
266351508407341056
266351508784812034
266351508935811072
266351509124562944
266351509451730944
266351509770481664
266351509963419648
266351511171387392
266351511490138112
266351513264336897
266351513482440704
266351513595695104
266351514149326848
266351514380021760
266351514409381888
266351515369877504
266351515894153217
266351515965476868
266351516082921472
266351516200357888
266351516439429121
266351517500583936
266351518037450752
266351518817595393
266351518830194690
266351519660638208
266351519849406464
266351520059113472
266351520172347392
266351520604364800
266351520835043328
266351521501954048
266351523343261698
266351523544571904
266351523804626945
266351524328906752
266351524618326017
266351526287650818
266351527248158720
266351528066048000
266351528384815105
266351528607092736
266351528774864896
266351529152368640
266351529546633216
266351529836023808
266351531060764672
266351531094327296
266351531232727040
266351531329220608
266351531757023232
266351531916402689
266351533258592256
266351534235852800
266351534269411328
266351534361702401
266351534437183489
266351534592385024
266351534953070593
266351535624183808
266351535942930433
266351536001658880
266351536723070977
266351536962146304
266351538346270721
266351538925105152
266351539034157058
266351539482943488
266351539596185600
266351539713613824
266351540099489792
266351540774764544
266351541164851200
266351541408112641
266351541542342656
266351544373481472
266351544558039040
266351545719865344
266351548089643008
266351548358086658
266351549150810113
266351549557657601
266351550249709569
266351550438461440
266351550694293505
266351552770494467
266351553336705024
266351553919713280
266351555027021824
266351556029460480
266351556989968385
266351557988200449
266351558093053952
266351558659297280
266351558772547584
266351559259062272
266351559737233408
266351559795937280
266351559904989185
266351560207003649
266351560399941633
266351561544962049
266351561842761729
266351561964392449
266351563403038721
266351564153843712
266351565110120449
266351565433098240
266351566481666049
266351567517671425
266351567865790465
266351568054546433
266351569421885440
266351570457870336
266351570499817472
266351571560955904
266351572131389443
266351572425011200
266351572764749826
266351572961873921
266351573897203712
266351573981069312
266351574715088896
266351575079989248
266351575709126656
266351576032104449
266351576581566466
266351576917086208
266351577827274752
266351579060375552
266351582147395584
266351582877208576
266351583154016257
266351583414059008
266351583883845634
266351583950950400
266351584039034882
266351584236142592
266351585033089024
266351586098413568
266351586366849025
266351586920501249
266351587482562560
266351587738411008
266351588484997120
266351589441302528
266351590116560897
266351590229831682
266351590284333056
266351590657642496
266351590728933376
266351590791860225
266351590917697536
266351591026724867
266351591102234625
266351591383252993
266351591429386240
266351591685251072
266351592004009984
266351592230502400
266351592670900224
266351593459417088
266351593660768256
266351594730311680
266351594856120321
266351595002920961
266351595644669953
266351595955032064
266351596026339329
266351597238509570
266351597448224768
266351597842477057
266351598127681536
266351598605844480
266351598740058113
266351598870093824
266351599738302465
266351599952216065
266351599989948416
266351600023506945
266351600212254721
266351600333881344
266351600895926274
266351601403441152
266351602443628545
266351602582056960
266351603785801729
266351603953582080
266351604167491584
266351604461092865
266351605216067584
266351606071705600
266351606977671168
266351608034627585
266351608068198401
266351608563126273
266351608756056065
266351609032896514
266351609183879170
266351609234206720
266351609435529216
266351610941288448
266351611058737153
266351611209732096
266351611247468545
266351611297792001
266351611356516353
266351611817902081
266351611960508416
266351612228927490
266351612476395520
266351612740661248
266351612774203392
266351612824522752
266351612954570752
266351613222989824
266351613483036674
266351613537579008
266351613621440512
266351613839540224
266351613961183232
266351614783283200
266351614988787712
266351615131406337
266351616721035264
266351616989470720
266351617585070080
266351619174723584
266351619816431616
266351620038737920
266351622198804480
266351623222198272
266351623322890241
266351623847153664
266351624291745792
266351625210318848
266351625415823361
266351625612959744
266351625763975168
266351627257139200
266351628494454784
266351628578349057
266351628611899393
266351628691570688
266351629962461184
266351631765995520
266351632172843008
266351632382582785
266351632764248064
266351633175285760
266351634035118080
266351634274205696
266351634462932992
266351634681040896
266351635410870272
266351637004685313
266351637021470721
266351639357693952
266351639915536384
266351640511143936
266351640746000384
266351641249320960
266351641249345539
266351641417089024
266351641593274368
266351642432122880
266351643749146624
266351643807850496
266351645674319872
266351646882283520
266351646995537920
266351647209451520
266351647259779072
266351649050738688
266351649281437699
266351650619404290
266351651072405505
266351651097542656
266351651479228416
266351651584081920
266351651772829697
266351652011905024
266351652309712896
266351653144375297
266351653186330624
266351653626712064
266351653677068289
266351654134235139
266351654197157888
266351654272651265
266351655170215936
266351655346388992
266351655350575104
266351655375732736
266351657208672257
266351660476022784
266351662388637697
266351662753542144
266351663512686594
266351664003420162
266351664318005249
266351664330588161
266351664590647296
266351665110732800
266351665228165120
266351665240735744
266351665991516160
266351666297700352
266351667904143360
266351668185153537
266351668457779201
266351669795774464
266351671838384129
266351672077467648
266351672316534784
266351672358481920
266351672383651840
266351672534659072
266351672559820800
266351672912130048
266351673105084416
266351673331576833
266351673763573760
266351674166214656
266351674594041856
266351675059613697
266351675760050177
266351676179492864
266351676355657728
266351676766703616
266351677144182784
266351677324525569
266351677488111617
266351677534261248
266351677706227712
266351678213722112
266351679052595201
266351680466059265
266351680549965824
266351680617062401
266351680667398145
266351680709345280
266351681191690240
266351681720164352
266351682525466625
266351683003641856
266351683150413824
266351683565658112
266351684018663425
266351684459061248
266351684928819200
266351685209845761
266351685377617921
266351685687975936
266351685738328065
266351685847351297
266351686409396224
266351686698803201
266351687231475712
266351688938553345
266351689769054208
266351690041683968
266351690129764353
266351690607898624
266351690624688129
266351691228651520
266351692398882817
266351692730212352
266351692751192065
266351692977680384
266351693095120898
266351694621859841
266351694751870976
266351695024500736
266351695712374784
266351696383442944
266351697088098304
266351697134247937
266351697897603073
266351697981476864
266351698342199296
266351699042656257
266351699193651201
266351700485496833
266351701102063616
266351701869617152
266351702125449218
266351702356152321
266351704117751808
266351704230985729
266351704272945155
266351704277143552
266351704411340800
266351704532979712
266351704587513857
266351704637861889
266351705644478464
266351705661272064
266351705715798016
266351706298789888
266351706437206017
266351706676281344
266351706944708608
266351707099889664
266351707192180736
266351707393495040
266351709146726400
266351709234810880
266351709578735620
266351710543421441
266351711348719618
266351711441022978
266351711491342336
266351712384729089
266351712611205120
266351713278119936
266351713571704832
266351715027140608
266351715874381824
266351716943949824
266351717929611264
266351718923636736
266351719577952257
266351719674429440
266351719716360192
266351720802697216
266351721436041216
266351721947738113
266351722757230592
266351723071811585
266351723533201410
266351724275564544
266351725269643264
266351725655506944
266351725751963648
266351726183997440
266351726884421632
266351727354212354
266351727773638656
266351728205627392
266351728335650817
266351728507633664
266351728553775104
266351728620892160
266351728700571648
266351728713154560
266351728826396672
266351729187098624
266351729291976704
266351729354878978
266351729543634945
266351729963053058
266351730000801792
266351730130821121
266351730206314496
266351730210516992
266351730378301440
266351730697043968
266351731137474560
266351731296854016
266351731456217088
266351731619794945
266351732102139904
266351732207005696
266351733704364032
266351735776370688
266351736166436865
266351736636203008
266351737458290688
266351737466679296
266351738204864512
266351738636865536
266351738691407872
266351739924512768
266351740947943425
266351741178626050
266351741442850818
266351741694521344
266351742235590656
266351742776655872
266351743242219520
266351743598735360
266351743938478080
266351744571830272
266351745012207616
266351746115313664
266351746803195904
266351747189059584
266351747742711808
266351747868540928
266351747969196033
266351748887769088
266351749483356161
266351749974065153
266351750099898369
266351750670336002
266351750926188545
266351751190417409
266351751316246528
266351751907639298
266351751911837696
266351752163504128
266351755082727424
266351755095314432
266351756202610689
266351756202614784
266351757100191745
266351757888729088
266351757905498112
266351757909712897
266351758836633601
266351759025397760
266351760006868992
266351761932038144
266351763332952064
266351763643326464
266351764297633792
266351764884824064
266351766247981056
266351766856155137
266351767506259972
266351768038940673
266351768936521728
266351769536319488
266351769909612544
266351770018656256
266351770110947328
266351770450669568
266351770857517056
266351772136775680
266351774380744705
266351775202832385
266351775592882176
266351775727091714
266351776104607745
266351776901521408
266351778621165568
266351779330002945
266351780907069440
266351780961607680
266351781125181440
266351781406199809
266351783440420864
266351784262508544
266351784421888000
266351784702906368
266351785168486400
266351785634058240
266351785919279104
266351786233839616
266351786913329152
266351787232079873
266351788058365952
266351789006262272
266351789123715072
266351789610250240
266351789908058112
266351790415564801
266351790776274944
266351790897897472
266351790923083776
266351791048896513
266351791417982976
266351791669649408
266351791774498817
266351791896162304
266351792177176576
266351792961515520
266351793620013056
266351794177859585
266351794521776128
266351794538545152
266351795218034688
266351795817820160
266351796186927104
266351797147430913
266351797864644608
266351801752748032
266351802415464449
266351802688090112
266351802901999616
266351803581489153
266351804219002880
266351804554555393
266351804873334785
266351805330505732
266351806425231360
266351807213760513
266351807406686208
266351807842877440
266351808144867328
266351811630342144
266351811819089920
266351814427959297
266351815644282881
266351815774334976
266351815946272769
266351816546086912
266351816801927168
266351817670135808
266351818903273472
266351818945208320
266351819171696640
266351819976998912
266351819993776129
266351820576804865
266351821616979968
266351823135338497
266351823202418689
266351823806410753
266351824980819968
266351825849044992
266351826293628928
266351826390114304
266351826947936257
266351827040215041
266351827719704576
266351828726329344
266351828969594882
266351829858807809
266351830173368320
266351830475345920
266351830517297152
